c
r 4 1 s
r 3 1 40 r 1 1 38
r 3 1 36 r 1 2 35 36
r 3 1 38 r 1 1 36
r 3 2 35 r 1 4 35 36 r 1 2 35 31 r 1 1 28
r 3 2 40 40 r 1 1 38
r 1 1 36 r 1 2 36 r 1 1 36 r 1 2 36 35 36
r 1 1 38 38 38 r 1 1 38
r 4 1 40
r 3 2 40 40 r 1 1 38
r 1 1 36 r 1 2 36 r 1 1 36 r 1 2 36 35 36
r 1 1 38 38 38 r 1 1 36
r 3 2 35 r 1 2 36 r 1 2 35 31 r 1 1 28
x1
r 3 1 40 r 1 1 38
r 3 1 36 r 1 1 36
r 3 1 38 r 1 1 38
r 3 1 40 r 1 1 38
r 3 1 40 r 1 1 38
r 3 1 36 r 1 2 35 36
r 3 1 38 r 1 1 36
r 3 2 35 r 1 4 35 36 r 1 2 35 31 r 1 1 28
r 3 1 40 r 1 1 38
r 3 1 36 r 1 2 35 36
r 3 1 38 r 1 1 38
r 3 1 40 r 1 1 38
r 3 1 40 r 1 1 38
r 3 1 36 r 1 1 36
r 3 1 38 r 1 1 36
r 3 2 35 r 1 2 36 r 1 2 35 31 r 1 1 28
xc
r 3 1 40 r 1 1 38
r 4 1 36
r 4 1 38
r 3 2 40 r 1 6 50 51 52 r 1 2 50 52 r 1 8 47 r 3 8 45 r 1 2 43
r 3 1 40 r 1 1 38
r 4 1 36
r 3 1 35 r 1 1 31
r 8 1 33
r 7 2 40 r 1 2 35
r 1 1 40 40 r 1 4 35 r 3 4 s r 1 1 42
r 7 2 38 r 1 2 35
r 1 2 38 s r 1 8 43 r 7 8 45 r 1 2 43 42 r 1 1 38
r 3 1 35 r 1 1 35
r 4 1 40
r 1 2 47 r 1 1 52 r 1 2 50 52 50 r 1 1 47
r 3 1 40 r 1 2 38 s
r 3 1 36 r 1 2 35 36
r 3 1 38 r 1 2 38 s
r 4 1 40
r 2 1 40 r 1 2 40 s 38 s
r 3 1 36 r 1 2 35 36
r 3 1 38 r 1 2 36 s
r 3 2 35 r 1 2 36 r 1 2 35 31 r 1 1 28
r 3 1 40 r 1 2 38 s
r 3 1 36 r 1 2 35 36
r 2 1 38 r 1 1 38 r 1 2 38 s
r 4 1 40
r 3 1 40 r 1 2 38 s
r 3 1 36 r 1 2 35 36
r 3 1 38 r 1 2 36 s
r 3 2 35 r 1 2 36 r 1 2 35 31 r 1 1 28
r 3 1 40 r 1 2 38 s
r 4 1 36
r 4 1 38
r 1 8 50 r 11 8 52 r 1 2 50 47 45 r 1 1 43
r 3 1 40 r 1 2 38 s
r 4 1 36
r 3 1 35 r 1 2 31 s
r 8 1 33
r 7 2 40 r 1 2 35
r 1 1 40 40 r 1 4 35 r 3 4 s r 1 1 42
r 1 1 38 r 5 2 38 r 1 2 35
r 1 2 38 s r 1 8 43 r 7 8 45 r 1 2 43 42 r 1 1 38
r 3 1 35 r 1 1 35
r 3 1 40 r 1 2 s 35
r 1 2 40 s 40 s 45 s 45 43
r 3 1 40 r 1 2 38 s
r 3 1 36 r 1 2 35 36
r 3 1 38 r 1 2 38 s
r 4 1 40
r 3 1 40 r 1 2 38 s
r 3 1 36 r 1 2 35 36
r 3 1 38 r 1 2 36 s
r 3 2 35 r 1 2 36 r 1 2 35 31 r 1 1 28
r 3 1 40 r 1 2 38 s
r 7 2 36 r 1 2 s
r 7 2 38 r 1 2 s
r 3 2 40 r 1 4 50 52 r 1 1 45 r 1 2 45 43
r 3 1 40 r 1 2 38 s
r 7 2 36 r 1 2 s
r 3 1 35 r 1 2 31 s
r 3 1 33 r 1 1 s
r 1 2 43 r 3 2 45 r 1 1 45 r 1 2 45 43
r 3 1 40 r 1 2 38 s
r 3 1 36 r 1 2 35 36
r 3 1 38 r 1 2 38 s
r 4 1 40
r 3 1 40 r 1 2 38 s
r 3 1 36 r 1 2 35 36
r 3 1 38 r 1 2 36 s
r 3 2 35 r 1 2 36 r 1 2 35 31 r 1 1 28
r 3 1 40 r 1 2 38 s
r 4 1 36
r 7 2 38 r 1 2 s
r 1 8 50 r 11 8 52 r 1 2 50 47 45 r 1 1 43
r 3 1 40 r 1 2 38 s
r 4 1 36
r 3 1 35 r 1 1 31
r 8 1 33
r 3 1 40 r 1 2 s 35
r 1 1 40 40 r 1 4 35 r 3 4 s r 1 1 42
r 7 2 38 r 1 2 35
r 1 2 38 s r 1 8 43 r 7 8 45 r 1 2 43 42 r 1 1 38
r 3 1 35 r 1 1 35
r 3 1 40 r 1 2 s 35
r 1 2 40 s r 1 2 40 38 40 s s 35
r 3 1 40 r 1 2 s 35
r 1 1 40 40 r 1 4 35 r 3 4 s r 1 1 42
r 7 2 38 r 1 2 35
r 1 2 38 s r 1 8 43 r 3 8 45 r 1 2 47 43 42 r 1 1 38
r 4 1 35
r 8 1 40
c
T 0
r 1 1
t 43,261448915193824 s
t 43,261448915193824 s
t 43,261448915193824 s
t 43,261448915193824 s
t 113,85052278301278 s
t 104,16912719971654 s
t 108,69208018402892 s
t 105,6371766208879 s
t 94,93398392652124 s
t 104,16912719971654 s
t 108,69654520806803 s
t 105,63295939957683 s
t 101,35212778182097 s
t 113,63538758857634 s
t 104,16502637587591 s
t 113,42106391186935 s
t 101,5232321682078 s
t 113,63538758857634 s
t 110,29595664860358 s
t 110,29595664860358 s
t 102,73733255678509 s
t 104,16912719971654 s
t 102,73733255678509 s
t 110,29595664860358 s
t 102,73733255678509 s
t 102,7413217364293 s
t 104,16502637587591 s
t 119,04976154053811 s
t 110,29595664860358 s
t 110,2913592597224 s
t 110,29595664860358 s
t 111,93840426432017 s
t 104,16912719971654 s
t 105,63295939957683 s
t 98,68347443404319 s
t 110,29595664860358 s
t 110,2913592597224 s
t 104,16912719971654 s
t 105,63295939957683 s
t 115,38461538461539 s
t 110,0894528812149 s
t 107,33409054032127 s
t 104,16912719971654 s
t 111,93840426432017 s
t 102,7413217364293 s
t 111,93840426432017 s
t 108,69654520806803 s
t 111,93840426432017 s
t 101,35212778182097 s
t 105,63295939957683 s
t 108,69654520806803 s
t 107,14285714285714 s
t 102,7413217364293 s
t 108,69654520806803 s
t 110,2913592597224 s
t 108,69654520806803 s
t 105,63295939957683 s
t 104,16912719971654 s
t 110,2913592597224 s
t 119,04976154053811 s
t 99,83398732266828 s
t 104,34576859373767 s
t 113,63538758857634 s
t 111,94313999238481 s
t 105,63295939957683 s
t 115,38461538461539 s
t 108,69654520806803 s
t 111,93840426432017 s
t 97,40474875759249 s
t 100 s
t 105,63295939957683 s
t 111,93840426432017 s
t 100 s
t 108,69654520806803 s
t 110,29595664860358 s
t 119,04440545282765 s
t 101,35212778182097 s
t 105,63295939957683 s
t 113,63538758857634 s
t 119,04976154053811 s
t 102,7413217364293 s
t 115,38461538461539 s
t 111,93840426432017 s
t 115,38461538461539 s
t 100 s
t 101,35212778182097 s
t 110,2913592597224 s
t 113,64026799518983 s
t 102,73733255678509 s
t 108,69654520806803 s
t 101,35212778182097 s
t 108,69654520806803 s
t 108,69208018402892 s
t 101,18159917402777 s
t 102,9171528588098 s
t 110,2913592597224 s
t 102,7413217364293 s
t 105,63295939957683 s
t 104,16912719971654 s
t 110,2913592597224 s
t 102,7413217364293 s
t 101,35212778182097 s
t 110,2913592597224 s
t 110,29595664860358 s
t 104,16502637587591 s
t 104,16912719971654 s
t 107,14285714285714 s
t 110,2913592597224 s
t 107,14285714285714 s
t 110,29595664860358 s
t 105,63295939957683 s
t 108,69654520806803 s
t 102,73733255678509 s
t 113,64026799518983 s
t 120,96552985279327 s
t 115,14360313315927 s
t 108,69654520806803 s
t 113,85052278301278 s
t 111,73042817329618 s
t 110,29595664860358 s
t 102,7413217364293 s
t 108,69208018402892 s
t 119,04976154053811 s
t 115,60643131772107 s
t 108,50043055726411 s
t 110,2913592597224 s
t 117,1885380220559 s
t 119,04976154053811 s
t 113,63538758857634 s
t 111,93840426432017 s
t 115,60643131772107 s
t 120,7282018524433 s
t 108,69654520806803 s
t 120,96552985279327 s
t 120,96552985279327 s
t 117,1885380220559 s
t 107,14285714285714 s
t 113,63538758857634 s
t 115,60643131772107 s
t 115,16364902506963 s
t 108,69654520806803 s
t 110,29595664860358 s
t 117,41735078766364 s
t 115,38461538461539 s
t 119,04440545282765 s
t 110,0940334526088 s
t 112,14715605662457 s
t 120,7282018524433 s
t 120,96552985279327 s
t 122,94967705961619 s
t 108,69654520806803 s
t 125 s
t 117,1885380220559 s
t 117,1885380220559 s
t 111,93840426432017 s
t 117,41735078766364 s
t 118,8092137757622 s
t 107,14285714285714 s
t 115,38461538461539 s
t 113,64026799518983 s
t 107,14285714285714 s
t 110,2913592597224 s
t 117,1885380220559 s
t 120,96552985279327 s
t 115,60643131772107 s
t 113,42592592592592 s
t 113,63538758857634 s
t 117,1885380220559 s
t 111,93840426432017 s
t 123,20156446431066 s
t 118,81454872025147 s
t 113,63538758857634 s
t 103,9849092195237 s
t 115,60643131772107 s
t 117,1885380220559 s
t 115,38461538461539 s
t 125 s
t 122,94967705961619 s
t 115,38461538461539 s
t 122,95539033457248 s
t 110,2913592597224 s
t 115,38461538461539 s
t 119,04976154053811 s
t 111,93840426432017 s
t 111,94313999238481 s
t 110,2913592597224 s
t 115,38461538461539 s
t 120,97106021121931 s
t 115,38461538461539 s
t 117,18334809565988 s
t 108,69654520806803 s
t 117,1885380220559 s
t 117,1885380220559 s
t 113,63538758857634 s
t 108,89337009753488 s
t 118,8092137757622 s
t 108,89337009753488 s
t 118,81454872025147 s
t 113,85052278301278 s
t 118,81454872025147 s
t 113,63538758857634 s
t 112,14715605662457 s
t 110,0940334526088 s
t 121,2093449381585 s
t 111,73514631983447 s
t 111,93840426432017 s
t 110,29595664860358 s
t 120,96552985279327 s
t 115,38461538461539 s
t 110,29595664860358 s
t 105,81883623275345 s
t 116,96061530301021 s
t 111,93840426432017 s
t 117,41735078766364 s
t 111,93840426432017 s
t 113,63538758857634 s
t 115,38461538461539 s
t 113,64026799518983 s
t 115,38461538461539 s
t 110,2913592597224 s
t 113,63538758857634 s
t 102,7413217364293 s
t 115,38461538461539 s
t 120,96552985279327 s
t 119,04976154053811 s
t 111,93840426432017 s
t 117,1885380220559 s
t 115,38461538461539 s
t 115,38461538461539 s
t 115,38461538461539 s
t 113,63538758857634 s
t 117,1885380220559 s
t 107,14285714285714 s
t 111,94313999238481 s
t 115,38461538461539 s
t 120,96552985279327 s
t 115,38461538461539 s
t 111,93840426432017 s
t 115,38461538461539 s
t 113,64026799518983 s
t 113,63538758857634 s
t 113,63538758857634 s
t 119,04976154053811 s
t 120,96552985279327 s
t 104,16502637587591 s
t 122,95539033457248 s
t 119,04440545282765 s
t 111,94313999238481 s
t 108,69208018402892 s
t 113,64026799518983 s
t 115,38461538461539 s
t 120,96552985279327 s
t 113,63538758857634 s
t 116,96061530301021 s
t 113,85052278301278 s
t 129,31287264197047 s
t 115,38461538461539 s
t 119,04440545282765 s
t 113,64026799518983 s
t 127,11375864719446 s
t 110,29595664860358 s
t 115,38461538461539 s
t 119,04976154053811 s
t 117,18334809565988 s
t 107,14285714285714 s
t 113,64026799518983 s
t 119,04440545282765 s
t 122,94967705961619 s
t 110,29595664860358 s
t 119,04976154053811 s
t 115,38461538461539 s
t 119,04440545282765 s
t 108,69654520806803 s
t 117,1885380220559 s
t 125 s
t 122,94967705961619 s
t 115,38461538461539 s
t 120,96552985279327 s
t 113,64026799518983 s
t 127,11375864719446 s
t 111,94313999238481 s
t 120,96552985279327 s
t 117,1885380220559 s
t 126,85171868258305 s
t 115,60643131772107 s
t 113,63538758857634 s
t 117,1885380220559 s
t 116,96061530301021 s
t 110,49400760011693 s
t 117,1885380220559 s
t 116,96061530301021 s
t 115,60643131772107 s
t 119,04440545282765 s
t 117,1885380220559 s
t 110,29595664860358 s
t 119,04440545282765 s
t 108,69654520806803 s
t 119,04976154053811 s
t 117,1885380220559 s
t 119,04440545282765 s
t 111,94313999238481 s
t 117,18334809565988 s
t 110,29595664860358 s
t 115,38461538461539 s
t 108,69654520806803 s
t 110,2913592597224 s
t 111,94313999238481 s
t 127,11986548162383 s
t 111,93840426432017 s
t 115,38461538461539 s
t 115,38461538461539 s
t 113,63538758857634 s
t 111,94313999238481 s
t 108,69208018402892 s
t 125 s
t 107,14285714285714 s
t 111,94313999238481 s
t 120,96552985279327 s
t 108,69654520806803 s
t 115,38461538461539 s
t 117,1885380220559 s
t 117,1885380220559 s
t 113,63538758857634 s
t 117,1885380220559 s
t 115,38461538461539 s
t 115,38461538461539 s
t 107,14285714285714 s
t 113,63538758857634 s
t 110,2913592597224 s
t 107,14285714285714 s
t 119,04976154053811 s
t 119,04976154053811 s
t 111,93840426432017 s
t 110,29595664860358 s
t 117,18334809565988 s
t 120,97106021121931 s
t 120,96552985279327 s
t 113,63538758857634 s
t 117,1885380220559 s
t 125 s
t 108,69654520806803 s
t 111,93840426432017 s
t 113,64026799518983 s
t 115,38461538461539 s
t 110,2913592597224 s
t 110,29595664860358 s
t 117,1885380220559 s
t 119,04440545282765 s
t 107,14285714285714 s
t 111,94313999238481 s
t 113,63538758857634 s
t 119,04440545282765 s
t 117,1885380220559 s
t 113,63538758857634 s
t 108,69654520806803 s
t 115,38461538461539 s
t 111,94313999238481 s
t 111,93840426432017 s
t 110,29595664860358 s
t 117,18334809565988 s
t 108,69654520806803 s
t 110,29595664860358 s
t 117,1885380220559 s
t 116,95544554455445 s
t 117,41735078766364 s
t 107,14285714285714 s
t 113,63538758857634 s
t 122,95539033457248 s
t 108,69208018402892 s
t 105,6371766208879 s
t 115,38461538461539 s
t 129,30655329130627 s
t 131,58287334029538 s
t 115,38461538461539 s
t 108,49598163030998 s
t 134,23295454545453 s
t 110,2913592597224 s
t 113,63538758857634 s
t 113,64026799518983 s
t 119,04440545282765 s
t 115,38461538461539 s
t 107,14285714285714 s
t 115,38461538461539 s
t 122,94967705961619 s
t 111,94313999238481 s
t 108,69654520806803 s
t 118,8092137757622 s
t 121,21489761326676 s
t 117,18334809565988 s
t 111,94313999238481 s
t 120,96552985279327 s
t 119,04976154053811 s
t 111,93840426432017 s
t 108,69654520806803 s
t 119,04976154053811 s
t 120,96552985279327 s
t 117,1885380220559 s
t 107,14285714285714 s
t 110,2913592597224 s
t 120,97106021121931 s
t 104,16502637587591 s
t 110,29595664860358 s
t 120,96552985279327 s
t 127,11986548162383 s
t 115,38461538461539 s
t 115,38461538461539 s
t 117,1885380220559 s
t 117,1885380220559 s
t 117,18334809565988 s
t 105,6371766208879 s
t 120,96552985279327 s
t 115,38461538461539 s
t 113,63538758857634 s
t 117,1885380220559 s
t 108,69654520806803 s
t 120,96552985279327 s
t 113,63538758857634 s
t 113,64026799518983 s
t 111,93840426432017 s
t 122,94967705961619 s
t 110,29595664860358 s
t 110,2913592597224 s
t 111,94313999238481 s
t 117,1885380220559 s
t 110,2913592597224 s
t 115,38461538461539 s
t 127,11986548162383 s
t 108,69654520806803 s
t 101,35212778182097 s
t 110,2913592597224 s
t 117,1885380220559 s
t 122,94967705961619 s
t 108,69654520806803 s
t 117,1885380220559 s
t 110,2913592597224 s
t 115,38461538461539 s
t 103,98899587345254 s
t 105,81883623275345 s
t 122,94967705961619 s
t 131,58287334029538 s
t 115,38461538461539 s
t 120,48083052545306 s
t 106,00536837466447 s
t 120,97106021121931 s
t 111,93840426432017 s
t 119,04976154053811 s
t 110,2913592597224 s
t 113,63538758857634 s
t 111,94313999238481 s
t 110,2913592597224 s
t 113,64026799518983 s
t 119,04440545282765 s
t 110,29595664860358 s
t 110,2913592597224 s
t 111,94313999238481 s
t 119,04440545282765 s
t 117,1885380220559 s
t 117,1885380220559 s
t 113,63538758857634 s
t 120,97106021121931 s
t 108,49598163030998 s
t 110,49862189927336 s
t 113,63538758857634 s
t 120,97106021121931 s
t 107,14285714285714 s
t 111,73042817329618 s
t 113,85052278301278 s
t 122,94967705961619 s
t 115,38461538461539 s
t 111,94313999238481 s
t 113,63538758857634 s
t 115,38461538461539 s
t 104,16502637587591 s
t 119,04976154053811 s
t 113,63538758857634 s
t 125 s
t 117,1885380220559 s
t 115,16364902506963 s
t 110,49862189927336 s
t 125 s
t 113,63538758857634 s
t 113,63538758857634 s
t 110,29595664860358 s
t 122,94967705961619 s
t 110,0894528812149 s
t 107,33409054032127 s
t 119,04976154053811 s
t 120,96552985279327 s
t 101,35212778182097 s
t 125 s
t 122,94967705961619 s
t 120,97106021121931 s
t 104,16502637587591 s
t 115,38461538461539 s
t 110,29595664860358 s
t 122,94967705961619 s
t 108,69654520806803 s
t 113,63538758857634 s
t 119,04976154053811 s
t 125 s
t 110,2913592597224 s
t 111,94313999238481 s
t 110,2913592597224 s
