t 80
x1
r 3 2 62 r 1 1 62 61 r 1 4 59 61
r 1 1 62 r 1 2 61 r 1 1 59 59 r 1 4 61 62
r 3 2 62 r 1 1 62 61 r 1 4 59 61
r 1 1 62 r 1 2 61 r 1 1 59 59 r 1 4 61 62
r 1 2 62 64 62 r 5 2 61
r 1 1 s r 2 1 61 r 1 1 61
r 3 2 62 r 5 2 62
x6
r 4 1 59
r 3 2 59 r 5 2 61
r 1 4 61 s 61 s r 3 2 s r 1 4 61 s s 61 s s
r 1 4 61 s 61 s r 3 2 s r 1 4 61 s s 61 s s
r 3 2 60 57 r 1 2 60 r 1 4 60 59
r 5 2 60 r 3 2 62
x12
r 4 1 62
r 2 1 57 r 1 2 s r 1 4 61 s s r 3 4 61
r 2 1 60 r 1 1 62 60
r 3 2 60 r 5 2 59
r 3 2 59 59 r 1 1 s
r 1 4 59 s r 1 2 59 s r 3 2 59 r 1 1 s
r 3 1 59 r 1 1 55
x19
r 3 2 57 57 r 1 1 s
r 1 1 s r 2 1 61 r 1 1 61
r 3 2 62 r 5 2 62
x6b
r 4 1 59
r 3 2 59 r 5 2 61
r 1 4 61 s 61 s r 3 2 s r 1 4 61 s s 61 s s
r 1 4 61 s 61 s r 3 2 s r 1 4 61 s s 61 s s
r 3 2 60 57 r 1 2 60 r 1 4 60 59
r 5 2 60 r 3 2 62
x12b
r 4 1 62
r 2 1 57 r 1 2 s r 1 4 61 s s r 3 4 61
r 2 1 60 r 1 1 62 60
r 3 2 60 r 5 2 59
r 3 2 59 59 r 1 1 s
r 1 4 59 s r 1 2 59 s r 3 2 59 r 1 1 s
r 3 1 59 r 1 1 55
x19b
r 3 2 57 61 r 1 1 60
r 3 2 59 r 1 1 55 r 3 4 59 59
r 3 2 59 60 r 1 1 59
r 3 1 57 r 1 1 54
r 3 2 57 r 5 2 59
r 1 1 59 55 57 59
x26
r 3 2 59 r 5 2 59
r 1 1 s r 2 1 61 r 1 1 61
r 3 4 61 s r 5 2 61
r 1 1 s r 2 1 61 r 1 1 61
r 3 2 62 r 5 2 62
x6c
r 4 1 59
r 3 2 59 r 5 2 61
r 1 4 61 s 61 s r 3 2 s r 1 4 61 s s 61 s s
r 1 4 61 s 61 s r 3 2 s r 1 4 61 s s 61 s s
r 3 2 60 57 r 1 2 60 r 1 4 60 59
r 5 2 60 r 3 2 62
x12c
r 4 1 62
r 2 1 57 r 1 2 s r 1 4 61 s s r 3 4 61
r 2 1 60 r 1 1 62 60
r 3 2 60 r 5 2 59
r 3 2 59 59 r 1 1 s
r 1 4 59 s r 1 2 59 s r 3 2 59 r 1 1 s
r 3 1 59 r 1 1 55
x19c
r 3 2 57 61 r 1 1 60
r 3 2 59 r 1 1 55 r 3 4 59 59
r 3 2 59 60 r 1 1 59
r 3 1 57 r 1 1 54
r 3 2 57 r 5 2 59
r 1 1 59 55 57 59
x26c
r 3 2 59 r 5 2 59
r 1 1 s r 2 1 61 r 1 1 61
r 3 4 61 s r 5 2 61
