t 96,6
r 3 1 s r 1 2 45 45
r 3 2 57 r 1 1 55 53 r 1 2 52
r 1 2 55 r 1 1 52 s 52 r 1 2 50
r 3 2 53 r 1 1 46 r 3 4 46 46
r 1 1 45 r 3 2 s r 1 1 45 r 1 2 45
r 3 2 57 r 1 1 55 53 r 1 2 52
r 1 2 55 r 1 1 52 s 52 r 1 2 50
{ r 3 2 53 r 1 1 53 r 3 4 53 55 }
r 3 2 53 r 1 1 53 r 1 1 53 r 1 2 55
r 3 2 52 r 1 2 s r 3 4 52 52 r 1 2 53
r 3 1 55 r 1 1 53
r 1 1 53 s r 3 4 53 53 r 1 2 55
r 3 1 57 r 1 1 58
r 5 2 55 r 1 2 s 48 46
r 3 2 58 r 1 2 57 s r 1 1 55 r 1 2 53
r 1 2 s r 3 4 58 r 1 1 57 r 1 2 s r 3 4 53 r 1 1 55
r 3 1 52 r 1 2 s
r 2 1 57 r 1 1 55
c
r 4 1 s
r 1 2 62 65 69 74 77 74 69 65
r 1 2 60 64 67 72 76 72 67 64
r 1 2 58 62 65 70 74 70 65 62
r 1 2 57 61 64 69 73 69 64 61