t 100
xTenor
x1
r 3 1 s r 1 1 63
r 1 1 60 r 1 2 60 r 1 1 58 r 1 2 58 r 1 1 58
r 1 2 58 r 1 1 58 r 2 1 58 r 1 2 58
r 2 3 58 60 58 r 1 1 63 65
x5
r 1 1 58 60 58 58
r 2 3 60 60 60 r 1 1 56 56
r 3 1 58 r 1 1 58
r 2 3 60 60 60 r 1 1 56 56
x9
r 4 1 55
r 8 1 56
r 8 1 58
x13
r 4 1 60
r 4 1 60
r 1 1 62 62 62 62
x17
r 2 1 63 s
x18
r 4 1 58
r 1 1 60 58 57 58
r 4 1 60
r 1 1 61 r 3 1 62
x22
r 2 1 63 r 1 1 58 60
r 1 1 62 60 58 62
r 1 1 63 58 r 3 2 62 r 1 2 65
r 2 1 60 r 1 1 56 56
x26
r 2 1 58 58
r 1 1 58 r 2 1 53 r 1 1 55
r 1 1 56 58 56 55
r 2 1 53 r 1 1 60 60
x30
r 1 1 58 63 r 1 2 60 58 r 1 1 55
r 1 1 60 58 57 57
r 2 1 60 r 1 1 58 56
r 1 1 55 53 51 56
x34
r 4 1 58
r 1 1 60 58 57 58
r 4 1 60
r 1 1 61 r 3 1 62
r 2 1 63 r 1 1 58 60
x39
r 1 1 62 60 58 62
r 1 1 63 58 r 3 2 62 r 1 2 65
r 2 1 60 r 1 1 56 56
r 2 1 58 58
r 1 1 58 r 2 1 61 r 1 1 61
x44
r 4 1 60
r 2 1 59 r 1 1 60 60
r 1 1 58 58 61 r 1 2 60 58
r 3 2 56 r 1 2 56 r 1 1 55 56
x48
r 2 1 55 58
r 2 1 56 s
x18
r 4 1 58
r 1 1 60 58 57 58
r 4 1 60
r 1 1 61 r 3 1 62
x22
r 2 1 63 r 1 1 58 60
r 1 1 62 60 58 62
r 1 1 63 58 r 3 2 62 r 1 2 65
r 2 1 60 r 1 1 56 56
x26
r 2 1 58 58
r 1 1 58 r 2 1 53 r 1 1 55
r 1 1 56 58 56 55
r 2 1 53 r 1 1 60 60
x30
r 1 1 58 63 r 1 2 60 58 r 1 1 55
r 1 1 60 58 57 57
r 2 1 60 r 1 1 58 56
r 1 1 55 53 51 56
x34
r 4 1 58
r 1 1 60 58 57 58
r 4 1 60
r 1 1 61 r 3 1 62
r 2 1 63 r 1 1 58 60
x39
r 1 1 62 60 58 62
r 1 1 63 58 r 3 2 62 r 1 2 65
r 2 1 60 r 1 1 56 56
r 2 1 58 58
r 1 1 58 r 2 1 61 r 1 1 61
x44
r 4 1 60
r 2 1 59 r 1 1 60 60
r 1 1 58 58 61 r 1 2 60 58
r 3 2 56 r 1 2 56 r 1 1 55 56
x50
r 2 1 55 r 1 2 65 65 65 65
r 2 1 63 s
c
c
c
c
c
c
c
c
c
r 1 2 [ 34 42 ] 42 [ 33 42 ] 42 [ 33 42 ] 42 [ 33 42 ] 42
r 1 2 [ 34 42 ] 42 [ 33 42 ] 42 [ 33 42 ] 42 [ 33 42 ] 42
r 1 2 [ 34 42 ] 42 [ 33 42 ] 42 [ 33 42 ] 42 [ 33 42 ] 42
r 1 2 [ 34 42 ] 42 [ 33 42 ] 42 [ 33 42 ] 42 [ 33 42 ] 42
r 1 2 [ 34 42 ] 42 [ 33 42 ] 42 [ 33 42 ] 42 [ 33 42 ] 42
r 1 2 [ 34 42 ] 42 [ 33 42 ] 42 [ 33 42 ] 42 [ 33 42 ] 42
r 1 2 [ 34 42 ] 42 [ 33 42 ] 42 [ 33 42 ] 42 [ 33 42 ] 42
r 1 2 [ 34 42 ] 42 [ 33 42 ] 42 [ 33 42 ] 42 [ 33 42 ] 42
r 1 2 [ 34 42 ] 42 [ 33 42 ] 42 [ 33 42 ] 42 [ 33 42 ] 42
r 1 2 [ 34 42 ] 42 [ 33 42 ] 42 [ 33 42 ] 42 [ 33 42 ] 42
r 1 2 [ 34 42 ] 42 [ 33 42 ] 42 [ 33 42 ] 42 [ 33 42 ] 42
r 1 2 [ 34 42 ] 42 [ 33 42 ] 42 [ 33 42 ] 42 [ 33 42 ] 42
r 1 2 [ 34 42 ] 42 [ 33 42 ] 42 [ 33 42 ] 42 [ 33 42 ] 42
r 1 2 [ 34 42 ] 42 [ 33 42 ] 42 [ 33 42 ] 42 [ 33 42 ] 42
r 1 2 [ 34 42 ] 42 [ 33 42 ] 42 [ 33 42 ] 42 [ 33 42 ] 42
r 1 2 [ 34 42 ] 42 [ 33 42 ] 42 [ 33 42 ] 42 [ 33 42 ] 42
r 1 2 [ 34 42 ] 42 [ 33 42 ] 42 [ 33 42 ] 42 [ 33 42 ] 42
r 1 2 [ 34 42 ] 42 [ 33 42 ] 42 [ 33 42 ] 42 [ 33 42 ] 42
r 1 2 [ 34 42 ] 42 [ 33 42 ] 42 [ 33 42 ] 42 [ 33 42 ] 42
r 1 2 [ 34 42 ] 42 [ 33 42 ] 42 [ 33 42 ] 42 [ 33 42 ] 42
r 1 2 [ 34 42 ] 42 [ 33 42 ] 42 [ 33 42 ] 42 [ 33 42 ] 42
r 1 2 [ 34 42 ] 42 [ 33 42 ] 42 [ 33 42 ] 42 [ 33 42 ] 42
r 1 2 [ 34 42 ] 42 [ 33 42 ] 42 [ 33 42 ] 42 [ 33 42 ] 42
r 1 2 [ 34 42 ] 42 [ 33 42 ] 42 [ 33 42 ] 42 [ 33 42 ] 42
r 1 2 [ 34 42 ] 42 [ 33 42 ] 42 [ 33 42 ] 42 [ 33 42 ] 42
r 1 2 [ 34 42 ] 42 [ 33 42 ] 42 [ 33 42 ] 42 [ 33 42 ] 42
r 1 2 [ 34 42 ] 42 [ 33 42 ] 42 [ 33 42 ] 42 [ 33 42 ] 42
r 1 2 [ 34 42 ] 42 [ 33 42 ] 42 [ 33 42 ] 42 [ 33 42 ] 42
r 1 2 [ 34 42 ] 42 [ 33 42 ] 42 [ 33 42 ] 42 [ 33 42 ] 42
r 1 2 [ 34 42 ] 42 [ 33 42 ] 42 [ 33 42 ] 42 [ 33 42 ] 42
r 1 2 [ 34 42 ] 42 [ 33 42 ] 42 [ 33 42 ] 42 [ 33 42 ] 42
r 1 2 [ 34 42 ] 42 [ 33 42 ] 42 [ 33 42 ] 42 [ 33 42 ] 42
r 1 2 [ 34 42 ] 42 [ 33 42 ] 42 [ 33 42 ] 42 [ 33 42 ] 42
r 1 2 [ 34 42 ] 42 [ 33 42 ] 42 [ 33 42 ] 42 [ 33 42 ] 42
r 1 2 [ 34 42 ] 42 [ 33 42 ] 42 [ 33 42 ] 42 [ 33 42 ] 42
r 1 2 [ 34 42 ] 42 [ 33 42 ] 42 [ 33 42 ] 42 [ 33 42 ] 42
r 1 2 [ 34 42 ] 42 [ 33 42 ] 42 [ 33 42 ] 42 [ 33 42 ] 42
r 1 2 [ 34 42 ] 42 [ 33 42 ] 42 [ 33 42 ] 42 [ 33 42 ] 42
r 1 2 [ 34 42 ] 42 [ 33 42 ] 42 [ 33 42 ] 42 [ 33 42 ] 42
r 1 2 [ 34 42 ] 42 [ 33 42 ] 42 [ 33 42 ] 42 [ 33 42 ] 42
r 1 2 [ 34 42 ] 42 [ 33 42 ] 42 [ 33 42 ] 42 [ 33 42 ] 42
r 1 2 [ 34 42 ] 42 [ 33 42 ] 42 [ 33 42 ] 42 [ 33 42 ] 42
r 1 2 [ 34 42 ] 42 [ 33 42 ] 42 [ 33 42 ] 42 [ 33 42 ] 42
r 1 2 [ 34 42 ] 42 [ 33 42 ] 42 [ 33 42 ] 42 [ 33 42 ] 42
r 1 2 [ 34 42 ] 42 [ 33 42 ] 42 [ 33 42 ] 42 [ 33 42 ] 42
r 1 2 [ 34 42 ] 42 [ 33 42 ] 42 [ 33 42 ] 42 [ 33 42 ] 42
r 1 2 [ 34 42 ] 42 [ 33 42 ] 42 [ 33 42 ] 42 [ 33 42 ] 42
r 1 2 [ 34 42 ] 42 [ 33 42 ] 42 [ 33 42 ] 42 [ 33 42 ] 42
r 1 2 [ 34 42 ] 42 [ 33 42 ] 42 [ 33 42 ] 42 [ 33 42 ] 42
r 1 2 [ 34 42 ] 42 [ 33 42 ] 42 [ 33 42 ] 42 [ 33 42 ] 42
r 1 2 [ 34 42 ] 42 [ 33 42 ] 42 [ 33 42 ] 42 [ 33 42 ] 42
r 1 2 [ 34 42 ] 42 [ 33 42 ] 42 [ 33 42 ] 42 [ 33 42 ] 42
r 1 2 [ 34 42 ] 42 [ 33 42 ] 42 [ 33 42 ] 42 [ 33 42 ] 42
r 1 2 [ 34 42 ] 42 [ 33 42 ] 42 [ 33 42 ] 42 [ 33 42 ] 42
r 1 2 [ 34 42 ] 42 [ 33 42 ] 42 [ 33 42 ] 42 [ 33 42 ] 42
r 1 2 [ 34 42 ] 42 [ 33 42 ] 42 [ 33 42 ] 42 [ 33 42 ] 42
r 1 2 [ 34 42 ] 42 [ 33 42 ] 42 [ 33 42 ] 42 [ 33 42 ] 42
r 1 2 [ 34 42 ] 42 [ 33 42 ] 42 [ 33 42 ] 42 [ 33 42 ] 42
r 1 2 [ 34 42 ] 42 [ 33 42 ] 42 [ 33 42 ] 42 [ 33 42 ] 42
r 1 2 [ 34 42 ] 42 [ 33 42 ] 42 [ 33 42 ] 42 [ 33 42 ] 42
r 1 2 [ 34 42 ] 42 [ 33 42 ] 42 [ 33 42 ] 42 [ 33 42 ] 42
r 1 2 [ 34 42 ] 42 [ 33 42 ] 42 [ 33 42 ] 42 [ 33 42 ] 42
r 1 2 [ 34 42 ] 42 [ 33 42 ] 42 [ 33 42 ] 42 [ 33 42 ] 42
r 1 2 [ 34 42 ] 42 [ 33 42 ] 42 [ 33 42 ] 42 [ 33 42 ] 42
r 1 2 [ 34 42 ] 42 [ 33 42 ] 42 [ 33 42 ] 42 [ 33 42 ] 42
r 1 2 [ 34 42 ] 42 [ 33 42 ] 42 [ 33 42 ] 42 [ 33 42 ] 42
r 1 2 [ 34 42 ] 42 [ 33 42 ] 42 [ 33 42 ] 42 [ 33 42 ] 42
r 1 2 [ 34 42 ] 42 [ 33 42 ] 42 [ 33 42 ] 42 [ 33 42 ] 42
r 1 2 [ 34 42 ] 42 [ 33 42 ] 42 [ 33 42 ] 42 [ 33 42 ] 42
r 1 2 [ 34 42 ] 42 [ 33 42 ] 42 [ 33 42 ] 42 [ 33 42 ] 42
r 1 2 [ 34 42 ] 42 [ 33 42 ] 42 [ 33 42 ] 42 [ 33 42 ] 42
r 1 2 [ 34 42 ] 42 [ 33 42 ] 42 [ 33 42 ] 42 [ 33 42 ] 42
r 1 2 [ 34 42 ] 42 [ 33 42 ] 42 [ 33 42 ] 42 [ 33 42 ] 42
r 1 2 [ 34 42 ] 42 [ 33 42 ] 42 [ 33 42 ] 42 [ 33 42 ] 42
r 1 2 [ 34 42 ] 42 [ 33 42 ] 42 [ 33 42 ] 42 [ 33 42 ] 42
r 1 2 [ 34 42 ] 42 [ 33 42 ] 42 [ 33 42 ] 42 [ 33 42 ] 42
r 1 2 [ 34 42 ] 42 [ 33 42 ] 42 [ 33 42 ] 42 [ 33 42 ] 42
r 1 2 [ 34 42 ] 42 [ 33 42 ] 42 [ 33 42 ] 42 [ 33 42 ] 42
r 1 2 [ 34 42 ] 42 [ 33 42 ] 42 [ 33 42 ] 42 [ 33 42 ] 42
r 1 2 [ 34 42 ] 42 [ 33 42 ] 42 [ 33 42 ] 42 [ 33 42 ] 42
r 1 2 [ 34 42 ] 42 [ 33 42 ] 42 [ 33 42 ] 42 [ 33 42 ] 42
