c
o 33
xIntro
r 4 1 s
r 4 1 s
r 1 2 27 27 r 3 1 27
r 4 1 27
r 1 2 27 27 r 3 1 27
r 4 1 27
r 1 2 27 27 r 3 1 27
r 4 1 27
r 1 2 35 35 35 35 39 37 35 32
r 1 2 34 34 34 34 35 34 30 29
r 1 2 27 27 27 r 1 1 27 r 1 2 27 27 39
r 1 2 27 27 27 27 34 27 34 27
r 1 2 27 27 27 r 1 1 27 r 1 2 27 27 39
r 1 2 27 27 27 r 1 1 27 r 1 2 39 37 32
r 1 2 27 27 27 r 1 1 27 r 1 2 27 27 39
r 1 2 27 27 27 27 34 27 34 27
r 1 2 35 35 35 35 39 37 35 32
r 1 2 34 34 34 34 35 34 30 29
xEstrofa
r 1 2 27 s 27 s 27 34 27 s
r 1 2 27 s 27 s 27 34 27 34
r 1 2 27 s 27 s 27 27 27 s
r 1 2 27 s 27 s 32 30 32 34
r 1 2 27 s 27 s 27 34 27 s
r 1 2 27 s 27 s 27 34 27 34
r 1 2 27 s 27 s 27 27 27 s
r 1 2 27 s 27 s 32 30 32 34
r 1 2 27 s 27 s 27 34 39 s
r 1 2 27 s 27 s 27 34 27 34
r 1 2 27 s 27 s 27 27 27 s
r 1 2 27 s 27 s 32 30 32 34
r 1 2 27 s 27 s 27 34 27 s
r 1 2 27 s 27 s 27 34 27 34
r 1 2 27 s 27 s 27 27 27 s
r 1 2 27 s 27 s 32 30 32 34
xInstrumental
r 1 2 27 27 27 r 1 1 27 r 1 2 27 27 39
r 1 2 27 27 27 27 34 27 34 27
r 1 2 27 27 27 r 1 1 27 r 1 2 27 27 39
r 1 2 27 27 27 r 1 1 27 r 1 2 39 37 32
r 1 2 27 27 27 r 1 1 27 r 1 2 27 27 39
r 1 2 27 27 27 27 34 27 34 27
r 1 2 35 35 35 35 39 37 35 32
r 1 2 34 34 34 34 35 34 30 29
xEstrofa
r 1 2 27 s 27 s 27 34 27 s
r 1 2 27 s 27 s 27 34 27 34
r 1 2 27 s 27 s 27 27 27 s
r 1 2 27 s 27 s 32 30 32 34
r 1 2 27 s 27 s 27 34 27 s
r 1 2 27 s 27 s 27 34 27 34
r 1 2 27 s 27 s 27 27 27 s
r 1 2 27 s 27 s 32 30 32 34
r 1 2 27 s 27 s 27 34 27 s
r 1 2 27 s 27 s 27 34 27 34
r 1 2 27 s 27 s 27 27 27 s
r 1 2 27 s 27 s 32 30 32 34
r 1 2 27 s 27 s 27 34 27 s
r 1 2 27 s 27 s 27 34 27 34
r 1 2 27 s 27 s 27 27 27 s
r 1 2 27 s 27 s 32 30 32 34
xInstrumental
r 1 2 27 27 27 r 1 1 27 r 1 2 27 27 39
r 1 2 27 27 27 27 34 27 34 27
r 1 2 27 27 27 r 1 1 27 r 1 2 27 27 39
r 1 2 27 27 27 r 1 1 27 r 1 2 39 37 32
r 1 2 27 27 27 r 1 1 27 r 1 2 27 27 39
r 1 2 27 27 27 27 34 27 34 27
r 1 2 35 35 35 35 39 37 35 32
r 1 2 34 34 34 34 35 34 30 29
r 1 2 27 27 27 r 1 1 27 r 1 2 27 27 39
r 1 2 27 27 27 27 34 27 34 27
r 1 2 27 27 27 r 1 1 27 r 1 2 27 27 39
r 1 2 27 27 27 r 1 1 27 r 1 2 39 37 32
r 1 2 27 27 27 r 1 1 27 r 1 2 27 27 39
r 1 2 27 27 27 27 34 27 34 27
r 1 2 35 35 35 35 39 37 35 32
r 1 2 34 34 34 34 35 34 30 29
xSolo
r 1 2 27 27 27 r 1 1 27 r 1 2 27 39 27
r 1 2 27 27 27 r 1 1 27 r 1 2 30 30 30
r 1 2 27 27 27 r 1 1 27 r 1 2 27 34 r 1 1 33
r 1 1 33 r 1 2 33 r 2 1 32
r 1 2 27 27 27 r 1 1 27 r 1 2 27 39 27
r 1 2 27 27 27 r 1 1 27 r 1 2 30 30 30
r 1 2 27 27 27 r 1 1 27 r 1 2 27 34 r 1 1 33
r 1 1 33 r 1 2 33 r 2 1 32
r 1 2 35 r 1 1 35 r 1 2 35 35 r 1 1 35 r 1 2 35
r 1 2 34 r 1 1 34 r 1 2 34 34 r 1 1 34 r 1 2 34
r 1 2 35 r 1 1 35 r 1 2 35 35 r 1 1 35 r 1 2 35
r 1 2 34 r 1 1 34 r 1 2 34 30 r 3 2 29
xEstrofa
r 1 2 27 s 27 s 27 34 27 s
r 1 2 27 s 27 s 27 34 27 34
r 1 2 27 s 27 s 27 27 27 s
r 1 2 27 s 27 s 32 30 32 34
r 1 2 27 s 27 s 27 34 27 s
r 1 2 27 s 27 s 27 34 27 34
r 1 2 27 s 27 s 27 27 27 s
r 1 2 27 s 27 s 32 30 32 34
r 1 2 27 s 27 s 27 34 27 s
r 1 2 27 s 27 s 27 34 27 34
r 1 2 27 s 27 s 27 27 27 s
r 1 2 27 s 27 s 32 30 32 34
r 1 2 27 s 27 s 27 34 27 s
r 1 2 27 s 27 s 27 34 27 34
r 1 2 27 s 27 s 27 27 27 s
r 1 2 27 s 27 s 32 30 32 34
xInstrumental
r 1 2 27 27 27 r 1 1 27 r 1 2 27 27 39
r 1 2 27 27 27 27 34 27 34 27
r 1 2 27 27 27 r 1 1 27 r 1 2 27 27 39
r 1 2 27 27 27 r 1 1 27 r 1 2 39 37 32
r 1 2 27 27 27 r 1 1 27 r 1 2 27 27 39
r 1 2 27 27 27 27 34 27 34 27
r 1 2 35 35 35 35 39 37 35 32
r 1 2 34 34 34 34 35 34 30 29
r 1 2 27 27 27 r 1 1 27 r 1 2 27 27 39
r 1 2 27 27 27 27 34 27 34 27
r 1 2 27 27 27 r 1 1 27 r 1 2 27 27 39
r 1 2 27 27 27 r 1 1 27 r 1 2 39 37 32
r 1 2 27 27 27 r 1 1 27 r 1 2 27 27 39
r 1 2 27 27 27 27 34 27 34 27
r 1 2 35 35 35 35 39 37 35 32
r 1 2 34 34 34 34 35 34 30 29
xFinal
r 1 2 27 27 27 r 1 1 27 r 1 2 27 34 27
r 1 2 27 27 27 r 1 1 27 r 1 2 27 39 27
r 1 2 27 27 27 r 1 1 27 r 1 2 27 34 27
r 1 2 27 27 27 r 1 1 27 r 1 2 27 30 27
r 1 2 27 27 27 r 1 1 27 r 1 2 27 34 27
r 1 2 27 27 27 r 1 1 27 r 1 2 27 39 27
r 1 2 27 27 27 r 1 1 27 r 1 2 27 34 27
r 1 2 27 27 27 r 1 1 27 r 1 2 27 30 27
r 1 2 35 r 1 1 35 r 1 2 35 35 r 1 1 35 r 1 2 35
r 1 2 34 r 1 1 34 r 1 2 34 34 r 1 1 34 r 1 2 34
r 1 2 35 r 1 1 35 r 1 2 35 35 r 1 1 35 r 1 2 35
r 1 2 34 r 1 1 34 r 1 2 34 30 r 3 2 29
r 2 1 27
c
T 0
r 1 1
t 103,62653716613143 s
t 103,62653716613143 s
t 103,62653716613143 s
t 103,62653716613143 s
t 140,1928578997563 s
t 140,51298390951092 s
t 140,18543046357615 s
t 140,51298390951092 s
t 143,54689958227092 s
t 143,53911250949332 s
t 143,53911250949332 s
t 139,85940060256885 s
t 139,53488372093022 s
t 139,85940060256885 s
t 139,53488372093022 s
t 139,85940060256885 s
t 139,53488372093022 s
t 139,85940060256885 s
t 139,85940060256885 s
t 139,53488372093022 s
t 139,86679352997146 s
t 139,53488372093022 s
t 139,85940060256885 s
t 139,53488372093022 s
t 139,85940060256885 s
t 139,85940060256885 s
t 139,85940060256885 s
t 139,85940060256885 s
t 139,53488372093022 s
t 139,85940060256885 s
t 139,85940060256885 s
t 139,85940060256885 s
t 140,1928578997563 s
t 140,18543046357615 s
t 140,18543046357615 s
t 140,18543046357615 s
t 140,18543046357615 s
t 140,1928578997563 s
t 140,18543046357615 s
t 139,85940060256885 s
t 140,18543046357615 s
t 140,18543046357615 s
t 140,18543046357615 s
t 140,1928578997563 s
t 140,18543046357615 s
t 140,18543046357615 s
t 140,18543046357615 s
t 140,18543046357615 s
t 140,1928578997563 s
t 140,18543046357615 s
t 140,18543046357615 s
t 140,18543046357615 s
t 140,18543046357615 s
t 139,86679352997146 s
t 140,18543046357615 s
t 140,18543046357615 s
t 140,18543046357615 s
t 140,18543046357615 s
t 140,1928578997563 s
t 140,18543046357615 s
t 140,18543046357615 s
t 140,18543046357615 s
t 140,18543046357615 s
t 140,1928578997563 s
t 139,53488372093022 s
t 139,53488372093022 s
t 139,53488372093022 s
t 139,53488372093022 s
t 139,53488372093022 s
t 139,53488372093022 s
t 139,53488372093022 s
t 139,53488372093022 s
t 139,53488372093022 s
t 139,53488372093022 s
t 139,53488372093022 s
t 139,85940060256885 s
t 140,18543046357615 s
t 139,85940060256885 s
t 140,18543046357615 s
t 140,18543046357615 s
t 139,85940060256885 s
t 140,1928578997563 s
t 140,18543046357615 s
t 139,85940060256885 s
t 140,18543046357615 s
t 139,85940060256885 s
t 140,18543046357615 s
t 140,1928578997563 s
t 139,85940060256885 s
t 140,18543046357615 s
t 140,18543046357615 s
t 139,85940060256885 s
t 140,18543046357615 s
t 139,86679352997146 s
t 140,18543046357615 s
t 140,18543046357615 s
t 139,85940060256885 s
t 140,18543046357615 s
t 140,18543046357615 s
t 139,86679352997146 s
t 140,18543046357615 s
t 139,85940060256885 s
t 140,18543046357615 s
t 140,18543046357615 s
t 139,85940060256885 s
t 140,1928578997563 s
t 140,18543046357615 s
t 139,85940060256885 s
t 140,18543046357615 s
t 139,85940060256885 s
t 140,18543046357615 s
t 140,1928578997563 s
t 139,85940060256885 s
t 140,18543046357615 s
t 140,18543046357615 s
t 139,85940060256885 s
t 140,18543046357615 s
t 139,85940060256885 s
t 140,1928578997563 s
t 140,18543046357615 s
t 139,85940060256885 s
t 140,18543046357615 s
t 140,18543046357615 s
t 139,85940060256885 s
t 140,1928578997563 s
t 139,85940060256885 s
t 140,18543046357615 s
t 140,18543046357615 s
t 139,85940060256885 s
t 140,18543046357615 s
t 140,1928578997563 s
t 139,85940060256885 s
t 140,18543046357615 s
t 139,85940060256885 s
t 140,18543046357615 s
t 140,18543046357615 s
t 139,86679352997146 s
t 139,85940060256885 s
t 139,85940060256885 s
t 139,85940060256885 s
t 139,85940060256885 s
t 139,85940060256885 s
t 139,85940060256885 s
t 139,85940060256885 s
t 139,85940060256885 s
t 139,85940060256885 s
t 139,86679352997146 s
t 139,85940060256885 s
t 139,85940060256885 s
t 139,85940060256885 s
t 140,18543046357615 s
t 139,85940060256885 s
t 139,85940060256885 s
t 139,85940060256885 s
t 139,85940060256885 s
t 139,86679352997146 s
t 139,85940060256885 s
t 139,85940060256885 s
t 139,85940060256885 s
t 139,85940060256885 s
t 139,85940060256885 s
t 139,85940060256885 s
t 139,85940060256885 s
t 139,85940060256885 s
t 139,85940060256885 s
t 139,86679352997146 s
t 139,85940060256885 s
t 139,85940060256885 s
t 140,18543046357615 s
t 140,18543046357615 s
t 139,85940060256885 s
t 140,18543046357615 s
t 140,1928578997563 s
t 139,85940060256885 s
t 140,18543046357615 s
t 139,85940060256885 s
t 140,18543046357615 s
t 140,18543046357615 s
t 139,86679352997146 s
t 140,18543046357615 s
t 140,18543046357615 s
t 139,85940060256885 s
t 140,18543046357615 s
t 140,18543046357615 s
t 139,86679352997146 s
t 140,18543046357615 s
t 139,85940060256885 s
t 140,18543046357615 s
t 140,18543046357615 s
t 139,85940060256885 s
t 140,1928578997563 s
t 140,18543046357615 s
t 139,85940060256885 s
t 140,18543046357615 s
t 140,18543046357615 s
t 139,85940060256885 s
t 140,1928578997563 s
t 139,85940060256885 s
t 140,18543046357615 s
t 140,18543046357615 s
t 139,85940060256885 s
t 140,18543046357615 s
t 140,1928578997563 s
t 139,85940060256885 s
t 140,18543046357615 s
t 139,85940060256885 s
t 140,18543046357615 s
t 140,18543046357615 s
t 139,85940060256885 s
t 140,1928578997563 s
t 140,18543046357615 s
t 139,85940060256885 s
t 140,18543046357615 s
t 140,18543046357615 s
t 139,85940060256885 s
t 140,1928578997563 s
t 139,85940060256885 s
t 140,18543046357615 s
t 140,18543046357615 s
t 139,85940060256885 s
t 140,18543046357615 s
t 140,1928578997563 s
t 139,85940060256885 s
t 140,18543046357615 s
t 140,18543046357615 s
t 139,85940060256885 s
t 140,18543046357615 s
t 140,1928578997563 s
t 140,18543046357615 s
t 140,18543046357615 s
t 140,51298390951092 s
t 140,1928578997563 s
t 140,18543046357615 s
t 140,18543046357615 s
t 140,51298390951092 s
t 140,18543046357615 s
t 140,1928578997563 s
t 140,18543046357615 s
t 140,51298390951092 s
t 140,18543046357615 s
t 140,1928578997563 s
t 140,18543046357615 s
t 140,18543046357615 s
t 140,51298390951092 s
t 140,18543046357615 s
t 140,1928578997563 s
t 140,18543046357615 s
t 140,18543046357615 s
t 139,85940060256885 s
t 139,85940060256885 s
t 139,85940060256885 s
t 140,1928578997563 s
t 139,85940060256885 s
t 139,85940060256885 s
t 139,85940060256885 s
t 140,18543046357615 s
t 139,85940060256885 s
t 139,85940060256885 s
t 140,18543046357615 s
t 139,86679352997146 s
t 139,85940060256885 s
t 139,85940060256885 s
t 140,18543046357615 s
t 139,85940060256885 s
t 139,85940060256885 s
t 139,85940060256885 s
t 140,18543046357615 s
t 139,86679352997146 s
t 139,85940060256885 s
t 139,85940060256885 s
t 140,18543046357615 s
t 140,18543046357615 s
t 140,18543046357615 s
t 140,1928578997563 s
t 140,18543046357615 s
t 140,18543046357615 s
t 140,18543046357615 s
t 140,18543046357615 s
t 140,1928578997563 s
t 140,18543046357615 s
t 140,18543046357615 s
t 140,18543046357615 s
t 140,51298390951092 s
t 140,1928578997563 s
t 140,18543046357615 s
t 140,18543046357615 s
t 140,18543046357615 s
t 140,18543046357615 s
t 140,1928578997563 s
t 140,18543046357615 s
t 140,18543046357615 s
t 140,18543046357615 s
t 140,18543046357615 s
t 140,1928578997563 s
t 140,18543046357615 s
t 140,18543046357615 s
t 139,85940060256885 s
t 139,53488372093022 s
t 139,85940060256885 s
t 139,53488372093022 s
t 139,85940060256885 s
t 139,53488372093022 s
t 139,85940060256885 s
t 139,53488372093022 s
t 139,86679352997146 s
t 139,53488372093022 s
t 139,85940060256885 s
t 139,53488372093022 s
t 139,53488372093022 s
t 139,85940060256885 s
t 139,53488372093022 s
t 139,85940060256885 s
t 139,53488372093022 s
t 139,85940060256885 s
t 139,53488372093022 s
t 139,85940060256885 s
t 139,53488372093022 s
t 139,85940060256885 s
t 139,53488372093022 s
t 139,85940060256885 s
t 139,53488372093022 s
t 139,85940060256885 s
t 139,53488372093022 s
t 139,53488372093022 s
t 139,85940060256885 s
t 140,1928578997563 s
t 140,51298390951092 s
t 140,18543046357615 s
t 140,51298390951092 s
t 140,1928578997563 s
t 140,18543046357615 s
t 140,51298390951092 s
t 140,18543046357615 s
t 140,52044609665427 s
t 140,18543046357615 s
t 140,51298390951092 s
t 140,18543046357615 s
t 140,1928578997563 s
t 140,51298390951092 s
t 140,18543046357615 s
t 140,51298390951092 s
t 140,1928578997563 s
t 140,51298390951092 s
t 140,18543046357615 s
t 140,18543046357615 s
t 138,890346963414 s
t 138,890346963414 s
t 138,57030636292222 s
t 138,8830568969137 s
t 138,890346963414 s
t 138,57030636292222 s
t 138,890346963414 s
t 138,8830568969137 s
t 140,1928578997563 s
t 140,51298390951092 s
t 140,18543046357615 s
t 140,51298390951092 s
t 140,1928578997563 s
t 140,18543046357615 s
t 140,51298390951092 s
t 140,18543046357615 s
t 140,52044609665427 s
t 140,18543046357615 s
t 140,51298390951092 s
t 140,18543046357615 s
t 140,1928578997563 s
t 140,51298390951092 s
t 140,18543046357615 s
t 140,51298390951092 s
t 140,1928578997563 s
t 140,51298390951092 s
t 140,18543046357615 s
t 140,51298390951092 s
t 140,1928578997563 s
t 140,18543046357615 s
t 140,18543046357615 s
t 140,18543046357615 s
t 139,85940060256885 s
t 140,18543046357615 s
t 140,1928578997563 s
t 139,85940060256885 s
t 140,18543046357615 s
t 140,18543046357615 s
t 139,85940060256885 s
t 140,18543046357615 s
t 139,86679352997146 s
t 140,18543046357615 s
t 140,18543046357615 s
t 139,85940060256885 s
t 140,18543046357615 s
t 140,18543046357615 s
t 139,86679352997146 s
t 140,18543046357615 s
t 140,18543046357615 s
t 139,85940060256885 s
t 140,18543046357615 s
t 140,18543046357615 s
t 139,86679352997146 s
t 140,18543046357615 s
t 139,85940060256885 s
t 140,18543046357615 s
t 140,18543046357615 s
t 139,85940060256885 s
t 140,1928578997563 s
t 140,18543046357615 s
t 139,85940060256885 s
t 140,18543046357615 s
t 140,18543046357615 s
t 139,85940060256885 s
t 140,1928578997563 s
t 139,85940060256885 s
t 140,18543046357615 s
t 140,18543046357615 s
t 139,85940060256885 s
t 140,18543046357615 s
t 140,1928578997563 s
t 139,85940060256885 s
t 140,18543046357615 s
t 140,18543046357615 s
t 139,85940060256885 s
t 140,18543046357615 s
t 140,1928578997563 s
t 139,85940060256885 s
t 140,18543046357615 s
t 139,85940060256885 s
t 140,18543046357615 s
t 140,18543046357615 s
t 139,85940060256885 s
t 140,1928578997563 s
t 140,18543046357615 s
t 139,85940060256885 s
t 140,18543046357615 s
t 139,85940060256885 s
t 139,85940060256885 s
t 139,85940060256885 s
t 139,86679352997146 s
t 139,85940060256885 s
t 139,85940060256885 s
t 140,18543046357615 s
t 139,85940060256885 s
t 139,85940060256885 s
t 139,85940060256885 s
t 139,85940060256885 s
t 139,85940060256885 s
t 139,86679352997146 s
t 139,85940060256885 s
t 139,85940060256885 s
t 139,85940060256885 s
t 139,85940060256885 s
t 140,18543046357615 s
t 139,85940060256885 s
t 139,85940060256885 s
t 139,85940060256885 s
t 139,86679352997146 s
t 139,85940060256885 s
t 139,85940060256885 s
t 139,85940060256885 s
t 139,85940060256885 s
t 139,85940060256885 s
t 139,85940060256885 s
t 139,85940060256885 s
t 140,18543046357615 s
t 139,86679352997146 s
t 139,85940060256885 s
t 139,85940060256885 s
t 139,85940060256885 s
t 139,85940060256885 s
t 139,85940060256885 s
t 139,85940060256885 s
t 139,85940060256885 s
t 139,85940060256885 s
t 139,85940060256885 s
t 140,1928578997563 s
t 139,85940060256885 s
t 139,85940060256885 s
t 139,85940060256885 s
t 139,85940060256885 s
t 139,85940060256885 s
t 139,85940060256885 s
t 139,85940060256885 s
t 139,85940060256885 s
t 139,86679352997146 s
t 139,85940060256885 s
t 139,53488372093022 s
t 139,85940060256885 s
t 139,85940060256885 s
t 139,85940060256885 s
t 139,85940060256885 s
t 139,85940060256885 s
t 139,85940060256885 s
t 139,53488372093022 s
t 139,85940060256885 s
t 139,85940060256885 s
t 140,1928578997563 s
t 140,18543046357615 s
t 140,18543046357615 s
t 140,18543046357615 s
t 139,85940060256885 s
t 140,1928578997563 s
t 140,18543046357615 s
t 140,18543046357615 s
t 140,18543046357615 s
t 140,18543046357615 s
t 140,1928578997563 s
t 140,18543046357615 s
t 139,85940060256885 s
t 140,18543046357615 s
t 140,18543046357615 s
t 140,18543046357615 s
t 140,1928578997563 s
t 140,18543046357615 s
t 140,18543046357615 s
t 140,18543046357615 s
t 139,85940060256885 s
t 140,1928578997563 s
t 140,18543046357615 s
t 140,18543046357615 s
t 140,18543046357615 s
t 140,18543046357615 s
t 140,1928578997563 s
t 139,85940060256885 s
t 140,18543046357615 s
t 139,85940060256885 s
t 139,85940060256885 s
t 140,18543046357615 s
t 139,85940060256885 s
t 140,1928578997563 s
t 139,85940060256885 s
t 140,18543046357615 s
t 139,85940060256885 s
