t 90
v 60
o 0
r 1 4 83 84 83 79 83 84 83 79 83 84 83 79 83 84 83 79
r 1 4 88 89 88 84 88 89 88 84 88 89 88 84 88 89 88 84
r 1 4 83 84 83 79 83 84 83 79 83 84 83 79 83 84 83 79
r 1 4 88 89 88 84 88 89 88 84 88 89 88 84 88 89 88 84
c
o 73
r 5 2 s r 1 1 69
r 1 1 74 r 6 1 76
r 1 1 69 74
r 1 1 72 69 r 1 2 72 69
c
o 48
r 4 1 [ 48 52 55 59 ]
r 4 1 [ 53 57 60 64 ]
r 4 1 [ 48 52 55 59 ]
r 4 1 [ 53 57 60 64 ]
