t 153
c
o 40
r 4 1 s
r 3 2 s r 1 2 69 r 1 1 69 69
r 1 1 69 r 1 2 66 68 r 1 1 69 71
r 1 1 68 r 1 2 s 68 r 1 1 68 68
r 1 1 68 r 1 2 64 66 r 1 1 68 69
r 1 1 66 r 1 2 s 69 r 1 1 69 69
r 1 1 69 r 1 2 66 68 r 1 1 69 71
r 1 1 68 r 1 2 s 68 r 1 1 68 68
r 1 1 68 r 1 2 64 66 r 1 1 68 69
r 1 1 66 s r 1 2 74 73 71 73
r 1 2 74 73 71 73 74 73 r 1 1 74
r 1 1 69 s r 1 2 74 73 71 73
r 1 2 74 73 71 73 r 1 1 74 73
r 1 1 66 s r 1 2 74 73 71 73
r 1 2 74 73 71 73 r 1 1 74 73
r 1 1 68 s r 1 2 74 73 71 73
r 1 2 74 73 71 73 74 75 76 77
r 4 1 78
c
C 9
r 2 1 34 33
r 2 1 34 33
r 2 1 34 33
r 2 1 34 33
r 2 1 34 33
r 2 1 34 33
r 2 1 34 33
r 2 1 34 33
r 2 1 34 33
r 2 1 34 33
r 2 1 34 33
r 2 1 34 33
r 2 1 34 33
r 2 1 34 33
r 2 1 34 33
r 2 1 34 33
r 2 1 34 33
r 2 1 34 33
