t 116
{ t 60 }
r 4 1 s
r 4 1 s
r 4 1 s
r 4 1 s
r 5 2 s r 1 2 59 59 r 1 1 64
r 1 2 59 59 r 2 1 59 r 1 1 57
r 3 2 55 s r 1 1 64
r 1 2 60 r 2 1 59 r 1 1 s
r 1 1 57 r 2 1 55 r 1 1 s
r 1 2 47 r 1 1 59 57 r 3 2 55
r 3 2 54 r 1 2 54 54 r 1 1 52
r 2 1 54 r 5 2 47
r 1 2 s r 1 1 59 59 59 64
r 1 2 59 r 1 1 59 57 r 5 2 55
r 2 1 s r 1 2 59
r 1 2 64 r 1 1 60 r 3 2 59 r 1 2 57 r 1 1 57
r 3 2 55 s r 1 2 47
r 1 1 57 r 1 2 59 r 3 2 57 r 1 2 55
r 2 1 54 r 1 1 54 r 1 2 54 54 r 1 1 54
r 7 2 47
r 5 2 s r 1 2 59 59 r 1 1 64
r 1 2 59 r 3 2 59 r 1 1 57
r 3 2 55 s r 1 1 59 64
r 1 1 60 r 2 1 59 r 1 1 57
r 3 2 55 s r 1 2 45
r 1 2 57 57 59 r 1 1 57 r 3 2 55
r 3 2 54 r 1 1 54 54
r 2 1 54 r 2 1 47
r 2 1 59 r 1 1 59 r 1 2 59 59 r 1 1 64
r 1 2 59 59 59 57 r 3 2 59
r 3 2 s r 2 1 64 r 1 2 64
r 1 1 64 r 3 2 59 r 1 1 59 57
r 2 1 55 r 1 1 s r 1 2 47
r 3 2 57 r 1 1 59 60 59
r 1 1 57 r 1 2 55 r 1 1 54 54
r 2 1 47 r 3 2 s r 1 2 59
r 1 2 59 r 1 1 59 r 1 2 59 66 r 1 1 64
r 2 1 64 r 5 2 59
r 4 1 s
r 4 1 s
r 4 1 s
r 4 1 s
r 4 1 s
r 4 1 s
r 3 2 s r 1 2 57 59 57 59 57
r 3 2 59 r 4 1 52
r 1 2 57 59 57 59 57
r 1 2 59 r 1 1 62 r 1 2 57 r 7 2 59
r 1 2 57 59 57 59 57
r 3 2 59 r 4 1 52
r 1 2 57 59 57 59 57
r 1 2 59 r 1 1 62 r 1 2 57 r 9 2 59
r 1 2 59 59 r 1 1 64
r 1 2 59 59 59 r 1 1 57 r 2 1 55
r 3 2 s r 1 2 59 59 r 1 1 64
r 1 2 60 59 r 2 1 59 r 1 1 57
r 2 1 55 r 1 1 s r 1 2 47
r 1 1 57 r 1 2 59 r 1 1 57 55 r 1 2 55
r 1 2 54 r 3 2 54 r 1 2 s 54 r 1 1 54
r 3 2 54 r 2 1 47 r 1 2 s
r 1 2 s r 1 1 59 59 59 64
r 1 1 59 59 57
r 2 1 55 r 1 1 s r 1 2 59 59 r 1 1 64
r 1 1 60 59 57
r 2 1 55 r 2 1 s r 1 2 45
r 1 2 57 57 59 r 1 1 57 55 r 1 2 55
r 3 2 54 r 1 1 54 r 1 2 54 54 r 1 1 54
r 3 2 47 r 2 1 s
r 5 2 s r 1 2 59 59 r 1 1 64
r 1 2 59 r 1 1 59 r 3 2 57
r 5 2 55 r 1 2 s r 1 1 59
r 1 1 64 60 r 2 1 59 r 1 1 57
r 2 1 55 r 1 1 s r 1 2 45
r 1 2 57 57 59 r 1 1 57 r 3 2 55
r 3 2 54 r 1 2 54 54 r 1 1 54
r 2 1 54 47
r 2 1 59 r 1 1 59 r 1 2 59 59
r 1 1 64 r 1 2 59 59 59 57 r 3 2 59
r 3 2 s r 2 1 64 r 1 2 64
r 1 1 64 r 3 2 59 r 1 1 59
r 1 1 57 r 5 2 55 r 1 2 s 45
r 3 2 57 r 1 1 59 60 59
r 1 1 57 r 1 2 55 r 1 1 54 54
r 1 1 47 r 5 2 s r 1 2 59
r 1 2 59 r 1 1 59 r 1 2 59 66 r 1 1 64
r 2 1 64 r 7 2 59 r 3 1 s
r 4 1 s
r 4 1 s
r 4 1 s
r 4 1 s
r 4 1 s
r 3 2 s r 1 2 57 59 57 59 57
r 3 2 59 r 4 1 52
r 1 2 57 59 57 59 57
r 1 2 59 r 1 1 62 r 1 2 57 r 7 2 59
r 1 2 57 59 57 59 57
r 3 2 59 r 4 1 52
r 1 2 57 59 57 59 57
r 1 2 59 r 1 1 62 r 1 2 57 r 9 2 59
xAmane
r 1 2 59 59 r 1 1 64
r 1 2 59 r 1 1 59 r 3 2 57
r 5 2 55 r 1 2 s r 1 1 59
r 1 1 64 60 r 2 1 59 r 1 1 57
r 2 1 55 r 1 1 s r 1 2 45
r 1 2 57 57 59 r 1 1 57 r 3 2 55
r 3 2 54 r 1 2 54 54 r 1 1 54
r 2 1 54 47
r 2 1 59 r 1 1 59 r 1 2 59 59
r 1 1 64 r 1 2 59 59 59 57 r 3 2 59
xHoyTe
r 3 2 s r 2 1 64 r 1 2 64
r 1 1 64 r 3 2 67 r 1 1 64
r 1 1 64 r 5 2 59 r 1 2 s 45
r 3 2 57 r 1 1 59 60 59
r 1 1 57 r 1 2 55 r 1 1 54 54
r 1 1 47 r 5 2 s r 1 2 59
r 1 2 59 r 1 1 59 r 1 2 59 66 r 1 1 64
r 2 1 64 r 7 2 59 r 3 1 s
c
c
c
c
c
c
c
c
c
{ r 1 2 [ 35 42 ] 42 [ 38 42 ] 42 [ 35 42 ] 42 [ 38 42 ] 42 }
{ r 1 1 [ 35 42 ] 42 [ 38 42 ] 42 }
r 4 1 s
r 1 2 [ 34 42 ] 42 [ 33 42 ] 42 [ 33 42 ] 42 [ 33 42 ] 42
r 1 2 [ 34 42 ] 42 [ 33 42 ] 42 [ 33 42 ] 42 [ 33 42 ] 42
r 1 2 [ 34 42 ] 42 [ 33 42 ] 42 [ 33 42 ] 42 [ 33 42 ] 42
r 1 2 [ 34 42 ] 42 [ 33 42 ] 42 [ 33 42 ] 42 [ 33 42 ] 42
r 1 2 [ 34 42 ] 42 [ 33 42 ] 42 [ 33 42 ] 42 [ 33 42 ] 42
r 1 2 [ 34 42 ] 42 [ 33 42 ] 42 [ 33 42 ] 42 [ 33 42 ] 42
r 1 2 [ 34 42 ] 42 [ 33 42 ] 42 [ 33 42 ] 42 [ 33 42 ] 42
r 1 2 [ 34 42 ] 42 [ 33 42 ] 42 [ 33 42 ] 42 [ 33 42 ] 42
r 1 2 [ 34 42 ] 42 [ 33 42 ] 42 [ 33 42 ] 42 [ 33 42 ] 42
r 1 2 [ 34 42 ] 42 [ 33 42 ] 42 [ 33 42 ] 42 [ 33 42 ] 42
r 1 2 [ 34 42 ] 42 [ 33 42 ] 42 [ 33 42 ] 42 [ 33 42 ] 42
r 1 2 [ 34 42 ] 42 [ 33 42 ] 42 [ 33 42 ] 42 [ 33 42 ] 42
r 1 2 [ 34 42 ] 42 [ 33 42 ] 42 [ 33 42 ] 42 [ 33 42 ] 42
r 1 2 [ 34 42 ] 42 [ 33 42 ] 42 [ 33 42 ] 42 [ 33 42 ] 42
r 1 2 [ 34 42 ] 42 [ 33 42 ] 42 [ 33 42 ] 42 [ 33 42 ] 42
r 1 2 [ 34 42 ] 42 [ 33 42 ] 42 [ 33 42 ] 42 [ 33 42 ] 42
r 1 2 [ 34 42 ] 42 [ 33 42 ] 42 [ 33 42 ] 42 [ 33 42 ] 42
r 1 2 [ 34 42 ] 42 [ 33 42 ] 42 [ 33 42 ] 42 [ 33 42 ] 42
r 1 2 [ 34 42 ] 42 [ 33 42 ] 42 [ 33 42 ] 42 [ 33 42 ] 42
r 1 2 [ 34 42 ] 42 [ 33 42 ] 42 [ 33 42 ] 42 [ 33 42 ] 42
r 1 2 [ 34 42 ] 42 [ 33 42 ] 42 [ 33 42 ] 42 [ 33 42 ] 42
r 1 2 [ 34 42 ] 42 [ 33 42 ] 42 [ 33 42 ] 42 [ 33 42 ] 42
r 1 2 [ 34 42 ] 42 [ 33 42 ] 42 [ 33 42 ] 42 [ 33 42 ] 42
r 1 2 [ 34 42 ] 42 [ 33 42 ] 42 [ 33 42 ] 42 [ 33 42 ] 42
r 1 2 [ 34 42 ] 42 [ 33 42 ] 42 [ 33 42 ] 42 [ 33 42 ] 42
r 1 2 [ 34 42 ] 42 [ 33 42 ] 42 [ 33 42 ] 42 [ 33 42 ] 42
r 1 2 [ 34 42 ] 42 [ 33 42 ] 42 [ 33 42 ] 42 [ 33 42 ] 42
r 1 2 [ 34 42 ] 42 [ 33 42 ] 42 [ 33 42 ] 42 [ 33 42 ] 42
r 1 2 [ 34 42 ] 42 [ 33 42 ] 42 [ 33 42 ] 42 [ 33 42 ] 42
r 1 2 [ 34 42 ] 42 [ 33 42 ] 42 [ 33 42 ] 42 [ 33 42 ] 42
r 1 2 [ 34 42 ] 42 [ 33 42 ] 42 [ 33 42 ] 42 [ 33 42 ] 42
r 1 2 [ 34 42 ] 42 [ 33 42 ] 42 [ 33 42 ] 42 [ 33 42 ] 42
r 1 2 [ 34 42 ] 42 [ 33 42 ] 42 [ 33 42 ] 42 [ 33 42 ] 42
r 1 2 [ 34 42 ] 42 [ 33 42 ] 42 [ 33 42 ] 42 [ 33 42 ] 42
r 1 2 [ 34 42 ] 42 [ 33 42 ] 42 [ 33 42 ] 42 [ 33 42 ] 42
r 1 2 [ 34 42 ] 42 [ 33 42 ] 42 [ 33 42 ] 42 [ 33 42 ] 42
r 1 2 [ 34 42 ] 42 [ 33 42 ] 42 [ 33 42 ] 42 [ 33 42 ] 42
r 1 2 [ 34 42 ] 42 [ 33 42 ] 42 [ 33 42 ] 42 [ 33 42 ] 42
r 1 2 [ 34 42 ] 42 [ 33 42 ] 42 [ 33 42 ] 42 [ 33 42 ] 42
r 1 2 [ 34 42 ] 42 [ 33 42 ] 42 [ 33 42 ] 42 [ 33 42 ] 42
r 1 2 [ 34 42 ] 42 [ 33 42 ] 42 [ 33 42 ] 42 [ 33 42 ] 42
r 1 2 [ 34 42 ] 42 [ 33 42 ] 42 [ 33 42 ] 42 [ 33 42 ] 42
r 1 2 [ 34 42 ] 42 [ 33 42 ] 42 [ 33 42 ] 42 [ 33 42 ] 42
r 1 2 [ 34 42 ] 42 [ 33 42 ] 42 [ 33 42 ] 42 [ 33 42 ] 42
r 1 2 [ 34 42 ] 42 [ 33 42 ] 42 [ 33 42 ] 42 [ 33 42 ] 42
r 1 2 [ 34 42 ] 42 [ 33 42 ] 42 [ 33 42 ] 42 [ 33 42 ] 42
r 1 2 [ 34 42 ] 42 [ 33 42 ] 42 [ 33 42 ] 42 [ 33 42 ] 42
r 1 2 [ 34 42 ] 42 [ 33 42 ] 42 [ 33 42 ] 42 [ 33 42 ] 42
r 1 2 [ 34 42 ] 42 [ 33 42 ] 42 [ 33 42 ] 42 [ 33 42 ] 42
r 1 2 [ 34 42 ] 42 [ 33 42 ] 42 [ 33 42 ] 42 [ 33 42 ] 42
r 1 2 [ 34 42 ] 42 [ 33 42 ] 42 [ 33 42 ] 42 [ 33 42 ] 42
r 1 2 [ 34 42 ] 42 [ 33 42 ] 42 [ 33 42 ] 42 [ 33 42 ] 42
r 1 2 [ 34 42 ] 42 [ 33 42 ] 42 [ 33 42 ] 42 [ 33 42 ] 42
r 1 2 [ 34 42 ] 42 [ 33 42 ] 42 [ 33 42 ] 42 [ 33 42 ] 42
r 1 2 [ 34 42 ] 42 [ 33 42 ] 42 [ 33 42 ] 42 [ 33 42 ] 42
r 1 2 [ 34 42 ] 42 [ 33 42 ] 42 [ 33 42 ] 42 [ 33 42 ] 42
r 1 2 [ 34 42 ] 42 [ 33 42 ] 42 [ 33 42 ] 42 [ 33 42 ] 42
r 1 2 [ 34 42 ] 42 [ 33 42 ] 42 [ 33 42 ] 42 [ 33 42 ] 42
r 1 2 [ 34 42 ] 42 [ 33 42 ] 42 [ 33 42 ] 42 [ 33 42 ] 42
r 1 2 [ 34 42 ] 42 [ 33 42 ] 42 [ 33 42 ] 42 [ 33 42 ] 42
r 1 2 [ 34 42 ] 42 [ 33 42 ] 42 [ 33 42 ] 42 [ 33 42 ] 42
r 1 2 [ 34 42 ] 42 [ 33 42 ] 42 [ 33 42 ] 42 [ 33 42 ] 42
r 1 2 [ 34 42 ] 42 [ 33 42 ] 42 [ 33 42 ] 42 [ 33 42 ] 42
r 1 2 [ 34 42 ] 42 [ 33 42 ] 42 [ 33 42 ] 42 [ 33 42 ] 42
r 1 2 [ 34 42 ] 42 [ 33 42 ] 42 [ 33 42 ] 42 [ 33 42 ] 42
r 1 2 [ 34 42 ] 42 [ 33 42 ] 42 [ 33 42 ] 42 [ 33 42 ] 42
r 1 2 [ 34 42 ] 42 [ 33 42 ] 42 [ 33 42 ] 42 [ 33 42 ] 42
r 1 2 [ 34 42 ] 42 [ 33 42 ] 42 [ 33 42 ] 42 [ 33 42 ] 42
r 1 2 [ 34 42 ] 42 [ 33 42 ] 42 [ 33 42 ] 42 [ 33 42 ] 42
r 1 2 [ 34 42 ] 42 [ 33 42 ] 42 [ 33 42 ] 42 [ 33 42 ] 42
r 1 2 [ 34 42 ] 42 [ 33 42 ] 42 [ 33 42 ] 42 [ 33 42 ] 42
r 1 2 [ 34 42 ] 42 [ 33 42 ] 42 [ 33 42 ] 42 [ 33 42 ] 42
r 1 2 [ 34 42 ] 42 [ 33 42 ] 42 [ 33 42 ] 42 [ 33 42 ] 42
r 1 2 [ 34 42 ] 42 [ 33 42 ] 42 [ 33 42 ] 42 [ 33 42 ] 42
r 1 2 [ 34 42 ] 42 [ 33 42 ] 42 [ 33 42 ] 42 [ 33 42 ] 42
r 1 2 [ 34 42 ] 42 [ 33 42 ] 42 [ 33 42 ] 42 [ 33 42 ] 42
r 1 2 [ 34 42 ] 42 [ 33 42 ] 42 [ 33 42 ] 42 [ 33 42 ] 42
r 1 2 [ 34 42 ] 42 [ 33 42 ] 42 [ 33 42 ] 42 [ 33 42 ] 42
r 1 2 [ 34 42 ] 42 [ 33 42 ] 42 [ 33 42 ] 42 [ 33 42 ] 42
r 1 2 [ 34 42 ] 42 [ 33 42 ] 42 [ 33 42 ] 42 [ 33 42 ] 42
r 1 2 [ 34 42 ] 42 [ 33 42 ] 42 [ 33 42 ] 42 [ 33 42 ] 42
r 1 2 [ 34 42 ] 42 [ 33 42 ] 42 [ 33 42 ] 42 [ 33 42 ] 42
r 1 2 [ 34 42 ] 42 [ 33 42 ] 42 [ 33 42 ] 42 [ 33 42 ] 42
r 1 2 [ 34 42 ] 42 [ 33 42 ] 42 [ 33 42 ] 42 [ 33 42 ] 42
r 1 2 [ 34 42 ] 42 [ 33 42 ] 42 [ 33 42 ] 42 [ 33 42 ] 42
r 1 2 [ 34 42 ] 42 [ 33 42 ] 42 [ 33 42 ] 42 [ 33 42 ] 42
r 1 2 [ 34 42 ] 42 [ 33 42 ] 42 [ 33 42 ] 42 [ 33 42 ] 42
r 1 2 [ 34 42 ] 42 [ 33 42 ] 42 [ 33 42 ] 42 [ 33 42 ] 42
r 1 2 [ 34 42 ] 42 [ 33 42 ] 42 [ 33 42 ] 42 [ 33 42 ] 42
r 1 2 [ 34 42 ] 42 [ 33 42 ] 42 [ 33 42 ] 42 [ 33 42 ] 42
r 1 2 [ 34 42 ] 42 [ 33 42 ] 42 [ 33 42 ] 42 [ 33 42 ] 42
r 1 2 [ 34 42 ] 42 [ 33 42 ] 42 [ 33 42 ] 42 [ 33 42 ] 42
r 1 2 [ 34 42 ] 42 [ 33 42 ] 42 [ 33 42 ] 42 [ 33 42 ] 42
r 1 2 [ 34 42 ] 42 [ 33 42 ] 42 [ 33 42 ] 42 [ 33 42 ] 42
r 1 2 [ 34 42 ] 42 [ 33 42 ] 42 [ 33 42 ] 42 [ 33 42 ] 42
r 1 2 [ 34 42 ] 42 [ 33 42 ] 42 [ 33 42 ] 42 [ 33 42 ] 42
r 1 2 [ 34 42 ] 42 [ 33 42 ] 42 [ 33 42 ] 42 [ 33 42 ] 42
r 1 2 [ 34 42 ] 42 [ 33 42 ] 42 [ 33 42 ] 42 [ 33 42 ] 42
r 1 2 [ 34 42 ] 42 [ 33 42 ] 42 [ 33 42 ] 42 [ 33 42 ] 42
r 1 2 [ 34 42 ] 42 [ 33 42 ] 42 [ 33 42 ] 42 [ 33 42 ] 42
r 1 2 [ 34 42 ] 42 [ 33 42 ] 42 [ 33 42 ] 42 [ 33 42 ] 42
r 1 2 [ 34 42 ] 42 [ 33 42 ] 42 [ 33 42 ] 42 [ 33 42 ] 42
r 1 2 [ 34 42 ] 42 [ 33 42 ] 42 [ 33 42 ] 42 [ 33 42 ] 42
r 1 2 [ 34 42 ] 42 [ 33 42 ] 42 [ 33 42 ] 42 [ 33 42 ] 42
r 1 2 [ 34 42 ] 42 [ 33 42 ] 42 [ 33 42 ] 42 [ 33 42 ] 42
r 1 2 [ 34 42 ] 42 [ 33 42 ] 42 [ 33 42 ] 42 [ 33 42 ] 42
r 1 2 [ 34 42 ] 42 [ 33 42 ] 42 [ 33 42 ] 42 [ 33 42 ] 42
r 1 2 [ 34 42 ] 42 [ 33 42 ] 42 [ 33 42 ] 42 [ 33 42 ] 42
r 1 2 [ 34 42 ] 42 [ 33 42 ] 42 [ 33 42 ] 42 [ 33 42 ] 42
r 1 2 [ 34 42 ] 42 [ 33 42 ] 42 [ 33 42 ] 42 [ 33 42 ] 42
r 1 2 [ 34 42 ] 42 [ 33 42 ] 42 [ 33 42 ] 42 [ 33 42 ] 42
r 1 2 [ 34 42 ] 42 [ 33 42 ] 42 [ 33 42 ] 42 [ 33 42 ] 42
r 1 2 [ 34 42 ] 42 [ 33 42 ] 42 [ 33 42 ] 42 [ 33 42 ] 42
r 1 2 [ 34 42 ] 42 [ 33 42 ] 42 [ 33 42 ] 42 [ 33 42 ] 42
r 1 2 [ 34 42 ] 42 [ 33 42 ] 42 [ 33 42 ] 42 [ 33 42 ] 42
r 1 2 [ 34 42 ] 42 [ 33 42 ] 42 [ 33 42 ] 42 [ 33 42 ] 42
r 1 2 [ 34 42 ] 42 [ 33 42 ] 42 [ 33 42 ] 42 [ 33 42 ] 42
r 1 2 [ 34 42 ] 42 [ 33 42 ] 42 [ 33 42 ] 42 [ 33 42 ] 42

