r 1 1 [ 66 78 ] r 1 2 [ 62 74 ] r 1 1 [ 64 76 ] [ 65 77 ] [ 66 78 ]
r 1 1 [ 70 73 ] r 1 2 [ 66 78 ] [ 64 76 ] [ 70 73 ] [ 61 73 ] [ 64 76 ]
r 1 2 [ 66 78 ] 71 74 r 1 1 [ 66 78 ] [ 67 79 ] [ 66 78 ]
r 1 1 [ 70 73 ] r 1 2 [ 66 78 ] [ 64 76 ] [ 70 73 ] r 1 1 [ 67 79 ]

r 1 1 [ 66 78 ] r 1 2 [ 62 74 ] r 1 1 [ 64 76 ] [ 65 77 ] [ 66 78 ]
r 1 2 [ 70 73 ] [ 64 76 ] [ 66 78 ] [ 64 76 ] [ 70 73 ] [ 61 73 ] [ 64 76 ]
r 1 2 [ 66 78 ] 71 74 [ 66 78 ] [ 67 79 ] r 1 1 [ 71 74 ] [ 68 80 ]
r 1 1 [ 70 73 ] r 1 2 [ 68 80 ] r 1 1 [ 67 79 ] r 1 2 [ 70 73 ] [ 67 79 ]

r 1 1 [ 66 78 ] r 1 2 [ 62 74 ] r 1 1 [ 64 76 ] [ 65 77 ] [ 66 78 ]
r 1 1 [ 70 73 ] r 1 2 [ 66 78 ] [ 64 76 ] [ 70 73 ] [ 61 73 ] [ 64 76 ]
