t 100
m 6 3
xTenor
xA1
r 1 2 s 64 64 65 65 64
r 1 2 64 62 62 65 65 64
r 1 2 64 62 62 64 64 62
r 1 2 62 60 59 r 3 2 60
r 1 2 s 64 64 65 65 64
r 1 2 64 62 62 65 65 64
r 1 2 64 62 62 64 64 62
r 1 2 62 60 59 r 3 2 60
xB1
r 1 2 s 60 60 58 62 60
r 1 1 57 r 1 2 57 57 59 60
r 3 2 62 r 1 2 62 60 62
r 3 2 64 r 1 2 62 64 60
r 3 2 62 r 1 2 59 60 57
r 3 2 59 r 1 2 55 59 62
r 1 1 55 57 55
r 1 2 52 53 54 55 57 59
xC1
r 1 2 60 55 57 55 57 59
r 1 1 59 r 2 1 55
r 1 2 s 55 57 59 57 57
r 1 1 57 r 2 1 57
r 1 2 s 53 55 57 62 60
r 1 2 60 59 59 67 67 67
r 1 2 67 65 65 64 65 64
r 1 1 65 r 2 1 64
r 1 2 s 55 57 59 64 59
r 1 1 57 r 2 1 55
r 1 2 s 55 57 58 60 60
r 1 1 58 r 2 1 60
r 1 2 s 56 56 65 65 65
r 1 2 65 64 55 64 64 64
r 1 2 64 62 62 62 60 59
r 1 1 62 r 2 1 60
xD1
r 1 2 s 55 55 57 57 55
r 3 1 65
r 1 2 s 55 59 62 59 59
r 1 1 62 r 2 1 60
r 3 1 s
r 3 1 s
r 3 1 s
r 3 1 s
r 1 2 s 55 55 57 57 55
r 3 1 65
r 1 2 s 55 59 62 59 59
r 1 1 62 r 2 1 60
r 1 2 s 57 57 60 60 59
r 1 2 60 55 55 60 60 62
r 1 2 60 59 59 59 57 59
r 1 1 57 r 2 1 55
r 1 2 s 57 57 60 60 59
r 1 2 60 55 55 60 60 62
r 1 2 60 59 59 59 57 59
r 1 1 57 r 2 1 55
xA2
r 1 2 s 64 64 65 65 64
r 1 2 64 62 62 65 65 64
r 1 2 64 62 62 64 64 62
r 1 2 62 60 59 r 3 2 60
r 1 2 s 64 64 65 65 64
r 1 2 64 62 62 65 65 64
r 1 2 64 62 62 64 64 62
r 1 2 62 60 59 r 3 2 60
xB2
r 1 2 s 60 60 58 62 60
r 1 1 57 r 1 2 57 57 59 60
r 3 2 62 r 1 2 62 60 62
r 3 2 64 r 1 2 62 64 60
r 3 2 62 r 1 2 59 60 57
r 3 2 59 r 1 2 55 59 62
r 1 1 55 57 55
r 1 2 52 53 54 55 57 59
xC2
r 1 2 60 55 57 55 57 59
r 1 1 59 r 2 1 55
r 1 2 s 55 57 59 57 57
r 1 1 57 r 2 1 57
r 1 2 s 53 55 57 62 60
r 1 2 60 59 59 67 67 67
r 1 2 67 65 65 64 65 64
r 1 1 65 r 2 1 64
r 1 2 s 55 57 59 64 59
r 1 1 57 r 2 1 55
r 1 2 s 55 57 58 60 60
r 1 1 58 r 2 1 60
r 1 2 s 56 56 65 65 65
r 1 2 65 64 55 64 64 64
r 1 2 64 62 62 62 60 59
r 1 1 62 r 2 1 60
xD2
r 1 2 s 55 55 57 57 55
r 3 1 65
r 1 2 s 55 59 62 65 65
r 1 1 65 r 2 1 64
r 1 2 s 64 64 64 62 60
r 1 2 60 59 59 59 62 60
r 1 2 59 57 57 57 60 59
r 1 1 57 r 2 1 55
r 1 2 s 55 55 57 57 55
r 3 1 65
r 1 2 s 55 59 62 65 65
r 1 1 65 r 2 1 64
r 1 2 s 57 57 60 60 59
r 1 2 60 55 55 64 64 64
r 1 2 64 62 62 62 60 59
r 1 1 62 r 2 1 60
r 1 2 s 57 57 60 60 59
r 1 2 60 55 55 60 60 62
r 1 2 60 59 59 59 57 59
r 1 1 57 r 2 1 55
xE
r 2 1 s r 1 1 60
r 3 2 53 53
r 3 2 56 56
r 1 1 55
