t 100
m 2 2
xTenor
x1
r 1 1 62 r 3 4 62 r 1 4 62
r 3 2 62 r 1 2 59
r 3 2 57 r 1 2 55
r 3 2 54 r 1 2 62
r 3 2 62 r 1 2 62
x6
r 3 2 57 r 1 2 57
r 3 2 57 r 1 2 s
r 8 1 s
x12
r 3 2 s r 1 2 57
r 1 2 57 57 57 57
r 3 2 57 r 1 2 57
r 1 2 57 57 57 57
x16
r 1 2 54 r 1 1 57 r 1 2 62
r 3 2 62 r 1 2 59
r 1 1 57 r 1 2 57 55
r 3 2 54 r 1 2 s
r 1 1 62 r 3 4 62 r 1 4 62
x21
r 3 2 62 r 1 2 59
r 3 2 57 r 1 2 55
r 3 2 54 r 1 2 57
r 3 2 59 r 1 2 59
r 3 2 61 r 1 2 61
x26
r 3 2 62 r 1 2 62
r 1 2 62 61 59 57
r 3 4 57 r 1 4 55 r 1 2 54 62
r 1 2 62 61 59 57
x30
r 3 4 57 r 1 4 55 r 1 2 54 54
r 1 2 54 54 54 r 1 4 54 55
r 3 2 57 r 1 4 55 54
r 1 2 52 52 52 r 1 4 52 54
x34
r 3 2 55 r 1 4 54 52
r 1 2 50 r 1 1 62 r 1 2 59
r 3 4 57 r 1 4 55 r 1 2 54 55
r 1 1 54 52
r 2 1 50
x39
r 1 1 62 r 3 4 62 r 1 4 64
r 3 2 66 r 1 2 59
r 3 2 57 r 1 2 55
r 3 2 54 r 1 2 62
r 3 2 62 r 1 2 64
x44
r 3 2 64 r 1 2 64
r 3 2 62 r 1 2 s
r 6 1 s
x49
r 2 1 s
r 3 2 s r 1 2 57
r 1 2 57 57 57 57
r 3 2 57 r 1 2 57
x53
r 1 2 57 57 57 57
r 1 2 57 50 54 57
r 3 2 62 r 1 2 59
r 1 1 57 r 1 2 57 55
r 2 1 54
c
xBajo
x1
r 1 1 50 r 3 4 50 r 1 4 50
r 3 2 50 r 1 2 55
r 1 1 57 45
r 3 2 50 r 1 2 54
r 3 2 55 r 1 2 55
x6
r 3 2 57 r 1 2 57
r 3 2 50 r 1 2 50
r 1 1 50 50
r 3 2 50 r 1 2 50
r 1 1 50 50
r 5 2 50
x12
r 1 1 s r 1 2 50
r 1 2 50 50 50 50
r 3 2 45 r 1 2 45
r 1 2 45 45 45 45
x16
r 3 2 50 r 1 2 50
r 3 2 50 r 1 2 43
r 1 1 45 45
r 3 2 50 r 1 2 s
r 1 1 50 r 3 4 50 r 1 4 50
x21
r 3 2 50 r 1 2 55
r 1 1 57 45
r 3 2 50 r 1 2 54
r 3 2 55 r 1 2 55
r 3 2 57 r 1 2 57
x26
r 3 2 50 r 1 2 54
r 1 2 54 57 55 54
r 3 4 54 r 1 4 52 r 1 2 50 54
r 1 2 54 57 55 54
x30
r 3 4 54 r 1 4 52 r 1 2 50 50
r 1 2 50 50 50 r 1 4 50 52
r 3 2 54 r 1 4 52 50
r 1 2 45 45 45 r 1 4 45 45
x34
r 3 2 45 r 1 2 45
r 1 2 50 r 1 1 54 r 1 2 55
r 3 4 54 r 1 4 52 r 1 2 50 43
r 1 1 45 45
r 2 1 50
x39
r 1 1 50 r 3 4 62 r 1 4 62
r 3 2 62 r 1 2 55
r 1 1 57 45
r 3 2 50 r 1 2 54
r 3 2 55 r 1 2 52
x44
r 3 2 57 r 1 2 45
r 1 2 50 50 54 57
r 3 1 62
r 1 1 50
r 1 1 50 50
x49
r 3 2 50 r 1 2 s
r 3 2 s r 1 2 50
r 1 2 50 50 50 50
r 3 2 45 r 1 2 45
x53
r 1 2 45 45 45 45
r 3 2 50 r 1 2 50
r 3 2 50 r 1 2 43
r 1 1 45 45
r 2 1 50
c
c
c
c
c
c
c
c
x1
r 1 2 [ 34 42 ] 42 [ 33 42 ] 42
r 1 2 [ 34 42 ] 42 [ 33 42 ] 42
r 1 2 [ 34 42 ] 42 [ 33 42 ] 42
r 1 2 [ 34 42 ] 42 [ 33 42 ] 42
r 1 2 [ 34 42 ] 42 [ 33 42 ] 42
x6
r 1 2 [ 34 42 ] 42 [ 33 42 ] 42
r 1 2 [ 34 42 ] 42 [ 33 42 ] 42
r 1 2 [ 34 42 ] 42 [ 33 42 ] 42
r 1 2 [ 34 42 ] 42 [ 33 42 ] 42
r 1 2 [ 34 42 ] 42 [ 33 42 ] 42
r 1 2 [ 34 42 ] 42 [ 33 42 ] 42
x12
r 1 2 [ 34 42 ] 42 [ 33 42 ] 42
r 1 2 [ 34 42 ] 42 [ 33 42 ] 42
r 1 2 [ 34 42 ] 42 [ 33 42 ] 42
r 1 2 [ 34 42 ] 42 [ 33 42 ] 42
x16
r 1 2 [ 34 42 ] 42 [ 33 42 ] 42
r 1 2 [ 34 42 ] 42 [ 33 42 ] 42
r 1 2 [ 34 42 ] 42 [ 33 42 ] 42
r 1 2 [ 34 42 ] 42 [ 33 42 ] 42
r 1 2 [ 34 42 ] 42 [ 33 42 ] 42
x21
r 1 2 [ 34 42 ] 42 [ 33 42 ] 42
r 1 2 [ 34 42 ] 42 [ 33 42 ] 42
r 1 2 [ 34 42 ] 42 [ 33 42 ] 42
r 1 2 [ 34 42 ] 42 [ 33 42 ] 42
r 1 2 [ 34 42 ] 42 [ 33 42 ] 42
x26
r 1 2 [ 34 42 ] 42 [ 33 42 ] 42
r 1 2 [ 34 42 ] 42 [ 33 42 ] 42
r 1 2 [ 34 42 ] 42 [ 33 42 ] 42
r 1 2 [ 34 42 ] 42 [ 33 42 ] 42
x30
r 1 2 [ 34 42 ] 42 [ 33 42 ] 42
r 1 2 [ 34 42 ] 42 [ 33 42 ] 42
r 1 2 [ 34 42 ] 42 [ 33 42 ] 42
r 1 2 [ 34 42 ] 42 [ 33 42 ] 42
x34
r 1 2 [ 34 42 ] 42 [ 33 42 ] 42
r 1 2 [ 34 42 ] 42 [ 33 42 ] 42
r 1 2 [ 34 42 ] 42 [ 33 42 ] 42
r 1 2 [ 34 42 ] 42 [ 33 42 ] 42
r 1 2 [ 34 42 ] 42 [ 33 42 ] 42
x39
r 1 2 [ 34 42 ] 42 [ 33 42 ] 42
r 1 2 [ 34 42 ] 42 [ 33 42 ] 42
r 1 2 [ 34 42 ] 42 [ 33 42 ] 42
r 1 2 [ 34 42 ] 42 [ 33 42 ] 42
r 1 2 [ 34 42 ] 42 [ 33 42 ] 42
x44
r 1 2 [ 34 42 ] 42 [ 33 42 ] 42
r 1 2 [ 34 42 ] 42 [ 33 42 ] 42
r 1 2 [ 34 42 ] 42 [ 33 42 ] 42
r 1 2 [ 34 42 ] 42 [ 33 42 ] 42
r 1 2 [ 34 42 ] 42 [ 33 42 ] 42
x49
r 1 2 [ 34 42 ] 42 [ 33 42 ] 42
r 1 2 [ 34 42 ] 42 [ 33 42 ] 42
r 1 2 [ 34 42 ] 42 [ 33 42 ] 42
r 1 2 [ 34 42 ] 42 [ 33 42 ] 42
x53
r 1 2 [ 34 42 ] 42 [ 33 42 ] 42
r 1 2 [ 34 42 ] 42 [ 33 42 ] 42
r 1 2 [ 34 42 ] 42 [ 33 42 ] 42
r 1 2 [ 34 42 ] 42 [ 33 42 ] 42
r 1 2 [ 34 42 ] 42 [ 33 42 ] 42
