t 120
c
r 1 1 s r 1 2 s 67 r 1 1 72 r 1 2 71 72
r 4 1 69
r 1 1 s r 1 2 s 71 r 1 1 74 r 1 2 72 69
r 4 1 67
r 1 1 s r 1 2 s 67 r 1 1 72 r 1 2 71 72
r 3 2 69 r 1 1 65 r 1 2 67 69 r 1 1 67 67
r 1 2 67 r 1 1 65 r 1 2 65
r 9 2 64
r 1 2 s 76 76 76 r 1 1 76 r 1 2 74 72
r 1 1 72 r 1 2 69 69 s r 3 2 72
r 1 2 s 74 74 74 r 1 1 74 r 1 2 72 69
r 1 1 69 r 1 2 67 67 s r 3 2 67
r 1 2 s 76 76 76 r 1 1 76 r 1 2 74 72
r 1 1 72 r 1 2 69 69 s 69 74 72
r 1 2 71 r 3 2 71 r 1 2 72 r 1 1 74 74
r 1 1 72
c
r 4 1 s
r 4 1 [ 48 53 57 ]
r 4 1 [ 48 53 57 ]
r 4 1 [ 48 52 55 ]
r 4 1 [ 48 52 55 ]
r 4 1 [ 48 53 57 ]
r 4 1 [ 50 53 55 ]
r 4 1 [ 48 52 55 ]
r 4 1 [ 48 52 55 ]
r 4 1 [ 48 53 57 ]
r 4 1 [ 50 53 55 ]
r 4 1 [ 48 52 55 ]
r 4 1 [ 48 52 55 ]
r 4 1 [ 48 53 57 ]
r 4 1 [ 50 53 55 ]
r 4 1 [ 48 52 55 ]
