t 113
c
{ o 56 }
x1
r 4 1 s
r 4 1 s
r 4 1 s
r 4 1 s
x5
r 4 1 s
r 4 1 s
r 4 1 s
r 4 1 s
x9
r 15 4 s r 1 4 50
r 7 4 59 r 1 4 59 r 7 4 57 r 1 4 57
r 2 1 55 r 3 4 55 r 1 4 55 r 3 4 54 r 1 4 52
r 2 1 50 r 7 4 s r 1 4 50
r 7 4 60 r 1 4 60 r 7 4 59 r 1 4 59
x14
r 2 1 57 r 3 4 s r 1 4 50 r 3 4 55 r 1 4 57
r 3 1 59 r 3 4 s r 1 4 50
r 11 4 59 r 1 4 57 r 3 4 57 r 1 4 59
r 3 4 55 r 1 4 55 r 3 4 55 r 1 4 54 r 1 1 53 r 3 4 57 r 1 4 55
r 3 1 52 r 3 4 s r 1 4 52
x19
r 11 4 60 r 1 4 60 r 3 4 62 r 1 4 60
r 7 4 59 r 1 4 59 r 1 1 57 r 3 4 55 r 1 4 54
r 2 1 55 r 3 4 s r 1 4 50 r 3 4 50 r 1 4 51
r 1 1 53 53 r 3 4 s r 1 4 53 r 3 4 55 r 1 4 56
x23
r 2 1 55 r 1 1 s r 3 4 55 r 1 4 56
r 11 4 58 r 1 4 58 r 3 4 60 r 1 4 58
r 2 1 58 r 1 1 57 r 3 4 s r 1 4 53
r 1 1 62 r 3 4 62 r 1 4 62 r 1 1 60 r 3 4 60 r 1 4 60
r 2 1 58 r 3 4 57 r 1 4 57 r 3 4 57 r 1 4 57
x28
r 3 4 55 r 1 4 55 r 3 4 55 r 1 4 55 r 1 1 57 59
r 3 1 60 r 3 4 s r 1 4 53
r 7 4 53 r 1 4 53 r 7 4 54 r 1 4 54
r 3 1 55 r 3 4 s r 1 4 55
r 7 4 55 r 1 4 55 r 7 4 57 r 1 4 57
x33
r 3 1 59 r 3 4 s r 1 4 59
r 1 1 60 r 7 4 60 r 1 4 60 r 3 4 59 r 1 4 57
r 3 1 55 r 3 4 s r 1 4 50
r 7 4 59 r 1 4 59 r 7 4 57 r 1 4 57
r 2 1 55 r 3 4 55 r 1 4 55 r 3 4 54 r 1 4 52
x38
r 2 1 50 r 7 4 s r 1 4 50
r 7 4 60 r 1 4 60 r 7 4 59 r 1 4 59
r 2 1 57 r 3 4 s r 1 4 50 r 3 4 55 r 1 4 57
r 3 1 59 r 3 4 s r 1 4 50
r 11 4 59 r 1 4 57 r 3 4 57 r 1 4 59
x43
r 3 4 55 r 1 4 55 r 3 4 55 r 1 4 54 r 1 1 53 r 3 4 57 r 1 4 55
r 3 1 52 r 3 4 s r 1 4 52
r 11 4 60 r 1 4 60 r 3 4 62 r 1 4 60
r 7 4 59 r 1 4 59 r 1 1 57 r 3 4 55 r 1 4 54
r 3 1 55 r 3 4 s r 1 4 52
x48
r 1 1 52 r 3 4 52 r 1 4 52 r 1 3 52 52 52 r 3 4 53 r 1 4 55
r 3 1 55 r 3 4 s r 1 4 55
r 1 1 57 r 3 4 57 r 1 4 57 r 1 1 57 r 3 4 59 r 1 4 60
r 1 1 59 r 2 1 55 r 3 4 s r 1 4 55
x52
r 1 1 57 r 3 4 57 r 1 4 57 r 3 4 57 r 1 4 57 r 3 4 59 r 1 4 60
r 1 1 60 r 2 1 60 r 3 4 s r 1 4 55
r 3 4 57 r 1 4 57 r 3 4 57 r 1 4 57 r 3 4 59 r 1 1 59 r 1 4 59
r 3 4 60 r 1 4 60 r 3 4 62 r 1 4 62
x56
r 3 4 60 r 9 4 60 r 1 1 s
xPiano
r 1 3 76 67 67 r 3 4 67 r 1 4 76 r 1 3 74 67 67 r 3 4 67 r 1 4 74
r 1 3 72 64 64 r 3 4 64 r 1 4 72 r 1 3 71 64 64 r 3 4 64 r 1 4 71
r 1 1 69 69 r 3 4 s r 1 4 69 r 3 4 71 r 1 4 72
x60
r 2 1 72 r 1 1 72 74
r 1 3 83 74 74 r 3 4 74 r 1 4 83 r 1 3 81 74 74 r 3 4 74 r 1 4 81
r 1 3 79 71 71 r 3 4 71 r 1 4 79 r 1 3 78 71 71 r 3 4 71 r 1 4 78
r 1 1 76 r 1 3 s 72 74 75 74 72 75 74 72
x64
r 1 3 79 77 75 79 77 75 79 75 79 81 77 81
r 3 1 83 r 3 4 s r 1 4 50
r 7 4 59 r 1 4 59 r 7 4 57 r 1 4 57
r 2 1 55 r 3 4 55 r 1 4 55 r 3 4 54 r 1 4 52
x68
r 2 1 50 r 7 4 s r 1 4 50
r 7 4 60 r 1 4 60 r 7 4 59 r 1 4 59
r 2 1 57 r 3 4 s r 1 4 50 r 3 4 55 r 1 4 57
r 3 1 59 r 3 4 s r 1 4 50
r 11 4 59 r 1 4 57 r 3 4 57 r 1 4 59
x73
r 3 4 55 r 1 4 55 r 3 4 55 r 1 4 54 r 1 1 53 r 3 4 57 r 1 4 55
r 3 1 52 r 3 4 s r 1 4 52
r 11 4 57 r 1 4 59 r 3 4 60 r 1 4 61
r 2 1 62 r 1 1 60 62
r 4 1 59
c
xDerecha
x1
r 1 3 71 62 62 r 3 4 62 r 1 4 71 r 1 3 69 62 62 r 3 4 62 r 1 4 69
r 1 3 67 59 59 r 3 4 59 r 1 4 67 r 1 3 66 59 59 r 3 4 59 r 1 4 66
r 1 1 64 64 r 3 4 s r 1 4 64 r 3 4 66 r 1 4 67
r 2 1 67 66
x5
r 1 3 83 74 74 r 3 4 74 r 1 4 83 r 1 3 81 74 74 r 3 4 74 r 1 4 81
r 1 3 79 71 71 r 3 4 71 r 1 4 79 r 1 3 78 71 71 r 3 4 71 r 1 4 78
r 1 1 76 r 1 3 s 72 74 75 74 72 75 74 72
r 1 3 79 77 75 79 77 75 79 75 79 81 77 81
x9
r 3 1 83 r 1 1 s
c
xIzquierda
x1
r 1 1 [ 43 47 50 ] [ 43 47 50 ] [ 42 45 50 ] [ 42 45 50 ]
r 1 1 [ 40 43 47 ] [ 40 43 47 ] [ 42 47 50 ] [ 42 47 50 ]
r 1 1 [ 40 43 48 ] [ 40 43 48 ] [ 40 43 48 ] [ 40 43 48 ]
r 1 1 [ 42 45 48 50 ] [ 42 45 48 50 ] [ 42 45 48 50 ] [ 42 45 48 50 ]
x5
r 1 1 [ 43 47 50 ] [ 43 47 50 ] [ 42 45 50 ] [ 42 45 50 ]
r 1 1 [ 40 43 47 ] [ 40 43 47 ] [ 42 47 50 ] [ 42 47 50 ]
r 1 1 [ 40 43 48 ] [ 40 43 48 ] [ 43 48 51 ] [ 43 48 51 ]
r 1 1 [ 43 46 51 ] [ 43 46 51 ] [ 43 46 51 ] [ 41 45 48 ]
x9
r 1 1 [ 43 47 50 ] [ 43 47 50 ] [ 43 47 50 ] [ 43 47 50 ]
r 1 1 [ 43 47 50 ] [ 43 47 50 ] [ 42 45 50 ] [ 42 45 50 ]
c
C 9
x1
r 1 1 34 33 33 33
r 1 1 34 33 33 33
r 1 1 34 33 33 33
r 1 1 34 33 33 33
x5
r 1 1 34 33 33 33
r 1 1 34 33 33 33
r 1 1 34 33 33 33
r 1 1 34 33 33 33
x9
r 1 1 34 33 33 33
r 1 1 34 33 33 33
r 1 1 34 33 33 33
r 1 1 34 33 33 33
r 1 1 34 33 33 33
x14
r 1 1 34 33 33 33
r 1 1 34 33 33 33
r 1 1 34 33 33 33
r 1 1 34 33 33 33
r 1 1 34 33 33 33
x19
r 1 1 34 33 33 33
r 1 1 34 33 33 33
r 1 1 34 33 33 33
r 1 1 34 33 33 33
x23
r 1 1 34 33 33 33
r 1 1 34 33 33 33
r 1 1 34 33 33 33
r 1 1 34 33 33 33
r 1 1 34 33 33 33
x28
r 1 1 34 33 33 33
r 1 1 34 33 33 33
r 1 1 34 33 33 33
r 1 1 34 33 33 33
r 1 1 34 33 33 33
x33
r 1 1 34 33 33 33
r 1 1 34 33 33 33
r 1 1 34 33 33 33
r 1 1 34 33 33 33
r 1 1 34 33 33 33
x38
r 1 1 34 33 33 33
r 1 1 34 33 33 33
r 1 1 34 33 33 33
r 1 1 34 33 33 33
r 1 1 34 33 33 33
x43
r 1 1 34 33 33 33
r 1 1 34 33 33 33
r 1 1 34 33 33 33
r 1 1 34 33 33 33
r 1 1 34 33 33 33
x48
r 1 1 34 33 33 33
r 1 1 34 33 33 33
r 1 1 34 33 33 33
r 1 1 34 33 33 33
x52
r 1 1 34 33 33 33
r 1 1 34 33 33 33
r 1 1 34 33 33 33
r 1 1 34 33
x56
r 1 1 34 33 33 33
r 1 1 34 33 33 33
r 1 1 34 33 33 33
r 1 1 34 33 33 33
x60
r 1 1 34 33 33 33
r 1 1 34 33 33 33
r 1 1 34 33 33 33
r 1 1 34 33 33 33
x64
r 1 1 34 33 33 33
r 1 1 34 33 33 33
r 1 1 34 33 33 33
r 1 1 34 33 33 33
x68
r 1 1 34 33 33 33
r 1 1 34 33 33 33
r 1 1 34 33 33 33
r 1 1 34 33 33 33
r 1 1 34 33 33 33
x73
r 1 1 34 33 33 33
r 1 1 34 33 33 33
r 1 1 34 33 33 33
r 1 1 34 33 33 33
r 1 1 34 33 33 33