o 40
r 4 1 s
r 2 1 78 76
r 2 1 74 73
r 2 1 71 69
r 2 1 71 73
r 2 1 74 73
r 2 1 71 69
r 2 1 67 66
r 2 1 67 64
r 1 1 62 66 69 67
r 1 1 66 62 66 64
r 1 1 62 59 62 69
r 1 1 67 71 69 67
r 1 1 66 62 64 73
r 1 1 74 78 81 69
r 1 1 71 67 69 66
r 1 1 62 74 r 3 2 74 r 1 2 73
r 1 2 74 73 74 62 61 69 64 66
r 1 2 62 74 73 71 73 78 81 83
r 1 2 79 78 76 79 78 76 74 73
r 1 2 71 69 67 66 64 67 66 64
r 1 2 62 64 66 67 69 64 69 67
r 1 2 66 71 69 67 69 67 66 64
r 1 2 62 59 71 73 74 73 71 69
r 1 2 67 66 64 71 69 71 69 67
r 1 1 66 78 r 2 1 76
r 1 1 s 74 r 2 1 78
r 2 1 83 81
r 2 1 83 85
r 1 1 86 74 r 2 1 73
r 1 1 s 71 r 2 1 74
r 2 1 74 r 1 1 74 74
r 1 1 74 79 76 81
r 1 2 81 r 1 4 78 79 r 1 2 81 r 1 4 78 79 81 69 71 73 74 76 78 79
r 1 2 78 r 1 4 74 76 r 1 2 78 r 1 4 66 67 69 71 69 67 69 66 67 69
r 1 2 67 r 1 4 71 69 r 1 2 67 r 1 4 66 64 66 64 62 64 66 67 69 71
r 1 2 67 r 1 4 71 69 r 1 2 71 r 1 4 73 74 69 71 73 74 76 78 79 81
r 1 2 78 r 1 4 74 76 r 1 2 78 r 1 4 76 74 76 73 74 76 78 76 74 73
r 1 2 74 r 1 4 71 73 r 1 2 74 r 1 4 62 64 66 67 66 64 66 74 73 74
r 1 2 71 r 1 4 74 73 r 1 2 71 r 1 4 69 67 69 67 66 67 69 71 73 74
r 1 2 71 r 1 4 74 73 r 1 2 74 r 1 4 73 71 73 74 76 74 73 74 71 73
r 3 2 74 r 1 2 78 78 79 78 76
r 3 2 74 r 1 2 74 74 76 74 73
r 2 1 71 74
r 1 2 74 72 71 72 r 3 2 69 r 1 2 69
r 3 2 69 r 1 2 81 81 83 81 79
r 3 2 78 r 1 2 78 78 79 78 76
r 1 2 74 72 71 72 r 3 2 69 r 1 2 69
r 1 1 67 74 r 3 2 73 r 1 2 73
r 1 1 74 r 2 1 74
r 2 1 73 71
r 2 1 69 67
r 5 2 66 r 1 2 64 r 2 1 64
r 1 1 66 r 2 1 78 r 1 1 76
r 1 1 74 r 2 1 86 r 1 1 84
r 2 1 83 r 1 1 86 81
r 2 1 83 81
r 2 1 81 r 3 2 69 r 1 2 67
r 2 1 66 r 3 2 78 r 1 2 76
r 3 1 74 r 1 1 74
r 2 1 74 73
r 1 1 74 62 61 73
r 1 1 71 59 57 69
r 1 1 67 79 78 66
r 1 1 64 71 64 76
r 1 1 78 66 64 76
r 1 1 74 62 61 73
r 1 1 71 83 81 69
r 3 2 67 r 1 2 76 r 1 1 69 r 2 1 76
r 4 1 78
c
T 0
r 1 2
t 166,7296786389414 s
t 166,7506932190572 s
t 166,7296786389414 s
t 166,7506932190572 s
t 166,7296786389414 s
t 166,7506932190572 s
t 166,7296786389414 s
t 166,7506932190572 s
t 90,5978223652674 s
t 90,5978223652674 s
t 90,60402684563758 s
t 90,5978223652674 s
t 98,68715500522154 s
t 91,4621500172831 s
t 85,22837080461251 s
t 86,20577311526682 s
t 101,3482457484296 s
t 91,4621500172831 s
t 89,28932982385098 s
t 74,71199457872149 s
t 139,55696202531647 s
t 85,22837080461251 s
t 85,22837080461251 s
t 96,15524384039537 s
t 98,67979413739091 s
t 96,15524384039537 s
t 92,59518477043673 s
t 64,60907359476485 s
t 156,51248077605584 s
t 85,22837080461251 s
t 78,94736842105263 s
t 70,08528897600254 s
t 133,9611178614824 s
t 84,26751592356688 s
t 83,33333333333333 s
t 88,45356689175637 s
t 101,06179818195707 s
t 85,22837080461251 s
t 84,27288362316071 s
t 90,35650867367846 s
t 93,75 s
t 78,94736842105263 s
t 84,27288362316071 s
t 94,93398392652124 s
t 100 s
t 90,36268014479886 s
t 87,21160184574819 s
t 96,14825581395348 s
t 90,22710223010299 s
t 88,36494790275181 s
t 82,41963618240717 s
t 98,67979413739091 s
t 93,75 s
t 85,22837080461251 s
t 82,41963618240717 s
t 91,4621500172831 s
t 96,15524384039537 s
t 91,4621500172831 s
t 87,21160184574819 s
t 74,36344218987128 s
t 138,51952675112554 s
t 87,20585327269131 s
t 85,22837080461251 s
t 91,4621500172831 s
t 100 s
t 91,4621500172831 s
t 83,33333333333333 s
t 80,32299192520188 s
t 109,29368029739777 s
t 85,10227711308376 s
t 79,05114722753346 s
t 94,94079655543595 s
t 96,15524384039537 s
t 90,35650867367846 s
t 80,64614446814996 s
t 96,15524384039537 s
t 92,59518477043673 s
t 96,14825581395348 s
t 86,21139059038185 s
t 98,67979413739091 s
t 91,4621500172831 s
t 93,75 s
t 79,79012122308667 s
t 90,36268014479886 s
t 82,41450196225004 s
t 85,22837080461251 s
t 88,23529411764706 s
t 100 s
t 87,21160184574819 s
t 90,35650867367846 s
t 97,40833456044766 s
t 104,16502637587591 s
t 82,41450196225004 s
t 89,28932982385098 s
t 80,64614446814996 s
t 98,67979413739091 s
t 90,36268014479886 s
t 92,59518477043673 s
t 96,14825581395348 s
t 100 s
t 92,59518477043673 s
t 101,3482457484296 s
t 87,21160184574819 s
t 89,28330408962073 s
t 85,22837080461251 s
t 88,23529411764706 s
t 87,21160184574819 s
t 90,36268014479886 s
t 91,4621500172831 s
t 89,28330408962073 s
t 86,20577311526682 s
t 94,94079655543595 s
t 94,93398392652124 s
t 98,68715500522154 s
t 93,75 s
t 102,9171528588098 s
t 83,21801484463454 s
t 97,4011632187293 s
t 83,33333333333333 s
t 92,58870459794247 s
t 85,22837080461251 s
t 91,4621500172831 s
t 89,28932982385098 s
t 94,93398392652124 s
t 96,15524384039537 s
t 98,68715500522154 s
t 94,93398392652124 s
t 97,4011632187293 s
t 93,75 s
t 97,55917705183984 s
t 89,15695127704024 s
t 89,28330408962073 s
t 87,21160184574819 s
t 97,55917705183984 s
t 82,30683090705487 s
t 90,35650867367846 s
t 94,94079655543595 s
t 81,63139384216697 s
t 92,45283018867924 s
t 105,81460449492121 s
t 88,10602024507192 s
t 91,4621500172831 s
t 91,60781055255505 s
t 105,44353231848251 s
t 88,36494790275181 s
t 83,21801484463454 s
t 98,68715500522154 s
t 102,7413217364293 s
t 92,58870459794247 s
t 88,23529411764706 s
t 88,23529411764706 s
t 100 s
t 89,28932982385098 s
t 85,2228807008503 s
t 90,36268014479886 s
t 101,3560101126178 s
t 96,14825581395348 s
t 91,46847345132744 s
t 89,41605839416059 s
t 98,5254691689008 s
t 92,58870459794247 s
t 96,30923782485259 s
t 97,24366041896361 s
t 92,59518477043673 s
t 90,36268014479886 s
t 91,6014678390916 s
t 88,10602024507192 s
t 97,4011632187293 s
t 93,75 s
t 90,36268014479886 s
t 98,67979413739091 s
t 96,15524384039537 s
t 90,36268014479886 s
t 93,75 s
t 101,3482457484296 s
t 93,75 s
t 96,15524384039537 s
t 85,22837080461251 s
t 93,75 s
t 91,4621500172831 s
t 91,4621500172831 s
t 87,21160184574819 s
t 97,4011632187293 s
t 95,09092215913175 s
t 89,15094339622641 s
t 88,23529411764706 s
t 96,15524384039537 s
t 96,15524384039537 s
t 93,75 s
t 92,58870459794247 s
t 91,4621500172831 s
t 101,52712761875527 s
t 89,15094339622641 s
t 88,23529411764706 s
t 102,7413217364293 s
t 96,15524384039537 s
t 89,28330408962073 s
t 92,59518477043673 s
t 97,4011632187293 s
t 71,07171635777598 s
t 120,05444646098003 s
t 100 s
t 88,23529411764706 s
t 90,36268014479886 s
t 92,58870459794247 s
t 91,4621500172831 s
t 91,46847345132744 s
t 96,14825581395348 s
t 91,46847345132744 s
t 100 s
t 90,35650867367846 s
t 98,68715500522154 s
t 86,20577311526682 s
t 88,23529411764706 s
t 91,4621500172831 s
t 98,68715500522154 s
t 102,7413217364293 s
t 98,67979413739091 s
t 90,36268014479886 s
t 91,4621500172831 s
t 90,36268014479886 s
t 85,22837080461251 s
t 89,28330408962073 s
t 100 s
t 88,23529411764706 s
t 97,40833456044766 s
t 85,2228807008503 s
t 94,94079655543595 s
t 88,23529411764706 s
t 91,4621500172831 s
t 88,23529411764706 s
t 102,7413217364293 s
t 96,15524384039537 s
t 94,93398392652124 s
t 87,21160184574819 s
t 90,35650867367846 s
t 87,21160184574819 s
t 98,68715500522154 s
t 87,20585327269131 s
t 94,94079655543595 s
t 93,75 s
t 97,4011632187293 s
t 98,67979413739091 s
t 93,75 s
t 88,23529411764706 s
t 87,21160184574819 s
t 100 s
t 85,22837080461251 s
t 101,3482457484296 s
t 88,23529411764706 s
t 98,68715500522154 s
t 101,3482457484296 s
t 82,41963618240717 s
t 94,93398392652124 s
t 96,15524384039537 s
t 84,26751592356688 s
t 98,68715500522154 s
t 92,59518477043673 s
t 96,14825581395348 s
t 96,15524384039537 s
t 91,4621500172831 s
t 97,24366041896361 s
t 91,60781055255505 s
t 88,23529411764706 s
t 86,20577311526682 s
t 98,68715500522154 s
t 101,3482457484296 s
t 93,75 s
t 92,59518477043673 s
t 96,14825581395348 s
t 104,1732283464567 s
t 104,16502637587591 s
t 91,4621500172831 s
t 92,59518477043673 s
t 90,35650867367846 s
t 100 s
t 91,46847345132744 s
t 94,93398392652124 s
t 96,15524384039537 s
t 92,58870459794247 s
t 88,23529411764706 s
t 98,68715500522154 s
t 97,4011632187293 s
t 97,4011632187293 s
t 96,15524384039537 s
t 92,59518477043673 s
t 94,93398392652124 s
t 100 s
t 91,4621500172831 s
t 97,40833456044766 s
t 89,28330408962073 s
t 93,75 s
t 93,75 s
t 89,28330408962073 s
t 91,46847345132744 s
t 93,75 s
t 92,58870459794247 s
t 96,15524384039537 s
t 89,28330408962073 s
t 97,40833456044766 s
t 93,75 s
t 93,59745313052706 s
t 91,60781055255505 s
t 98,67979413739091 s
t 96,15524384039537 s
t 97,4011632187293 s
t 86,21139059038185 s
t 96,14825581395348 s
t 92,59518477043673 s
t 93,75 s
t 102,7413217364293 s
t 102,7413217364293 s
t 96,14825581395348 s
t 92,59518477043673 s
t 90,36268014479886 s
t 101,3482457484296 s
t 91,4621500172831 s
t 92,59518477043673 s
t 98,68715500522154 s
t 100 s
t 96,14825581395348 s
t 97,40833456044766 s
t 91,4621500172831 s
t 98,67979413739091 s
t 89,28932982385098 s
t 92,58870459794247 s
t 93,75 s
t 101,3560101126178 s
t 89,28330408962073 s
t 90,36268014479886 s
t 105,6371766208879 s
t 88,23529411764706 s
t 81,52073448764557 s
t 91,4621500172831 s
t 92,59518477043673 s
t 107,14285714285714 s
t 111,93840426432017 s
t 80,64614446814996 s
t 82,41450196225004 s
t 80,64614446814996 s
t 82,41963618240717 s
t 98,67979413739091 s
t 100 s
t 100 s
t 97,4011632187293 s
t 84,27288362316071 s
t 96,15524384039537 s
t 93,75 s
t 85,2228807008503 s
t 86,21139059038185 s
t 86,20577311526682 s
t 94,93398392652124 s
t 87,21160184574819 s
t 89,28330408962073 s
t 92,59518477043673 s
t 91,4621500172831 s
t 89,28330408962073 s
t 88,23529411764706 s
t 96,15524384039537 s
t 88,23529411764706 s
t 89,28932982385098 s
t 80,64122881872485 s
t 96,15524384039537 s
t 94,94079655543595 s
t 88,23529411764706 s
t 88,23529411764706 s
t 92,58870459794247 s
t 100 s
t 82,41963618240717 s
t 92,58870459794247 s
t 100 s
t 91,46847345132744 s
t 88,23529411764706 s
t 89,28330408962073 s
t 90,36268014479886 s
t 100 s
t 98,67979413739091 s
t 91,46847345132744 s
t 86,20577311526682 s
t 91,4621500172831 s
t 83,33333333333333 s
t 78,94736842105263 s
t 88,23529411764706 s
t 120,96552985279327 s
t 91,4621500172831 s
t 87,21160184574819 s
t 88,23529411764706 s
t 94,93398392652124 s
t 87,21160184574819 s
t 92,59518477043673 s
t 90,49247606019152 s
t 95,35135135135135 s
t 94,93398392652124 s
t 96,15524384039537 s
t 83,33333333333333 s
t 100 s
t 92,59518477043673 s
t 98,67979413739091 s
t 93,89638041163946 s
t 96,00174152819099 s
t 89,28932982385098 s
t 71,49805447470817 s
t 131,34120917303684 s
t 102,7413217364293 s
t 84,26751592356688 s
t 69,4634043893731 s
t 120,91025406689819 s
t 97,4011632187293 s
t 80,64614446814996 s
t 75,93846860291585 s
t 91,20363987315594 s
t 98,67979413739091 s
t 75,76017866345988 s
t 122,68175074183976 s
t 79,90095422152434 s
t 100 s
t 80,64122881872485 s
t 88,23529411764706 s
t 91,69670085943997 s
t 87,31520591341076 s
t 76,28877868757928 s
t 88,10602024507192 s
t 78,22847682119205 s
t 208,31365139348134 s
t 79,79012122308667 s
t 89,28330408962073 s
t 86,20577311526682 s
t 92,59518477043673 s
t 78,12223206377325 s
t 129,68045481278182 s
t 73,4102763289313 s
t 116,03227503946675 s
t 82,8843503320386 s
t 91,60781055255505 s
t 89,28330408962073 s
t 93,75 s
t 86,20577311526682 s
t 123,14995811225914 s
t 88,13536739724202 s
t 90,19019701411139 s
t 96,34430527235654 s
t 86,21139059038185 s
t 90,35650867367846 s
t 88,23529411764706 s
t 94,94079655543595 s
t 92,58870459794247 s
t 73,62270450751252 s
t 88,10602024507192 s
t 85,2228807008503 s
t 84,27288362316071 s
t 86,20577311526682 s
t 101,3482457484296 s
t 93,75 s
t 87,21160184574819 s
t 76,53149765719905 s
t 158,50005990176112 s
t 64,27634455618714 s
t 87,21160184574819 s
t 88,23529411764706 s
t 158,3103984683499 s
t 71,00686990124517 s
t 87,20585327269131 s
t 90,36268014479886 s
t 73,41842397336293 s
t 121,26489459211733 s
t 90,36268014479886 s
t 79,79012122308667 s
t 125 s
t 89,28330408962073 s
t 84,26751592356688 s
t 85,22837080461251 s
t 93,75 s
t 96,15524384039537 s
t 93,75 s
t 79,78530937160777 s
t 102,7413217364293 s
t 96,15524384039537 s
t 88,23529411764706 s
t 88,23529411764706 s
t 92,59518477043673 s
t 81,52073448764557 s
t 90,36268014479886 s
t 88,23529411764706 s
t 98,67979413739091 s
t 87,21160184574819 s
t 89,28330408962073 s
t 80,64614446814996 s
t 81,19553209770467 s
t 95,3857245854362 s
t 89,28330408962073 s
t 87,21160184574819 s
t 98,67979413739091 s
t 88,23529411764706 s
t 100 s
t 87,21160184574819 s
t 86,20577311526682 s
t 92,59518477043673 s
t 91,4621500172831 s
t 78,94736842105263 s
t 100 s
t 88,23529411764706 s
t 93,75 s
t 85,22837080461251 s
t 97,4011632187293 s
t 89,28330408962073 s
t 100 s
t 97,4011632187293 s
t 93,75 s
t 90,36268014479886 s
t 93,75 s
t 78,94736842105263 s
t 98,68715500522154 s
t 86,20577311526682 s
t 104,16502637587591 s
t 101,3560101126178 s
t 94,93398392652124 s
t 82,41963618240717 s
t 108,69208018402892 s
t 89,28330408962073 s
t 92,59518477043673 s
t 86,20577311526682 s
t 91,4621500172831 s
t 93,75 s
t 101,3560101126178 s
t 82,41450196225004 s
t 88,23529411764706 s
t 81,41538461538461 s
t 89,41605839416059 s
t 90,36268014479886 s
t 97,4011632187293 s
t 87,21160184574819 s
t 90,35650867367846 s
t 90,36268014479886 s
t 91,4621500172831 s
t 80,64614446814996 s
t 97,24366041896361 s
t 93,89638041163946 s
t 109,17643175441492 s
t 75,52663127247817 s
t 97,60236075248986 s
t 82,27611940298507 s
t 93,75 s
t 86,20577311526682 s
t 93,75 s
t 77,31868388755771 s
t 86,21139059038185 s
t 97,71048744460856 s
t 88,0591054313099 s
t 75,69949075928363 s
t 68,86679506532715 s
t 159,2632719393283 s
t 78,94736842105263 s
t 87,20585327269131 s
t 120,18531976744185 s
t 74,55621301775147 s
t 98,68715500522154 s
t 94,93398392652124 s
t 88,23529411764706 s
t 85,22837080461251 s
t 88,23529411764706 s
t 88,23529411764706 s
t 82,41963618240717 s
t 96,14825581395348 s
