t 90
xTenor
o 48
r 4 1 s
r 2 1 s r 1 1 52 56
r 1 1 59 r 2 1 59 r 1 2 56 59
r 1 1 54 r 3 1 54
r 1 1 59 r 2 1 59 r 1 2 59 59
r 1 1 59 57 56 r 1 2 54 52
r 3 2 52 r 1 2 56 r 1 1 57 57
r 3 1 56 r 1 1 s
r 4 1 s
r 5 2 s r 1 2 52 56 59
r 1 1 61 59 57 56
r 4 1 54
r 1 2 59 59 59 59 r 1 1 59 59
r 1 1 59 57 t 40 56 t 90 r 1 2 54 52
r 3 2 52 r 1 2 56 r 1 1 57 57
r 4 1 56
c
xSoprano
r 4 1 s
r 2 1 s r 1 1 68 71
r 1 1 76 r 2 1 76 r 1 2 73 73
r 1 1 73 r 3 1 71
r 1 1 74 r 2 1 74 r 1 2 74 74
r 1 1 73 r 2 1 73 r 1 2 72 72
r 3 2 71 r 1 2 71 r 1 1 71 71
r 3 1 71 r 1 1 s
r 4 1 s
r 5 2 s r 1 2 64 68 71
r 1 1 76 76 73 73
r 4 1 71
r 1 2 71 71 71 71 r 1 1 74 74
r 3 1 73 r 1 2 72 72
r 3 2 71 r 1 2 71 r 1 1 71 71
r 4 1 71
c
xAlto
r 1 1 68 r 2 1 68 r 1 2 66 68
r 1 1 64 r 3 1 64
r 1 1 68 r 2 1 68 r 1 2 64 68
r 1 1 69 r 3 1 69
r 1 1 68 r 2 1 68 r 1 2 69 66
r 1 1 64 r 2 1 64 r 1 2 69 69
r 3 2 68 r 1 2 64 r 1 1 66 66
r 3 1 64 r 1 1 64
r 3 2 68 r 1 2 68 68 r 3 2 66
r 5 2 64 r 1 2 64 68 71
r 1 1 69 68 66 64
r 1 1 63 64 66 69
r 1 2 68 68 68 68 r 1 1 69 66
r 3 1 64 r 1 2 69 69
r 3 2 68 r 1 2 64 r 1 1 66 66
r 4 1 64
c
xBajo
r 1 1 56 r 2 1 56 r 1 2 54 56
r 1 1 52 r 3 1 52
r 1 1 52 52 51 r 1 2 49 52
r 1 1 54 47 49 51
r 1 1 52 r 2 1 52 r 1 2 52 52
r 1 1 45 r 2 1 45 r 1 2 52 52
r 3 2 47 r 1 2 47 r 1 1 47 51
r 3 1 64 r 1 1 64
r 3 2 56 r 1 2 56 56 r 3 2 54
r 5 2 52 r 1 2 52 56 59
r 1 1 57 56 54 49
r 1 1 47 49 r 2 1 51
r 1 2 52 52 52 52 r 1 1 52 52
r 3 1 45 r 1 2 52 52
r 3 2 47 r 1 2 47 r 1 1 49 51
r 4 1 52
c
c
c
c
c
c
r 1 1 34 33 33 33
r 1 1 34 33 33 33
r 1 1 34 33 33 33
r 1 1 34 33 33 33
r 1 1 34 33 33 33
r 1 1 34 33 33 33
r 1 1 34 33 33 33
r 1 1 34 33 33 33
r 1 1 34 33 33 33
r 1 1 34 33 33 33
r 1 1 34 33 33 33
r 1 1 34 33 33 33
r 1 1 34 33 33 33
r 1 1 34 33 33 33
r 1 1 34 33 33 33
r 1 1 34 33 33 33
