t 110
xTenor
o 52
r 8 1 s
xOhHappyDay
r 1 1 s 59 r 1 2 59 r 1 1 59 r 7 2 60 r 1 1 s
xOhHappyDay
r 1 1 s 59 r 1 2 59 r 1 1 59 r 7 2 60 r 1 1 s
xSinceJesusWashed
r 2 1 s r 1 2 64 64 64 r 7 2 62 r 1 1 s
xSinceJesusWashed
r 2 1 s r 1 2 64 64 64 r 7 2 62 r 1 1 s
xSinceJesusWashed
r 2 1 s r 1 2 64 64 64 r 7 2 62 r 1 1 s
xOhHappyDay
r 1 1 s 59 r 1 2 59 r 1 1 59 r 7 2 60 r 1 1 s
xOhHappyDay
r 1 1 s 59 r 1 2 59 r 1 1 59 r 7 2 60 r 1 1 s
xOhHappyDay
r 1 1 s 59 r 1 2 59 r 1 1 59 r 7 2 60 r 1 1 s
xOhHappyDay
r 1 1 s 59 r 1 2 59 r 1 1 59 r 7 2 60 r 1 1 s
xSinceJesusWashed
r 2 1 s r 1 2 64 64 64 r 7 2 62 r 1 1 s
xSinceJesusWashed
r 2 1 s r 1 2 64 64 64 r 7 2 62 r 1 1 s
xSinceJesusWashed
r 2 1 s r 1 2 64 64 64 r 7 2 62 r 1 1 s
xOhHappyDay
r 1 1 s 59 r 1 2 59 r 1 1 59 r 7 2 60 r 1 1 s
xOhHappyDay
r 1 1 s 59 r 1 2 59 r 1 1 59 r 7 2 60 r 1 1 s
xOhHappyDayHeThaughtMe
r 1 1 s 59 r 1 2 59 r 1 1 59 r 3 2 57 r 1 1 57 57 57
xHowTo
r 6 1 62 r 1 1 s 62
xWasFightAndPrayFightAndPray
r 6 1 64 r 1 2 64 r 1 1 64 r 3 4 62 r 1 4 60 r 11 2 59 r 1 2 59 r 1 1 59 r 9 2 59
xAndHeRejoicesEveryDayEveryDay
r 1 1 s 57 57 57 r 7 1 62 r 1 1 62 r 6 1 64 r 1 2 64 r 1 1 64 r 3 4 62 r 1 4 60 r 11 2 59 r 1 2 59 r 1 1 59 r 9 2 59
c
c
c
c
c
c
c
c
c
r 1 1 [ 54 75 ] 54 54 54
r 1 1 [ 54 75 ] 54 54 54 [ 54 75 ] 54 54 54
r 1 1 [ 54 75 ] 54 54 54 [ 54 75 ] 54 54 54
r 1 1 [ 54 75 ] 54 54 54 [ 54 75 ] 54 54 54
r 1 1 [ 54 75 ] 54 54 54 [ 54 75 ] 54 54 54
r 1 1 [ 54 75 ] 54 54 54 [ 54 75 ] 54 54 54
r 1 1 [ 54 75 ] 54 54 54 [ 54 75 ] 54 54 54
r 1 1 [ 54 75 ] 54 54 54 [ 54 75 ] 54 54 54
r 1 1 [ 54 75 ] 54 54 54 [ 54 75 ] 54 54 54
r 1 1 [ 54 75 ] 54 54 54 [ 54 75 ] 54 54 54
r 1 1 [ 54 75 ] 54 54 54 [ 54 75 ] 54 54 54
r 1 1 [ 54 75 ] 54 54 54 [ 54 75 ] 54 54 54
r 1 1 [ 54 75 ] 54 54 54 [ 54 75 ] 54 54 54
r 1 1 [ 54 75 ] 54 54 54 [ 54 75 ] 54 54 54
r 1 1 [ 54 75 ] 54 54 54 [ 54 75 ] 54 54 54
r 1 1 [ 54 75 ] 54 54 54 [ 54 75 ] 54 54 54
r 1 1 [ 54 75 ] 54 54 54 [ 54 75 ] 54 54 54
r 1 1 [ 54 75 ] 54 54 54 [ 54 75 ] 54 54 54
r 1 1 [ 54 75 ] 54 54 54 [ 54 75 ] 54 54 54
r 1 1 [ 54 75 ] 54 54 54 [ 54 75 ] 54 54 54
r 1 1 [ 54 75 ] 54 54 54 [ 54 75 ] 54 54 54
r 1 1 [ 54 75 ] 54 54 54 [ 54 75 ] 54 54 54
r 1 1 [ 54 75 ] 54 54 54 [ 54 75 ] 54 54 54
r 1 1 [ 54 75 ] 54 54 54 [ 54 75 ] 54 54 54
r 1 1 [ 54 75 ] 54 54 54