t 110
xSolista
o 52
r 4 1 s
xOhHappyDay
r 1 1 s r 3 2 52 r 1 2 55 55 r 5 2 59 r 2 1 s
xOhHappyDay
r 1 1 s r 3 2 52 r 1 2 55 55 62 57 59 r 1 1 59 r 2 1 s
xSinceJesusWashed
r 2 1 s r 1 2 59 60 59 r 1 1 59 r 1 2 57 r 1 1 55 r 2 1 s
xOhWhenEhWashed
r 2 1 s r 1 2 59 60 59 r 1 1 59 r 1 2 57 r 1 1 55 r 2 1 s
xSinceJesusWashed
r 2 1 s r 1 2 59 60 59 r 1 1 59 r 1 2 57 r 1 1 55 r 2 1 s
xHeWashedMySinsAway
r 1 2 s 52 55 52 r 1 1 59 r 1 2 55 r 5 2 55 r 2 1 s
xOhHappyDay
r 1 1 s r 3 2 52 r 1 2 55 55 r 5 2 55 r 2 1 s
xOhHappyDay
r 1 1 s r 3 2 52 r 1 2 55 55 59 r 2 1 59 s
xOhHappyDay
r 1 1 s r 3 2 52 r 1 2 55 55 62 57 59 r 1 1 59 r 2 1 s
xSinceJesusWashed
r 2 1 s r 1 2 59 60 59 r 1 1 59 r 1 2 57 r 1 1 55 r 2 1 s
xOhWhenEhWashed
r 2 1 s r 1 2 59 60 59 r 1 1 59 r 1 2 57 r 1 1 55 r 2 1 s
xSinceJesusWashed
r 2 1 s r 1 2 59 60 59 r 1 1 59 r 1 2 57 r 1 1 55 r 2 1 s
xHeWashedMySinsAway
r 1 2 s 52 55 52 r 1 1 59 r 1 2 55 r 5 2 55 r 2 1 s
xOhHappyDay
r 1 1 s r 3 2 52 r 1 2 55 55 r 5 2 55 r 2 1 s
xOhHappyDay
r 1 1 s r 3 2 52 r 1 2 55 55 59 r 2 1 59 s
r 4 1 s
xHow
r 7 1 62 r 1 1 s
xHeThaughtMeHowLoWas
r 1 2 s r 1 1 64 62 r 1 2 60 59 57 r 2 1 57 s
r 16 1 s
xHow
r 13 2 67 r 1 1 62 60 59 57 r 7 2 55 r 2 1 s
r 16 1 s
c
c
c
c
c
c
c
c
c
r 1 1 [ 54 75 ] 54 54 54
r 1 1 [ 54 75 ] 54 54 54 [ 54 75 ] 54 54 54
r 1 1 [ 54 75 ] 54 54 54 [ 54 75 ] 54 54 54
r 1 1 [ 54 75 ] 54 54 54 [ 54 75 ] 54 54 54
r 1 1 [ 54 75 ] 54 54 54 [ 54 75 ] 54 54 54
r 1 1 [ 54 75 ] 54 54 54 [ 54 75 ] 54 54 54
r 1 1 [ 54 75 ] 54 54 54 [ 54 75 ] 54 54 54
r 1 1 [ 54 75 ] 54 54 54 [ 54 75 ] 54 54 54
r 1 1 [ 54 75 ] 54 54 54 [ 54 75 ] 54 54 54
r 1 1 [ 54 75 ] 54 54 54 [ 54 75 ] 54 54 54
r 1 1 [ 54 75 ] 54 54 54 [ 54 75 ] 54 54 54
r 1 1 [ 54 75 ] 54 54 54 [ 54 75 ] 54 54 54
r 1 1 [ 54 75 ] 54 54 54 [ 54 75 ] 54 54 54
r 1 1 [ 54 75 ] 54 54 54 [ 54 75 ] 54 54 54
r 1 1 [ 54 75 ] 54 54 54 [ 54 75 ] 54 54 54
r 1 1 [ 54 75 ] 54 54 54 [ 54 75 ] 54 54 54
r 1 1 [ 54 75 ] 54 54 54 [ 54 75 ] 54 54 54
r 1 1 [ 54 75 ] 54 54 54 [ 54 75 ] 54 54 54
r 1 1 [ 54 75 ] 54 54 54 [ 54 75 ] 54 54 54
r 1 1 [ 54 75 ] 54 54 54 [ 54 75 ] 54 54 54
r 1 1 [ 54 75 ] 54 54 54 [ 54 75 ] 54 54 54
r 1 1 [ 54 75 ] 54 54 54 [ 54 75 ] 54 54 54
r 1 1 [ 54 75 ] 54 54 54 [ 54 75 ] 54 54 54
r 1 1 [ 54 75 ] 54 54 54 [ 54 75 ] 54 54 54
r 1 1 [ 54 75 ] 54 54 54