t 90
m 3 2
c
r 1 1 62 61 59
r 3 1 55
r 3 1 55
r 3 1 57
r 3 1 59
r 1 2 s 55 54 52 57 55
r 1 2 54 55 r 1 1 54 52
r 1 2 50 54 r 2 1 59
r 1 1 57 r 2 1 57
r 1 2 55 55 s 59 r 1 1 55
r 1 2 57 57 s 57 r 1 1 57
r 1 2 61 61 s 61 r 1 1 61
r 1 2 59 59 s 59 r 1 1 59
r 3 1 61
r 3 1 61
r 3 1 62
r 3 1 59
r 1 1 56 57 59
r 3 1 59
r 3 1 s
r 1 1 s r 2 1 59
r 3 1 58
r 3 1 58
r 3 1 59
r 3 1 59
r 2 1 58 r 1 1 55
r 1 2 54 58 59 61 62 64
r 1 1 62 s s
r 3 1 s
r 2 1 57 r 1 1 57
r 3 1 57
r 3 1 59
r 3 1 59
r 1 2 58 55 r 1 1 54 54
r 3 1 59
r 3 1 s
r 1 4 55 s 55 s s s 55 s r 1 2 55 s
r 1 4 55 s 55 s s s 55 s r 1 2 55 s
r 1 4 57 s 57 s s s 57 s r 1 2 57 s
r 1 4 57 s 57 s s s 57 s r 1 2 57 s
r 1 4 59 s 59 s s s 59 s r 1 2 59 s
r 1 4 59 s 58 s s s 58 s r 1 2 58 s
r 1 4 57 s 57 s s s 57 s r 1 2 59 s
r 1 2 59 s r 2 1 57
r 1 4 55 s 55 s s s 55 s r 1 2 55 s
r 1 4 55 s 55 s s s 55 s r 1 2 55 s
r 1 4 57 s 57 s s s 57 s r 1 2 57 s
r 1 4 57 s 57 s s s 57 s r 1 2 57 s
r 1 1 s 59 r 1 2 61 59
r 1 2 58 59 r 1 1 61 54
r 1 1 61 r 2 1 59
r 1 1 60 r 2 1 59
r 2 1 59 r 1 1 62
r 1 2 61 62 r 1 1 64 57
r 2 1 64 r 1 1 61
r 1 1 64 r 2 1 62
r 1 1 s 59 61
r 1 2 61 59 r 1 1 58 54
r 3 1 57
r 1 1 59 57 59
r 2 1 59 r 1 1 55
r 1 1 55 r 2 1 57
r 3 1 57
r 2 1 57 r 1 1 59
r 2 1 59 r 1 2 61 59
r 1 2 58 55 54 51 54 55
r 3 1 54
r 1 2 s 59 61 62 61 59
r 1 2 59 59 59 59 59 55
r 3 1 54 54
c
C 9
r 1 1 34 33 33
r 1 1 34 33 33
r 1 1 34 33 33
r 1 1 34 33 33
r 1 1 34 33 33
r 1 1 34 33 33
r 1 1 34 33 33
r 1 1 34 33 33
r 1 1 34 33 33
