c
o 73
r 4 1 s
r 1 6 81 r 11 6 83 r 1 3 90 88 86 90 88 86
r 1 6 81 r 11 6 83 r 1 3 90 88 86 90 88 86
r 2 1 81 r 1 3 88 86 85 88 86 85
r 2 1 81 r 1 3 88 86 85 86 88 85
r 1 3 81 r 5 3 83 r 1 12 88 r 1 4 90 r 1 3 88 86 r 1 12 88 r 1 4 90 r 1 3 88 86
r 1 6 81 r 1 2 83 r 1 12 83 85 83 81 r 1 1 83 r 1 12 88 r 1 4 90 r 1 3 88 86 r 1 12 88 r 1 4 90 r 1 3 88 86
r 2 3 81 r 1 12 81 83 81 79 r 1 1 81 r 1 3 88 86 85 88 86 85
r 2 1 86 r 1 3 86 88 r 1 9 86 88 86 r 1 3 85 r 1 9 83 85 83 r 1 3 81
xg
r 1 6 81 r 11 6 83 r 1 12 88 r 1 4 90 r 1 3 88 86 r 1 12 88 r 1 4 90 r 1 3 88 86
r 1 6 81 r 1 2 83 r 1 12 83 85 83 81 r 1 1 83 r 1 12 88 r 1 4 90 r 1 3 88 86 r 1 12 88 r 1 4 90 r 1 3 88 86
r 1 6 79 r 3 6 81 r 1 12 81 83 81 79 r 1 1 81 r 1 12 86 r 1 4 88 r 1 3 86 85 r 1 12 86 r 1 4 88 r 1 3 86 85
r 1 6 79 r 3 6 81 r 1 12 81 83 81 79 r 1 1 81 r 1 12 86 r 1 4 88 r 1 3 86 85 86 88 85
r 1 6 81 r 1 2 83 r 1 12 83 85 83 81 r 1 1 83 r 1 12 88 r 1 4 90 r 1 3 88 86 r 1 12 88 r 1 4 90 r 1 3 88 86
r 1 6 81 r 1 2 83 r 1 12 83 85 83 81 r 1 1 83 r 1 12 88 r 1 4 90 r 1 3 88 86 r 1 12 88 r 1 4 90 r 1 3 88 86
r 1 6 79 r 3 6 81 r 1 12 81 83 81 79 r 1 1 81 r 1 12 86 r 1 4 88 r 1 3 86 85 r 1 12 86 r 1 4 88 r 1 3 86 85
r 2 3 86 r 1 3 86 r 2 3 86 r 1 3 86 r 1 3 86 88 86 85 83 81
xg
r 1 9 83 85 83 r 1 3 81 83 r 1 9 83 85 83 r 1 3 81 83 r 1 12 88 r 1 4 90 r 1 3 88 86 r 1 12 88 r 1 4 90 r 1 3 88 86
r 1 9 83 85 83 r 1 3 81 83 r 1 9 83 85 83 r 1 3 81 83 r 1 12 88 r 1 4 90 r 1 3 88 86 r 1 12 88 r 1 4 90 r 1 3 88 86
r 2 3 81 r 1 12 81 83 81 79 r 1 1 81 r 1 12 86 r 1 4 88 r 1 3 86 85 r 1 12 86 r 1 4 88 r 1 3 86 85
r 2 3 81 r 1 12 81 83 81 79 r 1 1 81 r 1 12 86 r 1 4 88 r 1 3 86 85 r 1 6 86 r 1 2 88 r 1 3 85
r 1 6 81 r 1 2 83 r 1 12 83 85 83 81 r 1 1 83 r 1 12 88 r 1 4 90 r 1 3 88 86 r 1 12 88 r 1 4 90 r 1 3 88 86
r 1 6 81 r 1 2 83 r 1 12 83 85 83 81 r 1 1 83 r 1 12 88 r 1 4 90 r 1 3 88 86 r 1 12 88 r 1 4 90 r 1 3 88 86
r 2 3 81 r 1 12 81 83 81 79 r 1 1 81 r 1 12 86 r 1 4 88 r 1 3 86 85 r 1 12 86 r 1 4 88 r 1 3 86 85
r 2 3 86 r 1 3 86 r 2 3 86 r 1 3 86 r 1 3 86 88 86 85 83 81
r 1 3 83 85 86 88 86 85 83 85 86 85 83 81
r 1 1 83 r 3 6 81 r 1 6 83 r 7 3 81
r 4 1 s
r 4 1 s
r 4 1 s
r 4 1 s
r 1 6 93 95 r 1 3 93 91 r 1 6 93 95 r 1 3 91 90 88 81 81 81 88 90
r 1 3 91 91 91 91 90 88 r 1 6 86 88 r 1 3 83 83 83 83 83
r 2 3 83 r 1 3 83 r 2 3 86 r 1 3 90 r 2 3 88 r 1 3 88 r 2 3 88 r 1 3 88
r 2 15 86 88 86 88 86 r 1 3 86 r 2 3 85 r 1 3 81 r 1 1 83 s
r 2 3 83 r 1 12 88 r 1 4 90 r 2 3 83 r 1 12 88 r 1 4 90 r 2 3 83 r 1 12 88 r 1 4 90 r 1 1 83
r 2 3 90 r 1 12 88 r 1 4 90 r 1 3 88 90 88 86 85 86 r 2 15 86 88 86 88 86 r 1 3 85
r 2 3 83 r 1 12 88 r 1 4 90 r 2 3 83 r 1 12 88 r 1 4 90 r 2 3 83 r 1 12 88 r 1 4 90 r 1 1 83
r 2 3 90 r 1 12 88 r 1 4 90 r 1 3 88 90 88 86 85 81 r 1 2 83 s
r 2 3 83 r 1 12 88 r 1 4 90 r 2 3 83 r 1 12 88 r 1 4 90 r 2 3 83 r 1 12 88 r 1 4 90 r 1 1 83
r 2 3 90 r 1 12 88 r 1 4 90 r 1 3 88 90 88 86 85 86 r 2 15 86 88 86 88 86 r 1 3 85
r 2 3 83 r 1 12 88 r 1 4 90 r 2 3 83 r 1 12 88 r 1 4 90 r 2 3 83 r 1 12 88 r 1 4 90 r 1 1 83
r 2 3 90 r 1 12 88 r 1 4 90 r 1 3 88 90 88 86 85 81 r 1 2 83 s
r 4 1 s
r 4 1 s
r 4 1 s
r 4 1 s
r 1 6 93 95 r 1 3 93 91 r 1 6 93 95 r 1 3 91 90 88 81 81 81 88 90
r 1 3 91 91 91 91 90 88 r 1 6 86 88 r 1 3 83 83 83 83 83
r 2 3 83 r 1 3 83 r 2 3 86 r 1 3 90 r 2 3 88 r 1 3 88 r 2 3 88 r 1 3 88
r 2 15 86 88 86 88 86 r 1 3 86 r 2 3 85 r 1 3 81 r 1 1 83 s
r 4 1 s
r 4 1 s
r 4 1 s
r 4 1 s
r 4 1 s
r 4 1 s
r 4 1 s
r 4 1 s
r 1 9 83 85 83 r 1 3 81 83 r 1 9 83 85 83 r 1 3 81 83 r 1 12 88 r 1 4 90 r 1 3 88 86 r 1 12 88 r 1 4 90 r 1 3 88 86
r 1 9 83 85 83 r 1 3 81 83 r 1 9 83 85 83 r 1 3 81 83 r 1 12 88 r 1 4 90 r 1 3 88 86 r 1 12 88 r 1 4 90 r 1 3 88 86
r 2 3 81 r 1 12 81 83 81 79 r 1 1 81 r 1 12 86 r 1 4 88 r 1 3 86 85 r 1 12 86 r 1 4 88 r 1 3 86 85
r 2 3 81 r 1 12 81 83 81 79 r 1 1 81 r 1 12 86 r 1 4 88 r 1 3 86 85 r 1 6 86 r 1 2 88 r 1 3 85
r 1 6 81 r 1 2 83 r 1 12 83 85 83 81 r 1 1 83 r 1 12 88 r 1 4 90 r 1 3 88 86 r 1 12 88 r 1 4 90 r 1 3 88 86
r 1 6 81 r 1 2 83 r 1 12 83 85 83 81 r 1 1 83 r 1 12 88 r 1 4 90 r 1 3 88 86 r 1 12 88 r 1 4 90 r 1 3 88 86
r 2 3 81 r 1 12 81 83 81 79 r 1 1 81 r 1 12 86 r 1 4 88 r 1 3 86 85 r 1 12 86 r 1 4 88 r 1 3 86 85
r 2 3 86 r 1 3 86 r 2 3 86 r 1 3 86 r 1 3 86 88 86 85 83 81
r 1 3 83 85 86 88 86 85 83 85 86 85 83 81
r 1 1 83 r 3 6 81 r 1 6 83 r 7 3 81
r 4 1 s
r 4 1 s
r 4 1 s
r 4 1 s
r 1 6 93 95 r 1 3 93 91 r 1 6 93 95 r 1 3 91 90 88 81 81 81 88 90
r 1 3 91 91 91 91 90 88 r 1 6 86 88 r 1 3 83 83 83 83 83
r 2 3 83 r 1 3 83 r 2 3 86 r 1 3 90 r 2 3 88 r 1 3 88 r 2 3 88 r 1 3 88
r 2 15 86 88 86 88 86 r 1 3 86 r 2 3 85 r 1 3 81 r 1 1 83 s
r 4 1 s
r 4 1 s
r 4 1 s
r 4 1 s
r 4 1 s
r 4 1 s
r 4 1 s
r 4 1 s
r 2 3 83 r 1 12 88 r 1 4 90 r 2 3 83 r 1 12 88 r 1 4 90 r 2 3 83 r 1 12 88 r 1 4 90 r 1 1 83
r 2 3 90 r 1 12 88 r 1 4 90 r 1 3 88 90 88 86 85 86 r 2 15 86 88 86 88 86 r 1 3 85
r 2 3 83 r 1 12 88 r 1 4 90 r 2 3 83 r 1 12 88 r 1 4 90 r 2 3 83 r 1 12 88 r 1 4 90 r 1 1 83
r 2 3 90 r 1 12 88 r 1 4 90 r 1 3 88 90 88 86 85 81 r 1 2 83 s
r 2 3 83 r 1 12 88 r 1 4 90 r 2 3 83 r 1 12 88 r 1 4 90 r 2 3 83 r 1 12 88 r 1 4 90 r 1 1 83
r 2 3 90 r 1 12 88 r 1 4 90 r 1 3 88 90 88 86 85 86 r 2 15 86 88 86 88 86 r 1 3 85
r 2 3 83 r 1 12 88 r 1 4 90 r 2 3 83 r 1 12 88 r 1 4 90 r 2 3 83 r 1 12 88 r 1 4 90 r 1 1 83
r 2 3 90 r 1 12 88 r 1 4 90 r 1 3 88 90 88 86 85 81 r 1 2 83 s
r 4 1 s
r 4 1 s
r 4 1 s
r 4 1 s
r 4 1 s
r 4 1 s
r 4 1 s
r 4 1 s
r 4 1 s
r 4 1 s
r 4 1 s
r 4 1 s
r 4 1 s
r 4 1 s
r 4 1 s
r 4 1 s
r 4 1 s
r 4 1 s
r 1 6 93 95 r 1 3 93 91 r 1 6 93 95 r 1 3 91 90 88 81 81 81 88 90
r 1 3 91 91 91 91 90 88 r 1 6 86 88 r 1 3 86 83 r 2 3 83 r 1 3 83
r 2 3 83 r 1 3 83 r 2 3 86 r 1 3 90 r 1 1 88 88
r 2 15 86 88 86 88 86 r 1 3 86 r 2 3 85 r 1 3 81 r 1 1 83 s
r 1 6 93 95 r 1 3 93 91 r 1 6 93 95 r 1 3 91 90 88 81 81 81 88 90
r 1 3 91 91 91 91 90 88 r 1 6 86 88 r 1 3 86 83 r 2 3 83 r 1 3 83
r 2 3 83 r 1 3 83 r 2 3 86 r 1 3 90 r 1 1 88 88
r 2 15 86 88 86 88 86 r 1 3 86 r 2 3 85 r 1 3 81 r 1 1 83 s
r 4 1 s
r 4 1 s
r 4 1 s
r 4 1 s
r 4 1 s
r 4 1 s
r 4 1 s
r 4 1 s
r 1 9 83 85 83 r 1 3 81 83 r 1 9 83 85 83 r 1 3 81 83 90 88 86 90 88 86
r 1 9 83 85 83 r 1 3 81 83 r 1 9 83 85 83 r 1 3 81 83 90 88 86 90 88 86
r 1 9 83 85 83 r 1 3 81 83 r 1 9 83 85 83 r 1 3 81 83 90 88 86 90 88 86
r 1 9 83 85 83 r 1 3 81 83 r 1 9 83 85 83 r 1 3 81 83 90 88 86 85 83 81
r 1 9 83 85 83 r 1 3 81 83 r 1 9 83 85 83 r 1 3 81 83 90 88 86 90 88 86
r 1 9 83 85 83 r 1 3 81 83 r 1 9 83 85 83 r 1 3 81 83 90 88 86 90 88 86
r 1 9 83 85 83 r 1 3 81 83 r 1 9 83 85 83 r 1 3 81 83 90 88 86 90 88 86
r 1 9 83 85 83 r 1 3 81 83 r 1 9 83 85 83 r 1 3 81 83 90 88 86 85 83 81
fx
r 1 6 81 r 11 6 83 r 1 12 88 r 1 4 90 r 1 3 88 86 r 1 12 88 r 1 4 90 r 1 3 88 86
r 1 6 81 r 1 2 83 r 1 12 83 85 83 81 r 1 1 83 r 1 12 88 r 1 4 90 r 1 3 88 86 r 1 12 88 r 1 4 90 r 1 3 88 86
r 1 6 79 r 3 6 81 r 1 12 81 83 81 79 r 1 1 81 r 1 12 86 r 1 4 88 r 1 3 86 85 r 1 12 86 r 1 4 88 r 1 3 86 85
r 1 6 79 r 3 6 81 r 1 12 81 83 81 79 r 1 1 81 r 1 12 86 r 1 4 88 r 1 3 86 85 86 88 85
r 1 6 81 r 1 2 83 r 1 12 83 85 83 81 r 1 1 83 r 1 12 88 r 1 4 90 r 1 3 88 86 r 1 12 88 r 1 4 90 r 1 3 88 86
r 1 6 81 r 1 2 83 r 1 12 83 85 83 81 r 1 1 83 r 1 12 88 r 1 4 90 r 1 3 88 86 r 1 12 88 r 1 4 90 r 1 3 88 86
r 1 6 79 r 3 6 81 r 1 12 81 83 81 79 r 1 1 81 r 1 12 86 r 1 4 88 r 1 3 86 85 r 1 12 86 r 1 4 88 r 1 3 86 85
r 2 3 86 r 1 3 86 r 2 3 86 r 1 3 86 r 1 3 86 88 86 85 83 81
xg
r 1 9 83 85 83 r 1 3 81 83 r 1 9 83 85 83 r 1 3 81 83 r 1 12 88 r 1 4 90 r 1 3 88 86 r 1 12 88 r 1 4 90 r 1 3 88 86
r 1 9 83 85 83 r 1 3 81 83 r 1 9 83 85 83 r 1 3 81 83 r 1 12 88 r 1 4 90 r 1 3 88 86 r 1 12 88 r 1 4 90 r 1 3 88 86
r 2 3 81 r 1 12 81 83 81 79 r 1 1 81 r 1 12 86 r 1 4 88 r 1 3 86 85 r 1 12 86 r 1 4 88 r 1 3 86 85
r 2 3 81 r 1 12 81 83 81 79 r 1 1 81 r 1 12 86 r 1 4 88 r 1 3 86 85 r 1 6 86 r 1 2 88 r 1 3 85
r 1 6 81 r 1 2 83 r 1 12 83 85 83 81 r 1 1 83 r 1 12 88 r 1 4 90 r 1 3 88 86 r 1 12 88 r 1 4 90 r 1 3 88 86
r 1 6 81 r 1 2 83 r 1 12 83 85 83 81 r 1 1 83 r 1 12 88 r 1 4 90 r 1 3 88 86 r 1 12 88 r 1 4 90 r 1 3 88 86
r 2 3 81 r 1 12 81 83 81 79 r 1 1 81 r 1 12 86 r 1 4 88 r 1 3 86 85 r 1 12 86 r 1 4 88 r 1 3 86 85
r 2 3 86 r 1 3 86 r 2 3 86 r 1 3 86 r 1 3 86 88 86 85 83 81
r 1 3 83 85 86 88 86 85 83 85 86 85 83 81
r 4 1 84
r 1 3 83 85 86 88 86 85 83
c
o 40
r 4 1 s
r 2 1 74 r 1 3 81 79 78 81 79 78
r 2 1 74 r 1 3 81 79 78 81 79 78
r 2 1 73 r 1 3 79 78 76 79 78 76
r 2 1 73 r 1 3 79 78 76 78 79 76
r 2 1 74 r 1 3 81 79 78 81 79 78
r 2 1 74 r 1 3 81 79 78 81 79 78
r 2 1 73 r 1 3 79 78 76 79 78 76
r 2 1 78 r 1 3 78 79 78 76 74 73
xg
r 2 3 74 r 1 3 74 r 2 3 74 r 1 3 74 r 1 3 81 79 78 81 79 78
r 2 3 74 r 1 3 74 r 2 3 74 r 1 3 74 r 1 3 81 79 78 81 79 78
r 2 3 73 r 1 3 73 r 2 3 73 r 1 3 73 r 1 3 79 78 76 79 78 76
r 2 3 73 r 1 3 73 r 2 3 73 r 1 3 73 r 1 3 79 78 76 78 79 76
r 2 3 74 r 1 3 74 r 2 3 74 r 1 3 74 r 1 3 81 79 78 81 79 78
r 2 3 74 r 1 3 74 r 2 3 74 r 1 3 74 r 1 3 81 79 78 81 79 78
r 2 3 73 r 1 3 73 r 2 3 73 r 1 3 73 r 1 3 79 78 76 79 78 76
r 2 3 78 r 1 3 78 r 2 3 78 r 1 3 78 r 1 3 78 79 78 76 74 73
xg
r 1 3 74 71 74 74 71 74 81 79 78 81 79 78
r 1 3 74 71 74 74 71 74 81 79 78 81 79 78
r 1 3 73 69 73 73 69 73 79 78 76 79 78 76
r 1 3 73 69 73 73 69 73 79 78 76 78 79 76
r 1 3 74 71 74 74 71 74 81 79 78 81 79 78
r 1 3 74 71 74 74 71 74 81 79 78 81 79 78
r 1 3 73 69 73 73 69 73 79 78 76 79 78 76
r 1 3 78 74 78 78 74 78 78 79 78 76 74 73
r 1 3 71 73 74 76 74 73 71 73 74 73 71 69
r 1 1 71 r 3 1 69
r 4 1 s
r 4 1 s
r 4 1 s
r 4 1 s
r 1 3 81 81 81 81 79 78 76 69 69 69 76 78
r 1 3 79 79 79 79 78 76 74 71 71 71 71 71
r 2 3 71 r 1 3 71 r 2 3 74 r 1 3 78 r 2 3 76 r 1 3 76 r 2 3 76 r 1 3 76
r 2 3 74 r 1 3 74 r 2 3 73 r 1 3 69 r 1 1 71 s
r 2 3 71 r 1 3 78 r 2 3 71 r 1 3 78 r 2 3 71 r 1 3 78 r 1 1 71
r 2 3 78 r 1 3 78 76 78 76 74 73 74 r 2 3 74 r 1 3 73
r 2 3 71 r 1 3 78 r 2 3 71 r 1 3 78 r 2 3 71 r 1 3 78 r 1 1 71
r 2 3 78 r 1 3 78 76 78 76 74 73 69 r 1 2 71 s
r 2 3 71 r 1 3 78 r 2 3 71 r 1 3 78 r 2 3 71 r 1 3 78 r 1 1 71
r 2 3 78 r 1 3 78 76 78 76 74 73 74 r 2 3 74 r 1 3 73
r 2 3 71 r 1 3 78 r 2 3 71 r 1 3 78 r 2 3 71 r 1 3 78 r 1 1 71
r 2 3 78 r 1 3 78 76 78 76 74 73 69 r 1 2 71 s
r 4 1 s
r 4 1 s
r 4 1 s
r 4 1 s
r 1 3 81 81 81 81 79 78 76 69 69 69 76 78
r 1 3 79 79 79 79 78 76 74 71 71 71 71 71
r 2 3 71 r 1 3 71 r 2 3 74 r 1 3 78 r 2 3 76 r 1 3 76 r 2 3 76 r 1 3 76
r 2 3 74 r 1 3 74 r 2 3 73 r 1 3 69 r 1 1 71 s
r 4 1 s
r 4 1 s
r 4 1 s
r 4 1 s
r 4 1 s
r 4 1 s
r 4 1 s
r 4 1 s
r 1 3 74 71 74 74 71 74 81 79 78 81 79 78
r 1 3 74 71 74 74 71 74 81 79 78 81 79 78
r 1 3 73 69 73 73 69 73 79 78 76 79 78 76
r 1 3 73 69 73 73 69 73 79 78 76 78 79 76
r 1 3 74 71 74 74 71 74 81 79 78 81 79 78
r 1 3 74 71 74 74 71 74 81 79 78 81 79 78
r 1 3 73 69 73 73 69 73 79 78 76 79 78 76
r 1 3 78 74 78 78 74 78 78 79 78 76 74 73
r 1 3 71 73 74 76 74 73 71 73 74 73 71 69
r 1 1 71 r 3 1 69
r 4 1 s
r 4 1 s
r 4 1 s
r 4 1 s
r 1 3 81 81 81 81 79 78 76 69 69 69 76 78
r 1 3 79 79 79 79 78 76 74 71 71 71 71 71
r 2 3 71 r 1 3 71 r 2 3 74 r 1 3 78 r 2 3 76 r 1 3 76 r 2 3 76 r 1 3 76
r 2 3 74 r 1 3 74 r 2 3 73 r 1 3 69 r 1 1 71 s
r 4 1 s
r 4 1 s
r 4 1 s
r 4 1 s
r 4 1 s
r 4 1 s
r 4 1 s
r 4 1 s
r 2 3 71 r 1 3 78 r 2 3 71 r 1 3 78 r 2 3 71 r 1 3 78 r 1 1 71
r 2 3 78 r 1 3 78 76 78 76 74 73 74 r 2 3 74 r 1 3 73
r 2 3 71 r 1 3 78 r 2 3 71 r 1 3 78 r 2 3 71 r 1 3 78 r 1 1 71
r 2 3 78 r 1 3 78 76 78 76 74 73 69 r 1 2 71 s
r 2 3 71 r 1 3 78 r 2 3 71 r 1 3 78 r 2 3 71 r 1 3 78 r 1 1 71
r 2 3 78 r 1 3 78 76 78 76 74 73 74 r 2 3 74 r 1 3 73
r 2 3 71 r 1 3 78 r 2 3 71 r 1 3 78 r 2 3 71 r 1 3 78 r 1 1 71
r 2 3 78 r 1 3 78 76 78 76 74 73 69 r 1 2 71 s
r 4 1 s
r 4 1 s
r 4 1 s
r 4 1 s
r 4 1 s
r 4 1 s
r 4 1 s
r 4 1 s
r 4 1 s
r 4 1 s
r 4 1 s
r 4 1 s
r 4 1 s
r 4 1 s
r 4 1 s
r 4 1 s
r 4 1 s
r 4 1 s
r 1 3 81 81 81 81 79 78 76 69 69 69 76 78
r 1 3 79 79 79 79 78 76 r 2 3 74 r 1 3 71 r 2 3 71 r 1 3 71
r 2 3 71 r 1 3 71 r 2 3 74 r 1 3 78 r 1 1 76 76
r 2 3 74 r 1 3 74 r 2 3 73 r 1 3 69 r 1 1 71 s
r 1 3 81 81 81 81 79 78 76 69 69 69 76 78
r 1 3 79 79 79 79 78 76 r 2 3 74 r 1 3 71 r 2 3 71 r 1 3 71
r 2 3 71 r 1 3 71 r 2 3 74 r 1 3 78 r 1 1 76 76
r 2 3 74 r 1 3 74 r 2 3 73 r 1 3 69 r 1 1 71 s
r 4 1 s
r 4 1 s
r 4 1 s
r 4 1 s
r 4 1 s
r 4 1 s
r 4 1 s
r 4 1 s
r 4 1 s
r 4 1 s
r 4 1 s
r 4 1 s
r 4 1 s
r 4 1 s
r 4 1 s
r 4 1 s
fx
r 2 3 74 r 1 3 74 r 2 3 74 r 1 3 74 r 1 3 81 79 78 81 79 78
r 2 3 74 r 1 3 74 r 2 3 74 r 1 3 74 r 1 3 81 79 78 81 79 78
r 2 3 73 r 1 3 73 r 2 3 73 r 1 3 73 r 1 3 79 78 76 79 78 76
r 2 3 73 r 1 3 73 r 2 3 73 r 1 3 73 r 1 3 79 78 76 78 79 76
r 2 3 74 r 1 3 74 r 2 3 74 r 1 3 74 r 1 3 81 79 78 81 79 78
r 2 3 74 r 1 3 74 r 2 3 74 r 1 3 74 r 1 3 81 79 78 81 79 78
r 2 3 73 r 1 3 73 r 2 3 73 r 1 3 73 r 1 3 79 78 76 79 78 76
r 2 3 78 r 1 3 78 r 2 3 78 r 1 3 78 r 1 3 78 79 78 76 74 73
xg
r 1 3 74 71 74 74 71 74 81 79 78 81 79 78
r 1 3 74 71 74 74 71 74 81 79 78 81 79 78
r 1 3 73 69 73 73 69 73 79 78 76 79 78 76
r 1 3 73 69 73 73 69 73 79 78 76 78 79 76
r 1 3 74 71 74 74 71 74 81 79 78 81 79 78
r 1 3 74 71 74 74 71 74 81 79 78 81 79 78
r 1 3 73 69 73 73 69 73 79 78 76 79 78 76
r 1 3 78 74 78 78 74 78 78 79 78 76 74 73
r 1 3 71 73 74 76 74 73 71 73 74 73 71 69
r 4 1 72
r 1 3 71 73 74 76 74 73 71
c
T 0
r 1 1
t 557,2872788542544 s
t 557,1699305116866 s
t 557,2872788542544 s
t 557,2872788542544 s
t 71,62385296267223 s
t 57,1046270718232 s
t 63,41065950920245 s
t 63,216743119266056 s
t 66,68346774193549 s
t 69,60227272727273 s
t 66,68346774193549 s
t 59,91847826086956 s
t 67,99958881578948 s
t 61,56924795234549 s
t 63,75289128758674 s
t 66,04432907348243 s
t 71,52897923875433 s
t 69,71964586846543 s
t 62,54727685325265 s
t 67,55514705882354 s
t 72,02743902439025 s
t 61,85133239831697 s
t 68,4995340167754 s
t 75,44479927007299 s
t 67,55514705882354 s
t 57,1046270718232 s
t 65,41732594936708 s
t 64,19836956521739 s
t 68,44991721854305 s
t 61,57497905612957 s
t 67,13009945199919 s
t 64,12990790111488 s
t 78,30255681818181 s
t 67,38997555012224 s
t 63,95011600928074 s
t 77,1338619402985 s
t 75,99954044117646 s
t 72,02743902439025 s
t 77,71381578947368 s
t 102,33601485148515 s
t 96,14825581395348 s
t 74,20910926632264 s
t 93,35309060118544 s
t 85,02570694087403 s
t 94,23076923076923 s
t 106,35048231511254 s
t 95,20725388601036 s
t 104,0748898678414 s
t 101,14678899082568 s
t 119,70684039087948 s
t 103,7158984007526 s
t 115,48533519553072 s
t 107,94712793733682 s
t 112,65326975476839 s
t 128,7967289719626 s
t 133,79854368932038 s
t 112,53827832596122 s
t 135,27607361963192 s
t 118,20943531093639 s
t 124,34210526315789 s
t 115,80882352941177 s
t 132,61828388131516 s
t 127,3094688221709 s
t 133,69037995149554 s
t 118,125 s
t 135,77586206896552 s
t 122,5 s
t 129,19921875 s
t 180,54039301310044 s
t 109,375 s
t 125,66489361702128 s
t 137,8125 s
t 123,78368263473054 s
t 137,3546511627907 s
t 132,19424460431654 s
t 131,56324582338902 s
t 133,79854368932038 s
t 132,9381028938907 s
t 130,83465189873417 s
t 140,625 s
t 132,51201923076923 s
t 138,73741610738256 s
t 127,60416666666667 s
t 133,36693548387098 s
t 137,8125 s
t 130,01179245283018 s
t 130,37051635790303 s
t 143,11986153180442 s
t 127,99922600619195 s
t 135,11029411764707 s
t 133,79854368932038 s
t 140,625 s
t 130,01179245283018 s
t 137,8125 s
t 131,66799363057325 s
t 137,3546511627907 s
t 135,55327868852459 s
t 129,19921875 s
t 135,11029411764707 s
t 132,51201923076923 s
t 134,23295454545453 s
t 131,66799363057325 s
t 140,14830508474577 s
t 126,43348623853211 s
t 137,3546511627907 s
t 98,80138904447183 s
t 98,79769994772609 s
t 98,80138904447183 s
t 156,4569536423841 s
t 131,28907412920512 s
t 128,47778587035688 s
t 132,74469472733657 s
t 128,2038858471825 s
t 137,6189733187705 s
t 131,57633018398806 s
t 131,57633018398806 s
t 129,31287264197047 s
t 135,1378958120531 s
t 137,61181610151863 s
t 130,43478260869566 s
t 133,9272156703953 s
t 135,1378958120531 s
t 119,04440545282765 s
t 130,78291814946618 s
t 134,52641212059586 s
t 132,16123070775686 s
t 139,53488372093022 s
t 129,31287264197047 s
t 138,8830568969137 s
t 143,54689958227092 s
t 133,33333333333334 s
t 135,13099433123946 s
t 132,16123070775686 s
t 143,53911250949332 s
t 133,33333333333334 s
t 138,25173729034955 s
t 141,50489330980267 s
t 134,53325198291643 s
t 142,85714285714286 s
t 145,59260482007264 s
t 130,990099009901 s
t 131,72043010752688 s
t 137,8125 s
t 132,53856942496495 s
t 134,95868611649496 s
t 136,5465992362473 s
t 132,67148014440434 s
t 131,74666401115314 s
t 132,88469264764967 s
t 132,2471011595362 s
t 135,4977468250717 s
t 134,4512195121951 s
t 136,22322899505767 s
t 133,12537733950492 s
t 139,17525773195877 s
t 135,27607361963192 s
t 130,8864265927978 s
t 132,40592473979183 s
t 135,3314238952537 s
t 133,44764978817832 s
t 135,35911602209944 s
t 134,20572124163115 s
t 134,8074179743224 s
t 130,52486187845304 s
t 133,9068825910931 s
t 131,74666401115314 s
t 134,3965867533523 s
t 133,07181653590825 s
t 134,75249541658178 s
t 134,50589670597805 s
t 133,34005240878855 s
t 69,67558457973458 s
t 158,72825434913017 s
t 143,53911250949332 s
t 127,11986548162383 s
t 117,9933110367893 s
t 139,0509222765253 s
t 136,20920415937402 s
t 130,5763916304777 s
t 123,58710882765062 s
t 135,28298992791042 s
t 134,38293550025395 s
t 126,84563758389261 s
t 141,51246122579954 s
t 125,91605596269154 s
t 136,055121349239 s
t 127,52421803460408 s
t 151,676698194325 s
t 146,51974084943797 s
t 129,24339373809408 s
t 146,34146341463415 s
t 125,98200257106127 s
t 140,26717557251908 s
t 133,8526912181303 s
t 133,93399473577648 s
t 131,57633018398806 s
t 144,93071150791476 s
t 143,53911250949332 s
t 135,13099433123946 s
t 129,94156067377105 s
t 145,54455445544554 s
t 137,61181610151863 s
t 133,40728042754864 s
t 125,70668440305953 s
t 151,70278637770897 s
t 140,1928578997563 s
t 126,04801829268293 s
t 135,1378958120531 s
t 124,21952021031876 s
t 147,06536238328147 s
t 127,11375864719446 s
t 147,7882037533512 s
t 137,29763387297635 s
t 143,02702702702703 s
t 137,45454545454547 s
t 131,15241635687732 s
t 136,20920415937402 s
t 135,43532783948405 s
t 127,93115118696514 s
t 135,28990694345026 s
t 144,0548780487805 s
t 130,72476656291684 s
t 124,7348324140857 s
t 141,84625281440978 s
t 136,055121349239 s
t 144,0548780487805 s
t 126,18627497734751 s
t 141,84625281440978 s
t 138,56304985337243 s
t 147,23721551388348 s
t 119,16771752837326 s
t 150 s
t 149,6267812712056 s
t 133,9272156703953 s
t 133,03836291417366 s
t 125,01181139563451 s
t 138,81019830028328 s
t 140,18543046357615 s
t 120,96552985279327 s
t 138,97058823529412 s
t 144,84344208451938 s
t 132,67148014440434 s
t 127,18096611391492 s
t 142,18162278344977 s
t 153,0629953143981 s
t 134,52641212059586 s
t 136,99197514884804 s
t 134,52641212059586 s
t 136,44098386015574 s
t 142,01373980249033 s
t 134,67704993128723 s
t 133,25946817082996 s
t 134,38293550025395 s
t 134,15128777124315 s
t 136,28637651300542 s
t 136,36363636363637 s
t 129,80132450331126 s
t 135,6644790812141 s
t 139,77812995245642 s
t 136,99197514884804 s
t 141,4216996258685 s
t 135,7479991791504 s
t 135,7479991791504 s
t 131,07445385644226 s
t 142,85714285714286 s
t 136,28637651300542 s
t 129,87140473152056 s
t 135,13099433123946 s
t 136,36363636363637 s
t 133,33333333333334 s
t 140,27461167364683 s
t 131,50439838974205 s
t 135,21385865399355 s
t 74,04298186702485 s
t 74,04298186702485 s
t 74,04298186702485 s
t 133,62961466592597 s
t 141,51246122579954 s
t 136,67355371900825 s
t 141,17270447633783 s
t 144,23548650858544 s
t 125 s
t 136,055121349239 s
t 136,67355371900825 s
t 129,58519026396982 s
t 131,2955887460924 s
t 138,8830568969137 s
t 136,36363636363637 s
t 131,2955887460924 s
t 144,57436345754562 s
t 113,63538758857634 s
t 104,20194541802859 s
t 143,6248168050806 s
t 127,65957446808511 s
t 142,09763170613823 s
t 141,0071942446043 s
t 150,66621113768363 s
t 136,28637651300542 s
t 134,52641212059586 s
t 134,60168887984537 s
t 134,45805173027085 s
t 134,60168887984537 s
t 135,67143516382095 s
t 137,14108012853737 s
t 137,5402848528953 s
t 138,1651088715994 s
t 129,94156067377105 s
t 138,1723237597911 s
t 138,890346963414 s
t 131,57633018398806 s
t 134,22614518338153 s
t 136,36363636363637 s
t 138,890346963414 s
t 131,58287334029538 s
t 129,029112010533 s
t 141,51246122579954 s
t 141,83864915572232 s
t 136,36363636363637 s
t 129,0354042719204 s
t 147,41768343640314 s
t 141,51246122579954 s
t 133,9272156703953 s
t 136,36363636363637 s
t 138,890346963414 s
t 133,9272156703953 s
t 133,62961466592597 s
t 144,5822632643025 s
t 141,50489330980267 s
t 136,36363636363637 s
t 144,23548650858544 s
t 124,21952021031876 s
t 157,0699275792473 s
t 136,67355371900825 s
t 133,9272156703953 s
t 138,890346963414 s
t 147,05718890679708 s
t 133,93399473577648 s
t 136,36363636363637 s
t 138,8830568969137 s
t 102,67753201396974 s
t 136,98488299855043 s
t 135,28990694345026 s
t 134,97933989695454 s
t 134,08330799635146 s
t 136,98488299855043 s
t 137,53313581786995 s
t 138,97058823529412 s
t 127,05272255834053 s
t 137,06293706293707 s
t 131,50439838974205 s
t 133,93399473577648 s
t 134,07651380795542 s
t 145,6326710330783 s
t 135,6644790812141 s
t 137,07003729796932 s
t 129,79495732365348 s
t 141,1802369010778 s
t 133,03836291417366 s
t 135,7479991791504 s
t 135,13099433123946 s
t 140,18543046357615 s
t 133,40728042754864 s
t 137,5402848528953 s
t 130,43478260869566 s
t 145,6326710330783 s
t 133,33333333333334 s
t 134,52641212059586 s
t 135,1378958120531 s
t 145,62465602641717 s
t 127,65957446808511 s
t 137,07003729796932 s
t 137,07003729796932 s
t 153,02758660574867 s
t 153,02758660574867 s
t 153,02758660574867 s
t 153,02758660574867 s
t 153,03643724696357 s
t 153,02758660574867 s
t 153,02758660574867 s
t 153,02758660574867 s
t 146,69845317957532 s
t 133,9272156703953 s
t 133,9272156703953 s
t 136,68061366806137 s
t 141,17270447633783 s
t 136,36363636363637 s
t 129,5915368792242 s
t 133,62961466592597 s
t 139,21186931130637 s
t 131,28907412920512 s
t 131,57633018398806 s
t 133,33333333333334 s
t 132,4523201681934 s
t 131,28907412920512 s
t 141,84625281440978 s
t 133,62961466592597 s
t 141,51246122579954 s
t 136,36363636363637 s
t 139,21186931130637 s
t 129,029112010533 s
t 136,36363636363637 s
t 134,23295454545453 s
t 118,8092137757622 s
t 136,36363636363637 s
t 136,36363636363637 s
t 134,22614518338153 s
t 141,1802369010778 s
t 141,50489330980267 s
t 134,23295454545453 s
t 136,055121349239 s
t 125 s
t 147,05718890679708 s
t 147,41768343640314 s
t 133,62961466592597 s
t 138,890346963414 s
t 129,5915368792242 s
t 131,57633018398806 s
t 138,57030636292222 s
t 140,18543046357615 s
t 142,51858235484218 s
t 144,57436345754562 s
t 133,93399473577648 s
t 136,36363636363637 s
t 141,83864915572232 s
t 141,1802369010778 s
t 133,9272156703953 s
t 136,36363636363637 s
t 136,67355371900825 s
t 127,11986548162383 s
t 131,57633018398806 s
t 138,890346963414 s
t 133,62961466592597 s
t 131,87141789185148 s
t 144,2276245503107 s
t 143,8825448613377 s
t 150 s
t 147,06536238328147 s
t 131,86484600817303 s
t 133,62961466592597 s
t 136,67355371900825 s
t 131,58287334029538 s
t 129,029112010533 s
t 129,5915368792242 s
t 133,34005240878855 s
t 143,45351043643265 s
t 130,43478260869566 s
t 138,25173729034955 s
t 138,3240106644362 s
t 136,28637651300542 s
t 144,23548650858544 s
t 128,75285874166707 s
t 138,97058823529412 s
t 137,53313581786995 s
t 129,38242628722313 s
t 132,67148014440434 s
t 140,84207164528664 s
t 136,98488299855043 s
t 141,51246122579954 s
t 134,52641212059586 s
t 126,65134979896611 s
t 135,67143516382095 s
t 138,24451410658307 s
t 136,36363636363637 s
t 133,18568480394623 s
t 145,10556621880997 s
t 138,25173729034955 s
t 131,00306961085255 s
t 142,18162278344977 s
t 138,64291328268274 s
t 133,48130958987036 s
t 136,5184191517903 s
t 138,25173729034955 s
t 139,45398967007483 s
t 130,43478260869566 s
t 136,36363636363637 s
t 131,7138732639753 s
t 155,83956652335237 s
t 134,23295454545453 s
t 131,00306961085255 s
t 139,53488372093022 s
t 135,7479991791504 s
t 129,87140473152056 s
t 135,74103524342073 s
t 131,58287334029538 s
t 134,22614518338153 s
t 134,22614518338153 s
t 128,75912408759123 s
t 141,83864915572232 s
t 138,25173729034955 s
t 142,51858235484218 s
t 131,86484600817303 s
t 138,25173729034955 s
t 133,9272156703953 s
t 136,36363636363637 s
t 126,85171868258305 s
t 132,16123070775686 s
t 133,62961466592597 s
t 146,69845317957532 s
t 131,86484600817303 s
t 141,51246122579954 s
t 131,86484600817303 s
t 138,57030636292222 s
t 131,28907412920512 s
t 141,84625281440978 s
t 136,36363636363637 s
t 134,22614518338153 s
t 150 s
t 132,18103706664002 s
t 144,93071150791476 s
t 139,53488372093022 s
t 132,1546299071022 s
t 134,6085363992471 s
t 138,8830568969137 s
t 137,6977518734388 s
t 132,67148014440434 s
t 139,29248262792166 s
t 136,5184191517903 s
t 131,64834071346834 s
t 134,4512195121951 s
t 131,87141789185148 s
t 143,96865988356276 s
t 136,9069177834118 s
t 128,2784699665487 s
t 132,811323595844 s
t 152,19141838260668 s
t 130,9317630758573 s
t 134,68390512063525 s
t 133,8526912181303 s
t 142,85714285714286 s
t 133,9272156703953 s
t 135,0620182736971 s
t 137,61181610151863 s
t 136,13211915419046 s
t 130,71830846754273 s
t 135,1378958120531 s
t 132,66482827776386 s
t 137,6977518734388 s
t 140,75965528247687 s
t 135,1378958120531 s
t 124,1437552782209 s
t 137,6905864599053 s
t 135,21385865399355 s
t 130,15248401377275 s
t 129,029112010533 s
t 137,6189733187705 s
t 134,4512195121951 s
t 139,61587167581257 s
t 132,16123070775686 s
t 140,67733531819874 s
t 132,23388305847075 s
t 140,84207164528664 s
t 140,26717557251908 s
t 133,25946817082996 s
t 137,6189733187705 s
t 136,75125329474392 s
t 128,40920120353294 s
t 140,18543046357615 s
t 136,99197514884804 s
t 137,6905864599053 s
t 135,51856594110114 s
t 137,8483980203178 s
t 137,5402848528953 s
t 141,2556053811659 s
t 135,90138674884437 s
t 134,67704993128723 s
t 133,33333333333334 s
t 138,25173729034955 s
t 130,2934804018121 s
t 134,60168887984537 s
t 136,91400186277554 s
t 135,8176778564829 s
t 133,85946274093186 s
t 137,76944704779757 s
t 133,18568480394623 s
t 135,1378958120531 s
t 138,3240106644362 s
t 133,9272156703953 s
t 139,9481673454276 s
t 138,48327837965144 s
t 134,00182315405652 s
t 131,58287334029538 s
t 135,13099433123946 s
t 136,99197514884804 s
t 130,86053412462908 s
t 137,14108012853737 s
t 136,28637651300542 s
t 139,61587167581257 s
t 138,1723237597911 s
t 136,36363636363637 s
t 136,36363636363637 s
t 135,20694941236587 s
t 135,0620182736971 s
t 139,53488372093022 s
t 134,52641212059586 s
t 134,53325198291643 s
t 137,61181610151863 s
t 135,21385865399355 s
t 141,4216996258685 s
t 138,1723237597911 s
t 129,94156067377105 s
t 136,44098386015574 s
t 138,1651088715994 s
t 133,9272156703953 s
t 129,80132450331126 s
t 132,89136658128672 s
t 139,45398967007483 s
t 134,00182315405652 s
t 136,63826491092178 s
t 137,44740532959327 s
t 137,44740532959327 s
t 137,44740532959327 s
t 137,44740532959327 s
t 133,66336633663366 s
t 134,72505091649694 s
