{Bb A G# G} Bb A G#4 G2 C Eb DmG[CDGA]M4{C Eb D C# Ma} C Em Bb Dm G2 Bb4{77 76 74 70} Mb[F Bb C E]2[F Bb D F]2[F Ab C Eb][F G C Eb][Eb G C D]2[F Ab C Eb]2[Eb G C D]G C Em Bb|Dm
M2 C Eb D C# Ma C Eb D C# M C Eb D C# Ma C Em Bb Dm G2 Bb4{77 76 74 70} Mb[F Bb C E]2[F Bb D F]2[F Ab C Eb][F G C Eb][Eb G C D]2[F Ab C Eb]2[Eb G C D]G C Em Bb|Dm M4
Mc {Bb A G# G} Bb A G#4 G2 C Em Bb Dm C Eb D C#B C
