r 7 2 s r 1 1 40
r 1 2 52 55 46 r 1 1 45 r 1 2 52 r 1 1 40
r 1 2 52 55 46 r 1 1 45 r 1 2 52 r 1 1 40
r 1 2 52 55 46 r 1 1 45 r 1 2 52 r 1 1 40
r 1 2 52 55 46 r 1 1 45 r 1 2 52 r 1 1 40
r 1 2 52 55 46 r 1 1 45 r 1 2 52 r 1 1 40
r 1 2 52 55 46 r 1 1 45 r 1 2 52 r 1 1 40
r 1 2 52 55 46 r 1 1 45 r 1 2 52 r 1 1 40
r 1 2 52 55 46 r 1 1 45 r 1 2 52 r 1 1 40
r 1 2 52 55 46 r 1 1 45 r 1 2 52 r 1 1 40
r 1 2 52 55 46 r 1 1 45 r 1 2 52 r 1 1 40
r 1 2 52 55 46 r 1 1 45 r 1 2 52 r 1 1 40
r 1 2 52 55 46 r 1 1 45 r 1 2 52 r 1 1 [ 52 59 ]
r 1 2 52 52 52 52 52 52 64
r 1 2 52 52 52 52 52 52 52 64
r 1 2 52 52 52 52 52 52 52 64
r 1 2 52 52 52 52 52 52 52 64
r 1 2 52 52 64 58 52 52 52 [ 53 60 ]
r 1 2 52 52 64 58 52 52 52 [ 53 60 ]
r 1 2 52 52 64 58 52 52 52 [ 53 60 ]
r 1 2 52 52 64 58 52 52 52 [ 53 60 ]
r 1 2 52 52 64 58 57 52 52 [ 53 60 ]
r 1 2 52 52 64 58 57 52 52 [ 53 60 ]
r 1 2 52 52 64 58 57 52 52 [ 53 60 ]
r 1 2 52 52 64 58 57 52 52 [ 53 60 ]
r 1 2 52 52 64 58 57 52 52 [ 53 60 ]
r 1 2 52 52 64 58 57 52 52 [ 53 60 ]
r 1 2 52 52 64 58 57 52 52 [ 53 60 ]
r 1 2 52 52 64 58 57 52 52 r 1 1 [ 52 59 ]
r 1 2 [ 52 59 ] 64 58 r 1 1 57 r 1 2 52 r 1 1 [ 52 59 ]
r 1 2 [ 52 59 ] 64 58 r 1 1 57 r 1 2 52 r 1 1 [ 52 59 ]
r 1 2 [ 52 59 ] 64 58 r 1 1 57 r 1 2 52 r 1 1 [ 55 62 ]
r 1 2 52 [ 54 61 ] 52 [ 54 61 ] [ 55 62 ] [ 54 61 ] r 1 1 [ 52 59 ]
r 1 2 [ 52 59 ] 64 58 r 1 1 57 r 1 2 52 r 1 1 [ 52 59 ]
r 1 2 [ 52 59 ] 64 58 r 1 1 57 r 1 2 52 r 1 1 [ 52 59 ]
r 1 2 [ 52 59 ] 64 58 r 1 1 57 r 1 2 52 r 1 1 [ 55 62 ]
r 1 2 52 [ 54 61 ] 52 [ 54 61 ] [ 55 62 ] [ 54 61 ] r 1 1 [ 52 59 ]
r 1 2 s 66 67
r 1 1 67 r 1 2 62 64 r 1 1 64 r 1 2 64 64
r 1 2 64 r 1 1 62 r 1 2 64 s s 64 64
r 1 2 64 59 62 64 62 r 3 2 64
r 3 1 s r 1 2 66 67
r 1 1 67 r 1 2 62 64 r 1 1 64 r 1 2 64 64
r 1 2 64 r 1 1 62 r 1 2 64 s s 64 64
r 1 2 64 59 62 64 62 r 3 2 64
r 4 1 s
r 1 2 66 r 1 1 66 66 66 r 1 2 66
r 1 2 69 68 r 1 1 66 r 2 1 s
r 1 2 68 68 66 r 1 4 68 r 3 4 69 r 1 1 68 66
r 1 1 64 r 1 2 s r 2 1 66
r 3 2 64 r 2 1 66 r 1 2 s
r 2 1 s 66
r 3 2 64 r 1 2 68 r 2 1 64
r 2 1 s 66
r 1 2 s r 1 1 64 r 5 2 64
r 3 2 s r 1 2 59 64 64 64 59
r 1 2 62 64 r 2 1 64
r 1 2 64 58 r 1 1 57 r 1 2 52 r 1 1 [ 52 59 ]
r 1 2 [ 52 59 ] 64 58 r 1 1 57 r 1 2 52 r 1 1 [ 52 59 ]
r 1 2 [ 52 59 ] 64 58 r 1 1 57 r 1 2 52 r 1 1 [ 55 62 ]
r 1 2 52 [ 54 61 ] 52 [ 54 61 ] [ 55 62 ] [ 54 61 ] r 1 1 [ 52 59 ]
r 1 2 [ 52 59 ] 64 58 r 1 1 57 r 1 2 52 r 1 1 [ 52 59 ]
r 1 2 [ 52 59 ] 64 58 r 1 1 57 r 1 2 52 r 1 1 [ 52 59 ]
r 1 2 [ 52 59 ] 64 58 r 1 1 57 r 1 2 52 r 1 1 [ 55 62 ]
r 1 2 52 [ 54 61 ] 52 [ 54 61 ] [ 55 62 ] [ 54 61 ] r 1 1 [ 52 59 ]
r 1 2 s 66 67
r 1 1 67 r 1 2 62 64 r 1 1 64 r 1 2 67 67
r 1 2 67 r 1 1 67 r 1 2 66 r 1 1 64 r 1 2 64 64
r 1 2 64 59 62 64 62 r 3 2 64
r 3 1 s r 1 2 66 67
r 1 1 67 r 1 2 67 67 r 1 1 67 r 1 2 66 67
r 1 2 67 62 64 r 1 1 64 r 1 2 s 66 67
r 1 2 67 67 67 67 66 r 3 2 64
r 1 2 s 62 r 1 1 64 r 2 1 s
r 1 2 66 r 1 1 66 66 66 r 1 2 66
r 1 2 69 68 r 1 1 66 r 2 1 s
r 1 2 68 68 66 r 1 4 68 r 3 4 69 r 1 1 68 66
r 1 1 64 r 1 2 s r 2 1 66
r 3 2 64 r 2 1 66 r 1 2 s
r 2 1 s 66
r 3 2 64 r 1 2 68 r 2 1 64
r 2 1 s 66
r 1 2 s r 1 1 64 r 5 2 64
r 3 2 s r 1 2 59 64 64 64 59
r 1 2 62 64 r 2 1 64
r 5 2 s r 1 1 [ 52 59 ]
r 1 2 [ 52 59 ] 64 58 r 1 1 57 r 1 2 52 r 1 1 [ 52 59 ]
r 1 2 [ 52 59 ] 64 58 r 1 1 57 r 1 2 52 r 1 1 [ 52 59 ]
r 1 2 [ 52 59 ] 64 58 r 1 1 57 r 1 2 52 r 1 1 [ 55 62 ]
r 1 2 52 [ 54 61 ] 52 [ 54 61 ] [ 55 62 ] [ 54 61 ] r 1 1 [ 52 59 ]
r 1 2 [ 52 59 ] 64 58 r 1 1 57 r 1 2 52 r 1 1 [ 52 59 ]
r 1 2 [ 52 59 ] 64 58 r 1 1 57 r 1 2 52 r 1 1 [ 52 59 ]
r 1 2 [ 52 59 ] 64 58 r 1 1 57 r 1 2 52 r 1 1 [ 55 62 ]
r 1 2 52 [ 54 61 ] 52 [ 54 61 ] [ 55 62 ] [ 54 61 ] r 1 1 54
r 1 2 66 69 60 r 1 1 59 r 1 2 66 r 1 1 54
r 1 2 66 69 60 r 1 1 59 r 1 2 66 r 1 1 54
r 1 2 66 69 60 r 1 1 59 r 1 2 66 r 1 1 54
r 1 2 66 69 60 r 1 1 59 r 1 1 66
r 1 1 [ 54 61 ] r 1 2 61 60 r 3 2 [ 59 66 ]
r 3 2 [ 54 61 ] r 1 2 61 60 r 3 2 [ 59 66 ]
r 3 2 [ 54 61 ] r 1 2 61 60 r 3 2 [ 59 66 ]
r 9 2 [ 52 59 ]
r 1 1 [ 54 61 ] r 1 2 61 60 r 3 2 [ 59 66 ]
r 9 2 [ 52 59 ]
r 1 2 [ 52 59 ] r 7 2 s
r 4 1 s
r 4 1 s
r 4 1 s
r 7 2 s r 1 1 40
r 1 2 52 55 46 r 1 1 45 r 1 2 52 r 1 1 40
r 1 2 52 55 46 r 1 1 45 r 1 2 52 r 1 1 40
r 1 2 52 55 46 r 1 1 45 r 1 2 52 r 1 1 40
r 1 2 52 55 46 r 1 1 45 r 1 2 52 r 1 1 40
r 1 2 52 55 46 r 1 1 45 r 1 2 52 r 1 1 40
r 1 2 52 55 46 r 1 1 45 r 1 2 52 r 1 1 40
r 1 2 52 55 46 r 1 1 45 r 1 2 52 r 1 1 40
r 1 2 52 55 46 r 1 1 45 r 1 2 52 r 1 2 42
r 1 1 54 r 1 2 54 54 54 r 1 1 54 52
r 1 2 54 54 r 3 2 54 r 1 1 s
r 1 2 s 54 54 54 54 r 1 1 54 r 1 2 52
r 1 2 54 r 3 2 54 r 1 1 s s
r 1 2 s 66 66 66 r 1 1 66 r 1 2 66 r 1 1 64
r 1 1 66 r 3 2 66 r 1 1 s
r 1 1 s r 1 2 66 66 66 r 1 1 66 r 1 1 66
r 1 1 68 r 5 2 69

r 2 1 66
r 3 2 64 r 2 1 66 r 1 2 s
r 2 1 s 66
r 3 2 64 r 1 2 68 r 2 1 64
r 2 1 s 66
r 1 2 s r 1 1 64 r 5 2 64
r 2 1 s 66
r 3 2 64 r 2 1 66 r 1 2 s
r 2 1 s 66
r 3 2 64 r 1 2 68 r 2 1 64
r 2 1 s 66
r 1 2 s r 1 1 64 r 5 2 64
r 3 2 s r 1 2 59 64 64 64 59
r 1 2 62 64 r 2 1 64
r 5 2 s
r 1 1 [ 52 59 ]
r 1 2 [ 52 59 ] 64 58 r 1 1 57 r 1 2 52 r 1 1 [ 52 59 ]
r 1 2 [ 52 59 ] 64 58 r 1 1 57 r 1 2 52 r 1 1 [ 52 59 ]
r 1 2 [ 52 59 ] 64 58 r 1 1 57 r 1 2 52 r 1 1 [ 52 59 ]
r 1 2 [ 52 59 ] 64 58 r 1 1 57 r 1 2 52 r 1 1 [ 52 59 ]
r 1 2 [ 52 59 ] 64 58 r 1 1 57 r 1 2 52 r 1 1 [ 52 59 ]
r 1 2 [ 52 59 ] 64 58 r 1 1 57 r 1 2 52 r 1 1 [ 52 59 ]
r 1 2 [ 52 59 ] 64 58 r 1 1 57 r 1 2 52 r 1 1 [ 55 62 ]
r 1 2 52 [ 54 61 ] 52 [ 54 61 ] [ 55 62 ] [ 54 61 ]
r 1 1 52
r 1 2 52 55 46 r 1 1 45 r 1 2 52 r 1 1 40
r 1 2 52 55 46 r 1 1 45 r 1 2 52 r 1 1 40
r 1 2 52 55 46 r 1 1 45 r 1 2 52
r 1 2 50 52 52 52 47 50 52 r 1 1 52
r 2 1 66 r 1 2 s r 1 1 64 r 9 2 64
r 1 2 s
r 1 2 52 55 46 r 1 1 45 r 1 2 52
r 1 2 50 52 52 52 47 50 52 r 1 1 52
r 2 1 66 r 1 2 s r 1 1 64 r 9 2 64
r 7 2 59
r 1 2 50 52 52 52 47 50 52 r 1 1 52
r 1 2 s
r 1 2 52 55 46 r 1 1 45 r 1 2 52 r 1 1 40
r 1 2 52 55 46 r 1 1 45 r 1 2 52 r 1 1 40
r 1 2 52 55 46 r 1 1 45 r 1 2 52
r 1 2 50 52 52 52 47 50 52 r 1 1 52
r 1 2 s
r 1 2 52 55 46 r 1 1 45 r 1 2 52 r 1 1 40
r 1 2 52 55 46 r 1 1 45 r 1 2 52 r 1 1 40
r 1 2 52 55 46 r 1 1 45 r 1 2 52
r 1 2 50 52 52 52 47 50 52 r 1 1 52
r 1 2 s
r 1 2 52 55 46 r 1 1 45 r 1 2 52 r 1 1 40
r 1 2 52 55 46 r 1 1 45 r 1 2 52 r 1 1 40
r 1 2 52 55 46 r 1 1 45 r 1 2 52
r 1 2 50 52 52 52 47 50 52 r 1 1 52
r 1 2 s
c
o 48
r 4 1 s
r 4 1 s
r 4 1 s
r 4 1 s
r 7 2 s r 17 2 [ 52 55 59 64 ]
r 4 1 s
r 7 2 s r 17 2 [ 52 55 59 64 ]
r 4 1 s
r 7 2 s r 4 1 [ 52 59 ]
r 1 2 64
r 7 2 [ 52 59 ] r 1 2 64
r 7 2 [ 52 59 ] r 1 2 64
r 7 2 [ 52 59 ] r 1 2 64
r 7 2 [ 52 59 ] r 1 2 [ 53 60 ]
r 7 2 [ 52 59 ] r 1 2 [ 53 60 ]
r 7 2 [ 52 59 ] r 1 2 [ 53 60 ]
r 3 2 [ 52 59 ] r 2 1 [ 57 64 ] r 1 2 [ 53 60 ]
r 2 1 [ 52 59 ] r 3 2 57 r 1 2 [ 53 60 ]
r 2 1 [ 52 59 ] r 3 2 57 r 1 2 [ 53 60 ]
r 2 1 [ 52 59 ] r 3 2 57 r 1 2 [ 53 60 ]
r 2 1 [ 52 59 ] r 3 2 57 r 1 2 [ 53 60 ]
r 2 1 [ 52 59 ] r 3 2 57 r 1 2 [ 53 60 ]
r 2 1 [ 52 59 ] r 3 2 57 r 1 2 [ 53 60 ]
r 2 1 [ 52 59 ] r 3 2 57 r 1 2 [ 53 60 ]
r 2 1 [ 52 59 ] r 3 2 57 r 5 2 [ 52 59 ]
r 3 2 57
r 5 2 [ 52 59 ] r 3 2 57
r 5 2 [ 52 59 ] r 3 2 57
r 5 2 [ 55 62 ] r 3 2 [ 54 61 ]
r 5 2 [ 52 59 ] r 3 2 57
r 5 2 [ 52 59 ] r 3 2 57
r 5 2 [ 52 59 ] r 3 2 57
r 5 2 [ 55 62 ] r 3 2 [ 54 61 ]
r 4 1 [ 52 59 ] r 1 1 [ 53 60 ]
r 3 1 [ 52 59 ] r 1 1 [ 53 60 ]
r 3 1 [ 52 59 ]
r 5 2 [ 55 62 ] r 3 2 [ 54 61 ]
r 4 1 [ 52 59 ] r 1 1 [ 53 60 ]
r 3 1 [ 52 59 ] r 1 1 [ 53 60 ]
r 3 1 [ 52 59 ]
r 5 2 [ 55 62 ] r 3 2 [ 54 61 ]
r 5 2 [ 54 57 61 ] r 3 2 59
r 5 2 [ 54 57 61 ] r 3 2 59
r 5 2 [ 54 57 61 ] r 3 2 59
r 5 2 [ 54 57 61 ] r 3 2 59
r 5 2 [ 54 61 ] r 3 2 [ 59 66 ]
r 5 2 [ 54 61 ] r 3 2 [ 59 66 ]
r 5 2 [ 54 61 ] r 3 2 [ 59 66 ]
r 3 2 [ 52 59 ] r 1 2 55 52 57 52 59 56
r 2 1 [ 54 61 ] r 3 2 [ 59 66 ]
r 3 2 [ 52 59 ] r 1 2 55 52 57 52 59 56
r 2 1 [ 55 62 ] r 3 2 [ 54 61 ]
r 5 2 [ 52 59 ] r 3 2 57
r 5 2 [ 52 59 ] r 3 2 57
r 5 2 [ 52 59 ] r 3 2 57
r 5 2 [ 55 62 ] r 3 2 [ 54 61 ]
r 5 2 [ 52 59 ] r 3 2 57
r 5 2 [ 52 59 ] r 3 2 57
r 5 2 [ 52 59 ] r 3 2 57
r 5 2 [ 55 62 ] r 3 2 [ 54 61 ]
r 4 1 [ 52 59 ] r 1 1 [ 53 60 ]
r 3 1 [ 52 59 ] r 1 1 [ 53 60 ]
r 3 1 [ 52 59 ]
r 5 2 [ 55 62 ] r 3 2 [ 54 61 ]
r 4 1 [ 52 59 ] r 1 1 [ 53 60 ]
r 3 1 [ 52 59 ] r 1 1 [ 53 60 ]
r 3 1 [ 52 59 ]
r 5 2 [ 55 62 ] r 3 2 [ 54 61 ]
r 5 2 [ 54 57 61 ] r 3 2 59
r 5 2 [ 54 57 61 ] r 3 2 59
r 5 2 [ 54 57 61 ] r 3 2 59
r 5 2 [ 54 57 61 ] r 3 2 59
r 5 2 [ 54 61 ] r 3 2 [ 59 66 ]
r 5 2 [ 54 61 ] r 3 2 [ 59 66 ]
r 5 2 [ 54 61 ] r 3 2 [ 59 66 ]
r 3 2 [ 52 59 ] r 1 2 55 52 57 52 59 56
r 2 1 [ 54 61 ] r 3 2 [ 59 66 ]
r 3 2 [ 52 59 ] r 1 2 55 52 57 52 59 56
r 2 1 [ 55 62 ] r 3 2 [ 54 61 ]
r 4 1 [ 52 59 ]
r 5 2 [ 52 59 ] r 3 2 57
r 5 2 [ 52 59 ] r 3 2 57
r 5 2 [ 52 59 ] r 3 2 57
r 5 2 [ 55 62 ] r 3 2 [ 54 61 ]
r 5 2 [ 52 59 ] r 3 2 57
r 5 2 [ 52 59 ] r 3 2 57
r 5 2 [ 52 59 ] r 3 2 57
r 5 2 [ 55 62 ] r 3 2 [ 54 61 ]
r 5 2 [ 54 57 61 ] r 3 2 59
r 5 2 [ 54 57 61 ] r 3 2 59
r 5 2 [ 54 57 61 ] r 3 2 59
r 5 2 [ 54 57 61 ] r 3 2 59
r 5 2 [ 54 61 ] r 3 2 [ 59 66 ]
r 5 2 [ 54 61 ] r 3 2 [ 59 66 ]
r 5 2 [ 54 61 ] r 3 2 [ 59 66 ]
r 3 2 [ 52 59 ] r 1 2 55 52 57 52 59 56
r 2 1 [ 54 61 ] r 3 2 [ 59 66 ]
r 3 2 [ 52 59 ] r 1 2 55 52 57 52 59 56
r 1 2 [ 52 59 ] r 7 2 s
r 4 1 52
r 4 1 49
r 12 1 47
r 5 2 40 r 3 2 59
r 4 1 s
r 4 1 s
r 4 1 s
r 4 1 s
r 4 1 s
r 4 1 s
r 2 1 [ 54 57 61 ] r 3 2 59
r 5 2 [ 54 57 61 ] r 3 2 59
r 5 2 [ 54 57 61 ] r 3 2 59
r 5 2 [ 54 57 61 ] r 3 2 59
r 5 2 [ 54 57 61 ] r 3 2 59
r 5 2 [ 54 57 61 ] r 3 2 59
r 5 2 [ 54 57 61 ] r 3 2 59
r 5 2 [ 54 57 61 ] r 3 2 59
r 5 2 [ 54 61 ] r 3 2 [ 59 66 ]
r 5 2 [ 54 61 ] r 3 2 [ 59 66 ]
r 5 2 [ 54 61 ] r 3 2 [ 59 66 ]
r 3 2 [ 52 59 ] r 1 2 55 52 57 52 59 56
r 2 1 [ 54 61 ] r 3 2 [ 59 66 ]
r 9 2 [ 52 59 ]
r 2 1 [ 54 61 ] r 3 2 [ 59 66 ]
r 5 2 [ 54 61 ] r 3 2 [ 59 66 ]
r 5 2 [ 54 61 ] r 3 2 [ 59 66 ]
r 3 2 [ 52 59 ] r 1 2 55 52 57 52 59 56
r 2 1 [ 54 61 ] r 3 2 [ 59 66 ]
r 3 2 [ 52 59 ] r 1 2 55 52 57 52 59 56
r 1 1 [ 55 62 ] r 3 2 [ 54 61 ] r 1 1 [ 55 62 ]
r 4 1 [ 52 59 ]
r 5 2 [ 52 59 ] r 3 2 57
r 5 2 [ 52 59 ] r 3 2 57
r 5 2 [ 52 59 ] r 3 2 57
r 5 2 [ 52 59 ] r 3 2 57
r 5 2 [ 52 59 ] r 3 2 57
r 5 2 [ 52 59 ] r 3 2 57
r 5 2 [ 52 59 ] r 3 2 57
r 5 2 [ 55 62 ] r 3 2 [ 54 61 ]
r 3 2 [ 52 59 ] r 1 1 [ 55 64 ] r 3 2 57 r 1 2 [ 53 60 ]
r 1 1 [ 52 59 ] [ 55 64 ] r 3 2 57 r 1 2 [ 53 60 ]
r 1 1 [ 52 59 ] [ 55 64 ] r 3 2 57 r 1 2 [ 53 60 ]
r 1 1 [ 52 59 ] [ 55 64 ] r 3 2 57 r 1 2 [ 53 60 ]
r 1 1 [ 52 59 ] r 5 2 [ 55 64 ] r 1 2 [ 53 60 ]
r 1 1 [ 52 59 ] r 5 2 [ 55 64 ] r 1 2 [ 53 60 ]
r 1 1 [ 52 59 ] r 5 2 [ 55 64 ] r 1 2 [ 53 60 ]
r 1 1 [ 52 59 ] r 5 2 [ 55 64 ] r 1 2 [ 53 60 ]
r 1 1 [ 52 59 ] r 3 2 [ 55 64 ] [ 52 59 ]
r 1 1 [ 52 59 ] r 3 2 [ 55 64 ] [ 52 59 ]
r 1 1 [ 52 59 ] r 3 2 [ 55 64 ] [ 52 59 ]
r 1 1 [ 52 59 ] r 3 2 [ 55 64 ] [ 52 59 ]
r 1 1 [ 52 59 ] r 3 2 [ 55 64 ] [ 52 59 ]
r 1 1 [ 52 59 ] r 3 2 [ 55 64 ] [ 52 59 ]
r 1 1 [ 52 59 ] r 3 2 [ 55 64 ] [ 52 59 ]
r 1 1 [ 52 59 ] r 3 2 [ 55 64 ] [ 52 59 ]
r 1 1 [ 52 59 ] r 3 2 [ 55 64 ] [ 52 59 ]
r 1 1 [ 52 59 ] r 3 2 [ 55 64 ] [ 52 59 ]
r 1 1 [ 52 59 ] r 3 2 [ 55 64 ] [ 52 59 ]
r 1 1 [ 52 59 ] r 3 2 [ 55 64 ] [ 52 59 ]
r 1 1 [ 52 59 ] r 3 2 [ 55 64 ] [ 52 59 ]
r 1 1 [ 52 59 ] r 3 2 [ 55 64 ] [ 52 59 ]
