t 151
o 48
r 3 1 s r 1 1 57
r 3 4 69 r 3 4 67 r 1 2 65 r 1 1 69 r 1 2 s 69
r 3 4 69 r 3 4 72 r 1 2 74 r 1 1 69 s
r 3 4 62 r 3 4 62 r 1 2 64 r 1 1 65 62
r 5 4 s r 3 4 69 69 67 r 1 2 65
r 13 4 69 r 3 4 67
r 2 1 67 r 1 1 s 57
xAve
r 3 4 69 r 3 4 67 r 1 2 65 r 1 1 69 r 1 2 s 69
r 3 4 69 r 3 4 72 r 1 2 74 r 1 1 69 r 1 2 s 62
xllece
r 3 4 62 r 3 4 62 r 1 2 64 r 1 1 65 62
r 5 4 s r 3 4 69 69 r 1 2 69 r 3 4 70
r 9 4 72 r 1 1 70 r 3 4 67
r 3 1 67 r 1 1 s
r 4 1 s
r 3 2 s r 1 2 62 r 3 4 69 67 r 1 2 65
r 3 4 62 62 r 1 2 65
r 3 4 65 67 r 1 2 69
r 13 4 69 r 3 4 67
r 2 1 67 s
c
o 48
r 4 1 s
xDm
r 1 1 [ 50 53 57 ] [ 50 53 57 ] [ 50 53 57 ] [ 50 53 57 ]
r 1 1 [ 50 53 57 ] [ 50 53 57 ] [ 50 53 57 ] [ 50 53 57 ]
r 1 1 [ 50 53 57 ] [ 50 53 57 ] [ 50 53 57 ] [ 50 53 57 ]
r 1 1 [ 50 53 57 ] [ 50 53 57 ] [ 50 53 57 ] [ 50 53 57 ]
{ r 1 1 46 46 43 43
r 1 1 48 48 45 45 }
r 1 1 [ 46 50 53 ] [ 46 50 53 ] [ 43 46 50 ] [ 43 46 50 ]
r 1 1 [ 48 52 55 ] [ 48 52 55 ] [ 45 49 52 ] [ 45 49 52 ]
xAve
r 1 1 [ 50 53 57 ] [ 50 53 57 ] [ 50 53 57 ] [ 50 53 57 ]
r 1 1 [ 50 53 57 ] [ 50 53 57 ] [ 50 53 57 ] [ 50 53 57 ]
xllece
r 1 1 [ 50 53 57 ] [ 50 53 57 ] [ 50 53 57 ] [ 50 53 57 ]
r 1 1 [ 50 53 57 ] [ 50 53 57 ] [ 50 53 57 ] [ 50 53 57 ]
r 1 1 [ 46 50 53 ] [ 46 50 53 ] [ 43 46 50 ] [ 43 46 50 ]
r 1 1 [ 48 52 55 ] [ 48 52 55 ] [ 45 49 52 ] [ 45 49 52 ]
r 3 4 58 57 r 1 2 55 r 3 4 60 58 r 1 2 57
r 1 1 [ 50 53 57 ] [ 50 53 57 ] [ 50 53 57 ] [ 50 53 57 ]
r 1 1 [ 50 53 58 ] [ 50 53 58 ] [ 50 53 58 ] [ 50 53 58 ]
r 1 1 [ 50 53 57 ] [ 50 53 57 ] [ 50 53 57 ] [ 50 53 57 ]
r 3 4 58 57 r 1 2 55 r 3 4 60 58 r 1 2 57
