t 60
r 1 1 22 21 23 22
r 1 1 s 22 s 22
r 1 1 s 22 22 22
r 1 1 54 55 56 55
r 1 1 s 55 s 55
r 1 1 s 55 55 55
r 1 1 93 92 94 93
r 1 1 s 93 s 93
r 1 1 s 93 93 93
r 1 1 105 104 106 105
r 1 1 s 105 s 105
r 1 1 s 105 105 105
