t 150
c
o 40
r 4 1 s
r 3 1 s r 1 1 64
r 1 2 69 69 69 69 r 1 1 72 71
r 1 2 69 69 69 69 r 1 1 72 71
r 1 2 69 69 69 69 r 1 1 74 72
r 2 1 71 r 1 1 s 64
r 1 2 68 68 68 68 r 1 1 71 69
r 1 2 68 68 68 68 r 1 1 71 69
r 1 2 68 68 68 68 r 1 1 72 71
r 2 1 69 r 1 1 s 64
r 1 2 69 69 69 69 r 1 1 72 71
r 1 2 69 69 69 69 r 1 1 72 71
r 1 2 69 69 69 69 r 1 1 71 72
r 2 1 74 r 1 1 s 71
r 1 2 74 r 1 1 74 r 1 2 71 r 1 1 74 71
r 1 2 72 r 1 1 72 r 1 2 69 r 1 1 72 69
r 1 2 71 r 1 1 71 r 1 2 68 r 1 1 71 68
r 1 1 69 s s 71
r 1 2 74 r 1 1 74 r 1 2 71 r 1 1 74 71
r 1 2 72 r 1 1 72 r 1 2 69 r 1 1 72 69
r 1 2 71 r 1 1 71 r 1 2 68 r 1 1 71 68
r 1 1 69 r 1 2 s 72 r 1 1 72 71
r 2 1 69 s
c
C 9
r 2 1 34 33
r 2 1 34 33
r 2 1 34 33
r 2 1 34 33
r 2 1 34 33
r 2 1 34 33
r 2 1 34 33
r 2 1 34 33
r 2 1 34 33
r 2 1 34 33
r 2 1 34 33
r 2 1 34 33
r 2 1 34 33
r 2 1 34 33
r 2 1 34 33
r 2 1 34 33
r 2 1 34 33
r 2 1 34 33
r 2 1 34 33
r 2 1 34 33
r 2 1 34 33
r 2 1 34 33
r 2 1 34 33
