t 75
m 2 2
r 1 2 s r 3 4 59 r 1 4 59 r 1 2 57
x74
r 2 1 57
r 1 4 65 r 1 2 62 r 1 4 65 r 1 2 62 65
r 1 4 60 r 1 2 60 r 1 4 57 r 1 2 60 57
r 1 2 62 62 58 65
x78
r 2 1 57
r 1 2 53 53 53 55
m 3 2
r 1 2 55 r 1 4 55 55 55 r 1 2 55 r 1 4 55 r 1 2 55 55
m 2 2
r 2 1 50
m 2 2
r 1 2 s r 3 4 59 r 1 4 59 r 1 2 57
x74
r 2 1 57
r 1 4 65 r 1 2 62 r 1 4 65 r 1 2 62 65
r 1 4 60 r 1 2 60 r 1 4 57 r 1 2 60 57
r 1 2 62 62 58 65
x78
r 2 1 57
r 1 2 53 53 53 55
m 3 2
r 1 2 55 r 1 4 55 55 55 r 1 2 55 r 1 4 55 r 1 2 55 55
m 2 2
r 2 1 50
m 2 2
r 1 2 s r 3 4 59 r 1 4 59 r 1 2 57
x74
r 2 1 57
r 1 4 65 r 1 2 62 r 1 4 65 r 1 2 62 65
r 1 4 60 r 1 2 60 r 1 4 57 r 1 2 60 57
r 1 2 62 62 58 65
x78
r 2 1 57
r 1 2 53 53 53 55
m 3 2
r 1 2 55 r 1 4 55 55 55 r 1 2 55 r 1 4 55 r 1 2 55 55
m 2 2
r 2 1 50
m 2 2
r 1 2 s r 3 4 59 r 1 4 59 r 1 2 57
x74
r 2 1 57
r 1 4 65 r 1 2 62 r 1 4 65 r 1 2 62 65
r 1 4 60 r 1 2 60 r 1 4 57 r 1 2 60 57
r 1 2 62 62 58 65
x78
r 2 1 57
r 1 2 53 53 53 55
m 3 2
r 1 2 55 r 1 4 55 55 55 r 1 2 55 r 1 4 55 r 1 2 55 55
m 2 2
r 2 1 50
m 2 2
r 1 2 s r 3 4 59 r 1 4 59 r 1 2 57
x74
r 2 1 57
r 1 4 65 r 1 2 62 r 1 4 65 r 1 2 62 65
r 1 4 60 r 1 2 60 r 1 4 57 r 1 2 60 57
r 1 2 62 62 58 65
x78
r 2 1 57
r 1 2 53 53 53 55
m 3 2
r 1 2 55 r 1 4 55 55 55 r 1 2 55 r 1 4 55 r 1 2 55 55
m 2 2
r 2 1 50
m 2 2
r 1 2 s r 3 4 59 r 1 4 59 r 1 2 57
x74
r 2 1 57
r 1 4 65 r 1 2 62 r 1 4 65 r 1 2 62 65
r 1 4 60 r 1 2 60 r 1 4 57 r 1 2 60 57
r 1 2 62 62 58 65
x78
r 2 1 57
r 1 2 53 53 53 55
m 3 2
r 1 2 55 r 1 4 55 55 55 r 1 2 55 r 1 4 55 r 1 2 55 55
m 2 2
r 2 1 50
m 2 2
r 1 2 s r 3 4 59 r 1 4 59 r 1 2 57
x74
r 2 1 57
r 1 4 65 r 1 2 62 r 1 4 65 r 1 2 62 65
r 1 4 60 r 1 2 60 r 1 4 57 r 1 2 60 57
r 1 2 62 62 58 65
x78
r 2 1 57
r 1 2 53 53 53 55
m 3 2
r 1 2 55 r 1 4 55 55 55 r 1 2 55 r 1 4 55 r 1 2 55 55
m 2 2
r 2 1 50
m 2 2
r 1 2 s r 3 4 59 r 1 4 59 r 1 2 57
x74
r 2 1 57
r 1 4 65 r 1 2 62 r 1 4 65 r 1 2 62 65
r 1 4 60 r 1 2 60 r 1 4 57 r 1 2 60 57
r 1 2 62 62 58 65
x78
r 2 1 57
r 1 2 53 53 53 55
m 3 2
r 1 2 55 r 1 4 55 55 55 r 1 2 55 r 1 4 55 r 1 2 55 55
m 2 2
r 2 1 50
m 2 2
r 1 2 s r 3 4 59 r 1 4 59 r 1 2 57
x74
r 2 1 57
r 1 4 65 r 1 2 62 r 1 4 65 r 1 2 62 65
r 1 4 60 r 1 2 60 r 1 4 57 r 1 2 60 57
r 1 2 62 62 58 65
x78
r 2 1 57
r 1 2 53 53 53 55
m 3 2
r 1 2 55 r 1 4 55 55 55 r 1 2 55 r 1 4 55 r 1 2 55 55
m 2 2
r 2 1 50
m 2 2
r 1 2 s r 3 4 59 r 1 4 59 r 1 2 57
x74
r 2 1 57
r 1 4 65 r 1 2 62 r 1 4 65 r 1 2 62 65
r 1 4 60 r 1 2 60 r 1 4 57 r 1 2 60 57
r 1 2 62 62 58 65
x78
r 2 1 57
r 1 2 53 53 53 55
m 3 2
r 1 2 55 r 1 4 55 55 55 r 1 2 55 r 1 4 55 r 1 2 55 55
m 2 2
r 2 1 50
m 2 2
r 1 2 s r 3 4 59 r 1 4 59 r 1 2 57
x74
r 2 1 57
r 1 4 65 r 1 2 62 r 1 4 65 r 1 2 62 65
r 1 4 60 r 1 2 60 r 1 4 57 r 1 2 60 57
r 1 2 62 62 58 65
x78
r 2 1 57
r 1 2 53 53 53 55
m 3 2
r 1 2 55 r 1 4 55 55 55 r 1 2 55 r 1 4 55 r 1 2 55 55
m 2 2
r 2 1 50
m 2 2
r 1 2 s r 3 4 59 r 1 4 59 r 1 2 57
x74
r 2 1 57
r 1 4 65 r 1 2 62 r 1 4 65 r 1 2 62 65
r 1 4 60 r 1 2 60 r 1 4 57 r 1 2 60 57
r 1 2 62 62 58 65
x78
r 2 1 57
r 1 2 53 53 53 55
m 3 2
r 1 2 55 r 1 4 55 55 55 r 1 2 55 r 1 4 55 r 1 2 55 55
m 2 2
r 2 1 50
m 2 2
r 1 2 s r 3 4 59 r 1 4 59 r 1 2 57
x74
r 2 1 57
r 1 4 65 r 1 2 62 r 1 4 65 r 1 2 62 65
r 1 4 60 r 1 2 60 r 1 4 57 r 1 2 60 57
r 1 2 62 62 58 65
x78
r 2 1 57
r 1 2 53 53 53 55
m 3 2
r 1 2 55 r 1 4 55 55 55 r 1 2 55 r 1 4 55 r 1 2 55 55
m 2 2
r 2 1 50
m 2 2
r 1 2 s r 3 4 59 r 1 4 59 r 1 2 57
x74
r 2 1 57
r 1 4 65 r 1 2 62 r 1 4 65 r 1 2 62 65
r 1 4 60 r 1 2 60 r 1 4 57 r 1 2 60 57
r 1 2 62 62 58 65
x78
r 2 1 57
r 1 2 53 53 53 55
m 3 2
r 1 2 55 r 1 4 55 55 55 r 1 2 55 r 1 4 55 r 1 2 55 55
m 2 2
r 2 1 50
m 2 2
r 1 2 s r 3 4 59 r 1 4 59 r 1 2 57
x74
r 2 1 57
r 1 4 65 r 1 2 62 r 1 4 65 r 1 2 62 65
r 1 4 60 r 1 2 60 r 1 4 57 r 1 2 60 57
r 1 2 62 62 58 65
x78
r 2 1 57
r 1 2 53 53 53 55
m 3 2
r 1 2 55 r 1 4 55 55 55 r 1 2 55 r 1 4 55 r 1 2 55 55
m 2 2
r 2 1 50
m 2 2
r 1 2 s r 3 4 59 r 1 4 59 r 1 2 57
x74
r 2 1 57
r 1 4 65 r 1 2 62 r 1 4 65 r 1 2 62 65
r 1 4 60 r 1 2 60 r 1 4 57 r 1 2 60 57
r 1 2 62 62 58 65
x78
r 2 1 57
r 1 2 53 53 53 55
m 3 2
r 1 2 55 r 1 4 55 55 55 r 1 2 55 r 1 4 55 r 1 2 55 55
m 2 2
r 2 1 50
m 2 2
r 1 2 s r 3 4 59 r 1 4 59 r 1 2 57
x74
r 2 1 57
r 1 4 65 r 1 2 62 r 1 4 65 r 1 2 62 65
r 1 4 60 r 1 2 60 r 1 4 57 r 1 2 60 57
r 1 2 62 62 58 65
x78
r 2 1 57
r 1 2 53 53 53 55
m 3 2
r 1 2 55 r 1 4 55 55 55 r 1 2 55 r 1 4 55 r 1 2 55 55
m 2 2
r 2 1 50
m 2 2
r 1 2 s r 3 4 59 r 1 4 59 r 1 2 57
x74
r 2 1 57
r 1 4 65 r 1 2 62 r 1 4 65 r 1 2 62 65
r 1 4 60 r 1 2 60 r 1 4 57 r 1 2 60 57
r 1 2 62 62 58 65
x78
r 2 1 57
r 1 2 53 53 53 55
m 3 2
r 1 2 55 r 1 4 55 55 55 r 1 2 55 r 1 4 55 r 1 2 55 55
m 2 2
r 2 1 50
m 2 2
r 1 2 s r 3 4 59 r 1 4 59 r 1 2 57
x74
r 2 1 57
r 1 4 65 r 1 2 62 r 1 4 65 r 1 2 62 65
r 1 4 60 r 1 2 60 r 1 4 57 r 1 2 60 57
r 1 2 62 62 58 65
x78
r 2 1 57
r 1 2 53 53 53 55
m 3 2
r 1 2 55 r 1 4 55 55 55 r 1 2 55 r 1 4 55 r 1 2 55 55
m 2 2
r 2 1 50
m 2 2
r 1 2 s r 3 4 59 r 1 4 59 r 1 2 57
x74
r 2 1 57
r 1 4 65 r 1 2 62 r 1 4 65 r 1 2 62 65
r 1 4 60 r 1 2 60 r 1 4 57 r 1 2 60 57
r 1 2 62 62 58 65
x78
r 2 1 57
r 1 2 53 53 53 55
m 3 2
r 1 2 55 r 1 4 55 55 55 r 1 2 55 r 1 4 55 r 1 2 55 55
m 2 2
r 2 1 50
m 2 2
r 1 2 s r 3 4 59 r 1 4 59 r 1 2 57
x74
r 2 1 57
r 1 4 65 r 1 2 62 r 1 4 65 r 1 2 62 65
r 1 4 60 r 1 2 60 r 1 4 57 r 1 2 60 57
r 1 2 62 62 58 65
x78
r 2 1 57
r 1 2 53 53 53 55
m 3 2
r 1 2 55 r 1 4 55 55 55 r 1 2 55 r 1 4 55 r 1 2 55 55
m 2 2
r 2 1 50
m 2 2
r 1 2 s r 3 4 59 r 1 4 59 r 1 2 57
x74
r 2 1 57
r 1 4 65 r 1 2 62 r 1 4 65 r 1 2 62 65
r 1 4 60 r 1 2 60 r 1 4 57 r 1 2 60 57
r 1 2 62 62 58 65
x78
r 2 1 57
r 1 2 53 53 53 55
m 3 2
r 1 2 55 r 1 4 55 55 55 r 1 2 55 r 1 4 55 r 1 2 55 55
m 2 2
r 2 1 50
m 2 2
r 1 2 s r 3 4 59 r 1 4 59 r 1 2 57
x74
r 2 1 57
r 1 4 65 r 1 2 62 r 1 4 65 r 1 2 62 65
r 1 4 60 r 1 2 60 r 1 4 57 r 1 2 60 57
r 1 2 62 62 58 65
x78
r 2 1 57
r 1 2 53 53 53 55
m 3 2
r 1 2 55 r 1 4 55 55 55 r 1 2 55 r 1 4 55 r 1 2 55 55
m 2 2
r 2 1 50
m 2 2
r 1 2 s r 3 4 59 r 1 4 59 r 1 2 57
x74
r 2 1 57
r 1 4 65 r 1 2 62 r 1 4 65 r 1 2 62 65
r 1 4 60 r 1 2 60 r 1 4 57 r 1 2 60 57
r 1 2 62 62 58 65
x78
r 2 1 57
r 1 2 53 53 53 55
m 3 2
r 1 2 55 r 1 4 55 55 55 r 1 2 55 r 1 4 55 r 1 2 55 55
m 2 2
r 2 1 50
m 2 2
r 1 2 s r 3 4 59 r 1 4 59 r 1 2 57
x74
r 2 1 57
r 1 4 65 r 1 2 62 r 1 4 65 r 1 2 62 65
r 1 4 60 r 1 2 60 r 1 4 57 r 1 2 60 57
r 1 2 62 62 58 65
x78
r 2 1 57
r 1 2 53 53 53 55
m 3 2
r 1 2 55 r 1 4 55 55 55 r 1 2 55 r 1 4 55 r 1 2 55 55
m 2 2
r 2 1 50
m 2 2
r 1 2 s r 3 4 59 r 1 4 59 r 1 2 57
x74
r 2 1 57
r 1 4 65 r 1 2 62 r 1 4 65 r 1 2 62 65
r 1 4 60 r 1 2 60 r 1 4 57 r 1 2 60 57
r 1 2 62 62 58 65
x78
r 2 1 57
r 1 2 53 53 53 55
m 3 2
r 1 2 55 r 1 4 55 55 55 r 1 2 55 r 1 4 55 r 1 2 55 55
m 2 2
r 2 1 50
m 2 2
r 1 2 s r 3 4 59 r 1 4 59 r 1 2 57
x74
r 2 1 57
r 1 4 65 r 1 2 62 r 1 4 65 r 1 2 62 65
r 1 4 60 r 1 2 60 r 1 4 57 r 1 2 60 57
r 1 2 62 62 58 65
x78
r 2 1 57
r 1 2 53 53 53 55
m 3 2
r 1 2 55 r 1 4 55 55 55 r 1 2 55 r 1 4 55 r 1 2 55 55
m 2 2
r 2 1 50
m 2 2
r 1 2 s r 3 4 59 r 1 4 59 r 1 2 57
x74
r 2 1 57
r 1 4 65 r 1 2 62 r 1 4 65 r 1 2 62 65
r 1 4 60 r 1 2 60 r 1 4 57 r 1 2 60 57
r 1 2 62 62 58 65
x78
r 2 1 57
r 1 2 53 53 53 55
m 3 2
r 1 2 55 r 1 4 55 55 55 r 1 2 55 r 1 4 55 r 1 2 55 55
m 2 2
r 2 1 50
m 2 2
r 1 2 s r 3 4 59 r 1 4 59 r 1 2 57
x74
r 2 1 57
r 1 4 65 r 1 2 62 r 1 4 65 r 1 2 62 65
r 1 4 60 r 1 2 60 r 1 4 57 r 1 2 60 57
r 1 2 62 62 58 65
x78
r 2 1 57
r 1 2 53 53 53 55
m 3 2
r 1 2 55 r 1 4 55 55 55 r 1 2 55 r 1 4 55 r 1 2 55 55
m 2 2
r 2 1 50
m 2 2
r 1 2 s r 3 4 59 r 1 4 59 r 1 2 57
x74
r 2 1 57
r 1 4 65 r 1 2 62 r 1 4 65 r 1 2 62 65
r 1 4 60 r 1 2 60 r 1 4 57 r 1 2 60 57
r 1 2 62 62 58 65
x78
r 2 1 57
r 1 2 53 53 53 55
m 3 2
r 1 2 55 r 1 4 55 55 55 r 1 2 55 r 1 4 55 r 1 2 55 55
m 2 2
r 2 1 50
m 2 2
r 1 2 s r 3 4 59 r 1 4 59 r 1 2 57
x74
r 2 1 57
r 1 4 65 r 1 2 62 r 1 4 65 r 1 2 62 65
r 1 4 60 r 1 2 60 r 1 4 57 r 1 2 60 57
r 1 2 62 62 58 65
x78
r 2 1 57
r 1 2 53 53 53 55
m 3 2
r 1 2 55 r 1 4 55 55 55 r 1 2 55 r 1 4 55 r 1 2 55 55
m 2 2
r 2 1 50
m 2 2
r 1 2 s r 3 4 59 r 1 4 59 r 1 2 57
x74
r 2 1 57
r 1 4 65 r 1 2 62 r 1 4 65 r 1 2 62 65
r 1 4 60 r 1 2 60 r 1 4 57 r 1 2 60 57
r 1 2 62 62 58 65
x78
r 2 1 57
r 1 2 53 53 53 55
m 3 2
r 1 2 55 r 1 4 55 55 55 r 1 2 55 r 1 4 55 r 1 2 55 55
m 2 2
r 2 1 50
m 2 2
r 1 2 s r 3 4 59 r 1 4 59 r 1 2 57
x74
r 2 1 57
r 1 4 65 r 1 2 62 r 1 4 65 r 1 2 62 65
r 1 4 60 r 1 2 60 r 1 4 57 r 1 2 60 57
r 1 2 62 62 58 65
x78
r 2 1 57
r 1 2 53 53 53 55
m 3 2
r 1 2 55 r 1 4 55 55 55 r 1 2 55 r 1 4 55 r 1 2 55 55
m 2 2
r 2 1 50
m 2 2
r 1 2 s r 3 4 59 r 1 4 59 r 1 2 57
x74
r 2 1 57
r 1 4 65 r 1 2 62 r 1 4 65 r 1 2 62 65
r 1 4 60 r 1 2 60 r 1 4 57 r 1 2 60 57
r 1 2 62 62 58 65
x78
r 2 1 57
r 1 2 53 53 53 55
m 3 2
r 1 2 55 r 1 4 55 55 55 r 1 2 55 r 1 4 55 r 1 2 55 55
m 2 2
r 2 1 50
m 2 2
r 1 2 s r 3 4 59 r 1 4 59 r 1 2 57
x74
r 2 1 57
r 1 4 65 r 1 2 62 r 1 4 65 r 1 2 62 65
r 1 4 60 r 1 2 60 r 1 4 57 r 1 2 60 57
r 1 2 62 62 58 65
x78
r 2 1 57
r 1 2 53 53 53 55
m 3 2
r 1 2 55 r 1 4 55 55 55 r 1 2 55 r 1 4 55 r 1 2 55 55
m 2 2
r 2 1 50
m 2 2
r 1 2 s r 3 4 59 r 1 4 59 r 1 2 57
x74
r 2 1 57
r 1 4 65 r 1 2 62 r 1 4 65 r 1 2 62 65
r 1 4 60 r 1 2 60 r 1 4 57 r 1 2 60 57
r 1 2 62 62 58 65
x78
r 2 1 57
r 1 2 53 53 53 55
m 3 2
r 1 2 55 r 1 4 55 55 55 r 1 2 55 r 1 4 55 r 1 2 55 55
m 2 2
r 2 1 50
m 2 2
r 1 2 s r 3 4 59 r 1 4 59 r 1 2 57
x74
r 2 1 57
r 1 4 65 r 1 2 62 r 1 4 65 r 1 2 62 65
r 1 4 60 r 1 2 60 r 1 4 57 r 1 2 60 57
r 1 2 62 62 58 65
x78
r 2 1 57
r 1 2 53 53 53 55
m 3 2
r 1 2 55 r 1 4 55 55 55 r 1 2 55 r 1 4 55 r 1 2 55 55
m 2 2
r 2 1 50
m 2 2
r 1 2 s r 3 4 59 r 1 4 59 r 1 2 57
x74
r 2 1 57
r 1 4 65 r 1 2 62 r 1 4 65 r 1 2 62 65
r 1 4 60 r 1 2 60 r 1 4 57 r 1 2 60 57
r 1 2 62 62 58 65
x78
r 2 1 57
r 1 2 53 53 53 55
m 3 2
r 1 2 55 r 1 4 55 55 55 r 1 2 55 r 1 4 55 r 1 2 55 55
m 2 2
r 2 1 50
m 2 2
r 1 2 s r 3 4 59 r 1 4 59 r 1 2 57
x74
r 2 1 57
r 1 4 65 r 1 2 62 r 1 4 65 r 1 2 62 65
r 1 4 60 r 1 2 60 r 1 4 57 r 1 2 60 57
r 1 2 62 62 58 65
x78
r 2 1 57
r 1 2 53 53 53 55
m 3 2
r 1 2 55 r 1 4 55 55 55 r 1 2 55 r 1 4 55 r 1 2 55 55
m 2 2
r 2 1 50
m 2 2
r 1 2 s r 3 4 59 r 1 4 59 r 1 2 57
x74
r 2 1 57
r 1 4 65 r 1 2 62 r 1 4 65 r 1 2 62 65
r 1 4 60 r 1 2 60 r 1 4 57 r 1 2 60 57
r 1 2 62 62 58 65
x78
r 2 1 57
r 1 2 53 53 53 55
m 3 2
r 1 2 55 r 1 4 55 55 55 r 1 2 55 r 1 4 55 r 1 2 55 55
m 2 2
r 2 1 50
m 2 2
r 1 2 s r 3 4 59 r 1 4 59 r 1 2 57
x74
r 2 1 57
r 1 4 65 r 1 2 62 r 1 4 65 r 1 2 62 65
r 1 4 60 r 1 2 60 r 1 4 57 r 1 2 60 57
r 1 2 62 62 58 65
x78
r 2 1 57
r 1 2 53 53 53 55
m 3 2
r 1 2 55 r 1 4 55 55 55 r 1 2 55 r 1 4 55 r 1 2 55 55
m 2 2
r 2 1 50
m 2 2
r 1 2 s r 3 4 59 r 1 4 59 r 1 2 57
x74
r 2 1 57
r 1 4 65 r 1 2 62 r 1 4 65 r 1 2 62 65
r 1 4 60 r 1 2 60 r 1 4 57 r 1 2 60 57
r 1 2 62 62 58 65
x78
r 2 1 57
r 1 2 53 53 53 55
m 3 2
r 1 2 55 r 1 4 55 55 55 r 1 2 55 r 1 4 55 r 1 2 55 55
m 2 2
r 2 1 50
m 2 2
r 1 2 s r 3 4 59 r 1 4 59 r 1 2 57
x74
r 2 1 57
r 1 4 65 r 1 2 62 r 1 4 65 r 1 2 62 65
r 1 4 60 r 1 2 60 r 1 4 57 r 1 2 60 57
r 1 2 62 62 58 65
x78
r 2 1 57
r 1 2 53 53 53 55
m 3 2
r 1 2 55 r 1 4 55 55 55 r 1 2 55 r 1 4 55 r 1 2 55 55
m 2 2
r 2 1 50
m 2 2
r 1 2 s r 3 4 59 r 1 4 59 r 1 2 57
x74
r 2 1 57
r 1 4 65 r 1 2 62 r 1 4 65 r 1 2 62 65
r 1 4 60 r 1 2 60 r 1 4 57 r 1 2 60 57
r 1 2 62 62 58 65
x78
r 2 1 57
r 1 2 53 53 53 55
m 3 2
r 1 2 55 r 1 4 55 55 55 r 1 2 55 r 1 4 55 r 1 2 55 55
m 2 2
r 2 1 50
m 2 2
r 1 2 s r 3 4 59 r 1 4 59 r 1 2 57
x74
r 2 1 57
r 1 4 65 r 1 2 62 r 1 4 65 r 1 2 62 65
r 1 4 60 r 1 2 60 r 1 4 57 r 1 2 60 57
r 1 2 62 62 58 65
x78
r 2 1 57
r 1 2 53 53 53 55
m 3 2
r 1 2 55 r 1 4 55 55 55 r 1 2 55 r 1 4 55 r 1 2 55 55
m 2 2
r 2 1 50
m 2 2
r 1 2 s r 3 4 59 r 1 4 59 r 1 2 57
x74
r 2 1 57
r 1 4 65 r 1 2 62 r 1 4 65 r 1 2 62 65
r 1 4 60 r 1 2 60 r 1 4 57 r 1 2 60 57
r 1 2 62 62 58 65
x78
r 2 1 57
r 1 2 53 53 53 55
m 3 2
r 1 2 55 r 1 4 55 55 55 r 1 2 55 r 1 4 55 r 1 2 55 55
m 2 2
r 2 1 50
m 2 2
r 1 2 s r 3 4 59 r 1 4 59 r 1 2 57
x74
r 2 1 57
r 1 4 65 r 1 2 62 r 1 4 65 r 1 2 62 65
r 1 4 60 r 1 2 60 r 1 4 57 r 1 2 60 57
r 1 2 62 62 58 65
x78
r 2 1 57
r 1 2 53 53 53 55
m 3 2
r 1 2 55 r 1 4 55 55 55 r 1 2 55 r 1 4 55 r 1 2 55 55
m 2 2
r 2 1 50
m 2 2
r 1 2 s r 3 4 59 r 1 4 59 r 1 2 57
x74
r 2 1 57
r 1 4 65 r 1 2 62 r 1 4 65 r 1 2 62 65
r 1 4 60 r 1 2 60 r 1 4 57 r 1 2 60 57
r 1 2 62 62 58 65
x78
r 2 1 57
r 1 2 53 53 53 55
m 3 2
r 1 2 55 r 1 4 55 55 55 r 1 2 55 r 1 4 55 r 1 2 55 55
m 2 2
r 2 1 50
m 2 2
r 1 2 s r 3 4 59 r 1 4 59 r 1 2 57
x74
r 2 1 57
r 1 4 65 r 1 2 62 r 1 4 65 r 1 2 62 65
r 1 4 60 r 1 2 60 r 1 4 57 r 1 2 60 57
r 1 2 62 62 58 65
x78
r 2 1 57
r 1 2 53 53 53 55
m 3 2
r 1 2 55 r 1 4 55 55 55 r 1 2 55 r 1 4 55 r 1 2 55 55
m 2 2
r 2 1 50
m 2 2
r 1 2 s r 3 4 59 r 1 4 59 r 1 2 57
x74
r 2 1 57
r 1 4 65 r 1 2 62 r 1 4 65 r 1 2 62 65
r 1 4 60 r 1 2 60 r 1 4 57 r 1 2 60 57
r 1 2 62 62 58 65
x78
r 2 1 57
r 1 2 53 53 53 55
m 3 2
r 1 2 55 r 1 4 55 55 55 r 1 2 55 r 1 4 55 r 1 2 55 55
m 2 2
r 2 1 50
m 2 2
r 1 2 s r 3 4 59 r 1 4 59 r 1 2 57
x74
r 2 1 57
r 1 4 65 r 1 2 62 r 1 4 65 r 1 2 62 65
r 1 4 60 r 1 2 60 r 1 4 57 r 1 2 60 57
r 1 2 62 62 58 65
x78
r 2 1 57
r 1 2 53 53 53 55
m 3 2
r 1 2 55 r 1 4 55 55 55 r 1 2 55 r 1 4 55 r 1 2 55 55
m 2 2
r 2 1 50
m 2 2
r 1 2 s r 3 4 59 r 1 4 59 r 1 2 57
x74
r 2 1 57
r 1 4 65 r 1 2 62 r 1 4 65 r 1 2 62 65
r 1 4 60 r 1 2 60 r 1 4 57 r 1 2 60 57
r 1 2 62 62 58 65
x78
r 2 1 57
r 1 2 53 53 53 55
m 3 2
r 1 2 55 r 1 4 55 55 55 r 1 2 55 r 1 4 55 r 1 2 55 55
m 2 2
r 2 1 50
m 2 2
r 1 2 s r 3 4 59 r 1 4 59 r 1 2 57
x74
r 2 1 57
r 1 4 65 r 1 2 62 r 1 4 65 r 1 2 62 65
r 1 4 60 r 1 2 60 r 1 4 57 r 1 2 60 57
r 1 2 62 62 58 65
x78
r 2 1 57
r 1 2 53 53 53 55
m 3 2
r 1 2 55 r 1 4 55 55 55 r 1 2 55 r 1 4 55 r 1 2 55 55
m 2 2
r 2 1 50
m 2 2
r 1 2 s r 3 4 59 r 1 4 59 r 1 2 57
x74
r 2 1 57
r 1 4 65 r 1 2 62 r 1 4 65 r 1 2 62 65
r 1 4 60 r 1 2 60 r 1 4 57 r 1 2 60 57
r 1 2 62 62 58 65
x78
r 2 1 57
r 1 2 53 53 53 55
m 3 2
r 1 2 55 r 1 4 55 55 55 r 1 2 55 r 1 4 55 r 1 2 55 55
m 2 2
r 2 1 50
m 2 2
r 1 2 s r 3 4 59 r 1 4 59 r 1 2 57
x74
r 2 1 57
r 1 4 65 r 1 2 62 r 1 4 65 r 1 2 62 65
r 1 4 60 r 1 2 60 r 1 4 57 r 1 2 60 57
r 1 2 62 62 58 65
x78
r 2 1 57
r 1 2 53 53 53 55
m 3 2
r 1 2 55 r 1 4 55 55 55 r 1 2 55 r 1 4 55 r 1 2 55 55
m 2 2
r 2 1 50
m 2 2
r 1 2 s r 3 4 59 r 1 4 59 r 1 2 57
x74
r 2 1 57
r 1 4 65 r 1 2 62 r 1 4 65 r 1 2 62 65
r 1 4 60 r 1 2 60 r 1 4 57 r 1 2 60 57
r 1 2 62 62 58 65
x78
r 2 1 57
r 1 2 53 53 53 55
m 3 2
r 1 2 55 r 1 4 55 55 55 r 1 2 55 r 1 4 55 r 1 2 55 55
m 2 2
r 2 1 50
m 2 2
r 1 2 s r 3 4 59 r 1 4 59 r 1 2 57
x74
r 2 1 57
r 1 4 65 r 1 2 62 r 1 4 65 r 1 2 62 65
r 1 4 60 r 1 2 60 r 1 4 57 r 1 2 60 57
r 1 2 62 62 58 65
x78
r 2 1 57
r 1 2 53 53 53 55
m 3 2
r 1 2 55 r 1 4 55 55 55 r 1 2 55 r 1 4 55 r 1 2 55 55
m 2 2
r 2 1 50
m 2 2
r 1 2 s r 3 4 59 r 1 4 59 r 1 2 57
x74
r 2 1 57
r 1 4 65 r 1 2 62 r 1 4 65 r 1 2 62 65
r 1 4 60 r 1 2 60 r 1 4 57 r 1 2 60 57
r 1 2 62 62 58 65
x78
r 2 1 57
r 1 2 53 53 53 55
m 3 2
r 1 2 55 r 1 4 55 55 55 r 1 2 55 r 1 4 55 r 1 2 55 55
m 2 2
r 2 1 50
m 2 2
r 1 2 s r 3 4 59 r 1 4 59 r 1 2 57
x74
r 2 1 57
r 1 4 65 r 1 2 62 r 1 4 65 r 1 2 62 65
r 1 4 60 r 1 2 60 r 1 4 57 r 1 2 60 57
r 1 2 62 62 58 65
x78
r 2 1 57
r 1 2 53 53 53 55
m 3 2
r 1 2 55 r 1 4 55 55 55 r 1 2 55 r 1 4 55 r 1 2 55 55
m 2 2
r 2 1 50
m 2 2
r 1 2 s r 3 4 59 r 1 4 59 r 1 2 57
x74
r 2 1 57
r 1 4 65 r 1 2 62 r 1 4 65 r 1 2 62 65
r 1 4 60 r 1 2 60 r 1 4 57 r 1 2 60 57
r 1 2 62 62 58 65
x78
r 2 1 57
r 1 2 53 53 53 55
m 3 2
r 1 2 55 r 1 4 55 55 55 r 1 2 55 r 1 4 55 r 1 2 55 55
m 2 2
r 2 1 50
m 2 2
r 1 2 s r 3 4 59 r 1 4 59 r 1 2 57
x74
r 2 1 57
r 1 4 65 r 1 2 62 r 1 4 65 r 1 2 62 65
r 1 4 60 r 1 2 60 r 1 4 57 r 1 2 60 57
r 1 2 62 62 58 65
x78
r 2 1 57
r 1 2 53 53 53 55
m 3 2
r 1 2 55 r 1 4 55 55 55 r 1 2 55 r 1 4 55 r 1 2 55 55
m 2 2
r 2 1 50
m 2 2
r 1 2 s r 3 4 59 r 1 4 59 r 1 2 57
x74
r 2 1 57
r 1 4 65 r 1 2 62 r 1 4 65 r 1 2 62 65
r 1 4 60 r 1 2 60 r 1 4 57 r 1 2 60 57
r 1 2 62 62 58 65
x78
r 2 1 57
r 1 2 53 53 53 55
m 3 2
r 1 2 55 r 1 4 55 55 55 r 1 2 55 r 1 4 55 r 1 2 55 55
m 2 2
r 2 1 50
m 2 2
r 1 2 s r 3 4 59 r 1 4 59 r 1 2 57
x74
r 2 1 57
r 1 4 65 r 1 2 62 r 1 4 65 r 1 2 62 65
r 1 4 60 r 1 2 60 r 1 4 57 r 1 2 60 57
r 1 2 62 62 58 65
x78
r 2 1 57
r 1 2 53 53 53 55
m 3 2
r 1 2 55 r 1 4 55 55 55 r 1 2 55 r 1 4 55 r 1 2 55 55
m 2 2
r 2 1 50
m 2 2
r 1 2 s r 3 4 59 r 1 4 59 r 1 2 57
x74
r 2 1 57
r 1 4 65 r 1 2 62 r 1 4 65 r 1 2 62 65
r 1 4 60 r 1 2 60 r 1 4 57 r 1 2 60 57
r 1 2 62 62 58 65
x78
r 2 1 57
r 1 2 53 53 53 55
m 3 2
r 1 2 55 r 1 4 55 55 55 r 1 2 55 r 1 4 55 r 1 2 55 55
m 2 2
r 2 1 50
m 2 2
r 1 2 s r 3 4 59 r 1 4 59 r 1 2 57
x74
r 2 1 57
r 1 4 65 r 1 2 62 r 1 4 65 r 1 2 62 65
r 1 4 60 r 1 2 60 r 1 4 57 r 1 2 60 57
r 1 2 62 62 58 65
x78
r 2 1 57
r 1 2 53 53 53 55
m 3 2
r 1 2 55 r 1 4 55 55 55 r 1 2 55 r 1 4 55 r 1 2 55 55
m 2 2
r 2 1 50
m 2 2
r 1 2 s r 3 4 59 r 1 4 59 r 1 2 57
x74
r 2 1 57
r 1 4 65 r 1 2 62 r 1 4 65 r 1 2 62 65
r 1 4 60 r 1 2 60 r 1 4 57 r 1 2 60 57
r 1 2 62 62 58 65
x78
r 2 1 57
r 1 2 53 53 53 55
m 3 2
r 1 2 55 r 1 4 55 55 55 r 1 2 55 r 1 4 55 r 1 2 55 55
m 2 2
r 2 1 50
m 2 2
r 1 2 s r 3 4 59 r 1 4 59 r 1 2 57
x74
r 2 1 57
r 1 4 65 r 1 2 62 r 1 4 65 r 1 2 62 65
r 1 4 60 r 1 2 60 r 1 4 57 r 1 2 60 57
r 1 2 62 62 58 65
x78
r 2 1 57
r 1 2 53 53 53 55
m 3 2
r 1 2 55 r 1 4 55 55 55 r 1 2 55 r 1 4 55 r 1 2 55 55
m 2 2
r 2 1 50
m 2 2
r 1 2 s r 3 4 59 r 1 4 59 r 1 2 57
x74
r 2 1 57
r 1 4 65 r 1 2 62 r 1 4 65 r 1 2 62 65
r 1 4 60 r 1 2 60 r 1 4 57 r 1 2 60 57
r 1 2 62 62 58 65
x78
r 2 1 57
r 1 2 53 53 53 55
m 3 2
r 1 2 55 r 1 4 55 55 55 r 1 2 55 r 1 4 55 r 1 2 55 55
m 2 2
r 2 1 50
m 2 2
r 1 2 s r 3 4 59 r 1 4 59 r 1 2 57
x74
r 2 1 57
r 1 4 65 r 1 2 62 r 1 4 65 r 1 2 62 65
r 1 4 60 r 1 2 60 r 1 4 57 r 1 2 60 57
r 1 2 62 62 58 65
x78
r 2 1 57
r 1 2 53 53 53 55
m 3 2
r 1 2 55 r 1 4 55 55 55 r 1 2 55 r 1 4 55 r 1 2 55 55
m 2 2
r 2 1 50
m 2 2
r 1 2 s r 3 4 59 r 1 4 59 r 1 2 57
x74
r 2 1 57
r 1 4 65 r 1 2 62 r 1 4 65 r 1 2 62 65
r 1 4 60 r 1 2 60 r 1 4 57 r 1 2 60 57
r 1 2 62 62 58 65
x78
r 2 1 57
r 1 2 53 53 53 55
m 3 2
r 1 2 55 r 1 4 55 55 55 r 1 2 55 r 1 4 55 r 1 2 55 55
m 2 2
r 2 1 50
m 2 2
r 1 2 s r 3 4 59 r 1 4 59 r 1 2 57
x74
r 2 1 57
r 1 4 65 r 1 2 62 r 1 4 65 r 1 2 62 65
r 1 4 60 r 1 2 60 r 1 4 57 r 1 2 60 57
r 1 2 62 62 58 65
x78
r 2 1 57
r 1 2 53 53 53 55
m 3 2
r 1 2 55 r 1 4 55 55 55 r 1 2 55 r 1 4 55 r 1 2 55 55
m 2 2
r 2 1 50
m 2 2
r 1 2 s r 3 4 59 r 1 4 59 r 1 2 57
x74
r 2 1 57
r 1 4 65 r 1 2 62 r 1 4 65 r 1 2 62 65
r 1 4 60 r 1 2 60 r 1 4 57 r 1 2 60 57
r 1 2 62 62 58 65
x78
r 2 1 57
r 1 2 53 53 53 55
m 3 2
r 1 2 55 r 1 4 55 55 55 r 1 2 55 r 1 4 55 r 1 2 55 55
m 2 2
r 2 1 50
m 2 2
r 1 2 s r 3 4 59 r 1 4 59 r 1 2 57
x74
r 2 1 57
r 1 4 65 r 1 2 62 r 1 4 65 r 1 2 62 65
r 1 4 60 r 1 2 60 r 1 4 57 r 1 2 60 57
r 1 2 62 62 58 65
x78
r 2 1 57
r 1 2 53 53 53 55
m 3 2
r 1 2 55 r 1 4 55 55 55 r 1 2 55 r 1 4 55 r 1 2 55 55
m 2 2
r 2 1 50
m 2 2
r 1 2 s r 3 4 59 r 1 4 59 r 1 2 57
x74
r 2 1 57
r 1 4 65 r 1 2 62 r 1 4 65 r 1 2 62 65
r 1 4 60 r 1 2 60 r 1 4 57 r 1 2 60 57
r 1 2 62 62 58 65
x78
r 2 1 57
r 1 2 53 53 53 55
m 3 2
r 1 2 55 r 1 4 55 55 55 r 1 2 55 r 1 4 55 r 1 2 55 55
m 2 2
r 2 1 50
m 2 2
r 1 2 s r 3 4 59 r 1 4 59 r 1 2 57
x74
r 2 1 57
r 1 4 65 r 1 2 62 r 1 4 65 r 1 2 62 65
r 1 4 60 r 1 2 60 r 1 4 57 r 1 2 60 57
r 1 2 62 62 58 65
x78
r 2 1 57
r 1 2 53 53 53 55
m 3 2
r 1 2 55 r 1 4 55 55 55 r 1 2 55 r 1 4 55 r 1 2 55 55
m 2 2
r 2 1 50
m 2 2
r 1 2 s r 3 4 59 r 1 4 59 r 1 2 57
x74
r 2 1 57
r 1 4 65 r 1 2 62 r 1 4 65 r 1 2 62 65
r 1 4 60 r 1 2 60 r 1 4 57 r 1 2 60 57
r 1 2 62 62 58 65
x78
r 2 1 57
r 1 2 53 53 53 55
m 3 2
r 1 2 55 r 1 4 55 55 55 r 1 2 55 r 1 4 55 r 1 2 55 55
m 2 2
r 2 1 50
m 2 2
r 1 2 s r 3 4 59 r 1 4 59 r 1 2 57
x74
r 2 1 57
r 1 4 65 r 1 2 62 r 1 4 65 r 1 2 62 65
r 1 4 60 r 1 2 60 r 1 4 57 r 1 2 60 57
r 1 2 62 62 58 65
x78
r 2 1 57
r 1 2 53 53 53 55
m 3 2
r 1 2 55 r 1 4 55 55 55 r 1 2 55 r 1 4 55 r 1 2 55 55
m 2 2
r 2 1 50
m 2 2
r 1 2 s r 3 4 59 r 1 4 59 r 1 2 57
x74
r 2 1 57
r 1 4 65 r 1 2 62 r 1 4 65 r 1 2 62 65
r 1 4 60 r 1 2 60 r 1 4 57 r 1 2 60 57
r 1 2 62 62 58 65
x78
r 2 1 57
r 1 2 53 53 53 55
m 3 2
r 1 2 55 r 1 4 55 55 55 r 1 2 55 r 1 4 55 r 1 2 55 55
m 2 2
r 2 1 50
m 2 2
r 1 2 s r 3 4 59 r 1 4 59 r 1 2 57
x74
r 2 1 57
r 1 4 65 r 1 2 62 r 1 4 65 r 1 2 62 65
r 1 4 60 r 1 2 60 r 1 4 57 r 1 2 60 57
r 1 2 62 62 58 65
x78
r 2 1 57
r 1 2 53 53 53 55
m 3 2
r 1 2 55 r 1 4 55 55 55 r 1 2 55 r 1 4 55 r 1 2 55 55
m 2 2
r 2 1 50
m 2 2
r 1 2 s r 3 4 59 r 1 4 59 r 1 2 57
x74
r 2 1 57
r 1 4 65 r 1 2 62 r 1 4 65 r 1 2 62 65
r 1 4 60 r 1 2 60 r 1 4 57 r 1 2 60 57
r 1 2 62 62 58 65
x78
r 2 1 57
r 1 2 53 53 53 55
m 3 2
r 1 2 55 r 1 4 55 55 55 r 1 2 55 r 1 4 55 r 1 2 55 55
m 2 2
r 2 1 50
m 2 2
r 1 2 s r 3 4 59 r 1 4 59 r 1 2 57
x74
r 2 1 57
r 1 4 65 r 1 2 62 r 1 4 65 r 1 2 62 65
r 1 4 60 r 1 2 60 r 1 4 57 r 1 2 60 57
r 1 2 62 62 58 65
x78
r 2 1 57
r 1 2 53 53 53 55
m 3 2
r 1 2 55 r 1 4 55 55 55 r 1 2 55 r 1 4 55 r 1 2 55 55
m 2 2
r 2 1 50
m 2 2
r 1 2 s r 3 4 59 r 1 4 59 r 1 2 57
x74
r 2 1 57
r 1 4 65 r 1 2 62 r 1 4 65 r 1 2 62 65
r 1 4 60 r 1 2 60 r 1 4 57 r 1 2 60 57
r 1 2 62 62 58 65
x78
r 2 1 57
r 1 2 53 53 53 55
m 3 2
r 1 2 55 r 1 4 55 55 55 r 1 2 55 r 1 4 55 r 1 2 55 55
m 2 2
r 2 1 50
m 2 2
r 1 2 s r 3 4 59 r 1 4 59 r 1 2 57
x74
r 2 1 57
r 1 4 65 r 1 2 62 r 1 4 65 r 1 2 62 65
r 1 4 60 r 1 2 60 r 1 4 57 r 1 2 60 57
r 1 2 62 62 58 65
x78
r 2 1 57
r 1 2 53 53 53 55
m 3 2
r 1 2 55 r 1 4 55 55 55 r 1 2 55 r 1 4 55 r 1 2 55 55
m 2 2
r 2 1 50
m 2 2
r 1 2 s r 3 4 59 r 1 4 59 r 1 2 57
x74
r 2 1 57
r 1 4 65 r 1 2 62 r 1 4 65 r 1 2 62 65
r 1 4 60 r 1 2 60 r 1 4 57 r 1 2 60 57
r 1 2 62 62 58 65
x78
r 2 1 57
r 1 2 53 53 53 55
m 3 2
r 1 2 55 r 1 4 55 55 55 r 1 2 55 r 1 4 55 r 1 2 55 55
m 2 2
r 2 1 50
m 2 2
r 1 2 s r 3 4 59 r 1 4 59 r 1 2 57
x74
r 2 1 57
r 1 4 65 r 1 2 62 r 1 4 65 r 1 2 62 65
r 1 4 60 r 1 2 60 r 1 4 57 r 1 2 60 57
r 1 2 62 62 58 65
x78
r 2 1 57
r 1 2 53 53 53 55
m 3 2
r 1 2 55 r 1 4 55 55 55 r 1 2 55 r 1 4 55 r 1 2 55 55
m 2 2
r 2 1 50
m 2 2
r 1 2 s r 3 4 59 r 1 4 59 r 1 2 57
x74
r 2 1 57
r 1 4 65 r 1 2 62 r 1 4 65 r 1 2 62 65
r 1 4 60 r 1 2 60 r 1 4 57 r 1 2 60 57
r 1 2 62 62 58 65
x78
r 2 1 57
r 1 2 53 53 53 55
m 3 2
r 1 2 55 r 1 4 55 55 55 r 1 2 55 r 1 4 55 r 1 2 55 55
m 2 2
r 2 1 50
m 2 2
r 1 2 s r 3 4 59 r 1 4 59 r 1 2 57
x74
r 2 1 57
r 1 4 65 r 1 2 62 r 1 4 65 r 1 2 62 65
r 1 4 60 r 1 2 60 r 1 4 57 r 1 2 60 57
r 1 2 62 62 58 65
x78
r 2 1 57
r 1 2 53 53 53 55
m 3 2
r 1 2 55 r 1 4 55 55 55 r 1 2 55 r 1 4 55 r 1 2 55 55
m 2 2
r 2 1 50
m 2 2
r 1 2 s r 3 4 59 r 1 4 59 r 1 2 57
x74
r 2 1 57
r 1 4 65 r 1 2 62 r 1 4 65 r 1 2 62 65
r 1 4 60 r 1 2 60 r 1 4 57 r 1 2 60 57
r 1 2 62 62 58 65
x78
r 2 1 57
r 1 2 53 53 53 55
m 3 2
r 1 2 55 r 1 4 55 55 55 r 1 2 55 r 1 4 55 r 1 2 55 55
m 2 2
r 2 1 50
m 2 2
r 1 2 s r 3 4 59 r 1 4 59 r 1 2 57
x74
r 2 1 57
r 1 4 65 r 1 2 62 r 1 4 65 r 1 2 62 65
r 1 4 60 r 1 2 60 r 1 4 57 r 1 2 60 57
r 1 2 62 62 58 65
x78
r 2 1 57
r 1 2 53 53 53 55
m 3 2
r 1 2 55 r 1 4 55 55 55 r 1 2 55 r 1 4 55 r 1 2 55 55
m 2 2
r 2 1 50
m 2 2
r 1 2 s r 3 4 59 r 1 4 59 r 1 2 57
x74
r 2 1 57
r 1 4 65 r 1 2 62 r 1 4 65 r 1 2 62 65
r 1 4 60 r 1 2 60 r 1 4 57 r 1 2 60 57
r 1 2 62 62 58 65
x78
r 2 1 57
r 1 2 53 53 53 55
m 3 2
r 1 2 55 r 1 4 55 55 55 r 1 2 55 r 1 4 55 r 1 2 55 55
m 2 2
r 2 1 50
m 2 2
r 1 2 s r 3 4 59 r 1 4 59 r 1 2 57
x74
r 2 1 57
r 1 4 65 r 1 2 62 r 1 4 65 r 1 2 62 65
r 1 4 60 r 1 2 60 r 1 4 57 r 1 2 60 57
r 1 2 62 62 58 65
x78
r 2 1 57
r 1 2 53 53 53 55
m 3 2
r 1 2 55 r 1 4 55 55 55 r 1 2 55 r 1 4 55 r 1 2 55 55
m 2 2
r 2 1 50
m 2 2
r 1 2 s r 3 4 59 r 1 4 59 r 1 2 57
x74
r 2 1 57
r 1 4 65 r 1 2 62 r 1 4 65 r 1 2 62 65
r 1 4 60 r 1 2 60 r 1 4 57 r 1 2 60 57
r 1 2 62 62 58 65
x78
r 2 1 57
r 1 2 53 53 53 55
m 3 2
r 1 2 55 r 1 4 55 55 55 r 1 2 55 r 1 4 55 r 1 2 55 55
m 2 2
r 2 1 50
m 2 2
r 1 2 s r 3 4 59 r 1 4 59 r 1 2 57
x74
r 2 1 57
r 1 4 65 r 1 2 62 r 1 4 65 r 1 2 62 65
r 1 4 60 r 1 2 60 r 1 4 57 r 1 2 60 57
r 1 2 62 62 58 65
x78
r 2 1 57
r 1 2 53 53 53 55
m 3 2
r 1 2 55 r 1 4 55 55 55 r 1 2 55 r 1 4 55 r 1 2 55 55
m 2 2
r 2 1 50
c
c
c
c
c
c
c
c
c
r 1 2 [ 34 42 ] 42 [ 33 42 ] 42
x74
r 1 2 [ 34 42 ] 42 [ 33 42 ] 42
r 1 2 [ 34 42 ] 42 [ 33 42 ] 42
r 1 2 [ 34 42 ] 42 [ 33 42 ] 42
r 1 2 [ 34 42 ] 42 [ 33 42 ] 42
x78
r 1 2 [ 34 42 ] 42 [ 33 42 ] 42
r 1 2 [ 34 42 ] 42 [ 33 42 ] 42
r 1 2 [ 34 42 ] 42 [ 33 42 ] 42 [ 33 42 ] 42
r 1 2 [ 34 42 ] 42 [ 33 42 ] 42
r 1 2 [ 34 42 ] 42 [ 33 42 ] 42
x74
r 1 2 [ 34 42 ] 42 [ 33 42 ] 42
r 1 2 [ 34 42 ] 42 [ 33 42 ] 42
r 1 2 [ 34 42 ] 42 [ 33 42 ] 42
r 1 2 [ 34 42 ] 42 [ 33 42 ] 42
x78
r 1 2 [ 34 42 ] 42 [ 33 42 ] 42
r 1 2 [ 34 42 ] 42 [ 33 42 ] 42
r 1 2 [ 34 42 ] 42 [ 33 42 ] 42 [ 33 42 ] 42
r 1 2 [ 34 42 ] 42 [ 33 42 ] 42
r 1 2 [ 34 42 ] 42 [ 33 42 ] 42
x74
r 1 2 [ 34 42 ] 42 [ 33 42 ] 42
r 1 2 [ 34 42 ] 42 [ 33 42 ] 42
r 1 2 [ 34 42 ] 42 [ 33 42 ] 42
r 1 2 [ 34 42 ] 42 [ 33 42 ] 42
x78
r 1 2 [ 34 42 ] 42 [ 33 42 ] 42
r 1 2 [ 34 42 ] 42 [ 33 42 ] 42
r 1 2 [ 34 42 ] 42 [ 33 42 ] 42 [ 33 42 ] 42
r 1 2 [ 34 42 ] 42 [ 33 42 ] 42
r 1 2 [ 34 42 ] 42 [ 33 42 ] 42
x74
r 1 2 [ 34 42 ] 42 [ 33 42 ] 42
r 1 2 [ 34 42 ] 42 [ 33 42 ] 42
r 1 2 [ 34 42 ] 42 [ 33 42 ] 42
r 1 2 [ 34 42 ] 42 [ 33 42 ] 42
x78
r 1 2 [ 34 42 ] 42 [ 33 42 ] 42
r 1 2 [ 34 42 ] 42 [ 33 42 ] 42
r 1 2 [ 34 42 ] 42 [ 33 42 ] 42 [ 33 42 ] 42
r 1 2 [ 34 42 ] 42 [ 33 42 ] 42
r 1 2 [ 34 42 ] 42 [ 33 42 ] 42
x74
r 1 2 [ 34 42 ] 42 [ 33 42 ] 42
r 1 2 [ 34 42 ] 42 [ 33 42 ] 42
r 1 2 [ 34 42 ] 42 [ 33 42 ] 42
r 1 2 [ 34 42 ] 42 [ 33 42 ] 42
x78
r 1 2 [ 34 42 ] 42 [ 33 42 ] 42
r 1 2 [ 34 42 ] 42 [ 33 42 ] 42
r 1 2 [ 34 42 ] 42 [ 33 42 ] 42 [ 33 42 ] 42
r 1 2 [ 34 42 ] 42 [ 33 42 ] 42
r 1 2 [ 34 42 ] 42 [ 33 42 ] 42
x74
r 1 2 [ 34 42 ] 42 [ 33 42 ] 42
r 1 2 [ 34 42 ] 42 [ 33 42 ] 42
r 1 2 [ 34 42 ] 42 [ 33 42 ] 42
r 1 2 [ 34 42 ] 42 [ 33 42 ] 42
x78
r 1 2 [ 34 42 ] 42 [ 33 42 ] 42
r 1 2 [ 34 42 ] 42 [ 33 42 ] 42
r 1 2 [ 34 42 ] 42 [ 33 42 ] 42 [ 33 42 ] 42
r 1 2 [ 34 42 ] 42 [ 33 42 ] 42
r 1 2 [ 34 42 ] 42 [ 33 42 ] 42
x74
r 1 2 [ 34 42 ] 42 [ 33 42 ] 42
r 1 2 [ 34 42 ] 42 [ 33 42 ] 42
r 1 2 [ 34 42 ] 42 [ 33 42 ] 42
r 1 2 [ 34 42 ] 42 [ 33 42 ] 42
x78
r 1 2 [ 34 42 ] 42 [ 33 42 ] 42
r 1 2 [ 34 42 ] 42 [ 33 42 ] 42
r 1 2 [ 34 42 ] 42 [ 33 42 ] 42 [ 33 42 ] 42
r 1 2 [ 34 42 ] 42 [ 33 42 ] 42
r 1 2 [ 34 42 ] 42 [ 33 42 ] 42
x74
r 1 2 [ 34 42 ] 42 [ 33 42 ] 42
r 1 2 [ 34 42 ] 42 [ 33 42 ] 42
r 1 2 [ 34 42 ] 42 [ 33 42 ] 42
r 1 2 [ 34 42 ] 42 [ 33 42 ] 42
x78
r 1 2 [ 34 42 ] 42 [ 33 42 ] 42
r 1 2 [ 34 42 ] 42 [ 33 42 ] 42
r 1 2 [ 34 42 ] 42 [ 33 42 ] 42 [ 33 42 ] 42
r 1 2 [ 34 42 ] 42 [ 33 42 ] 42
r 1 2 [ 34 42 ] 42 [ 33 42 ] 42
x74
r 1 2 [ 34 42 ] 42 [ 33 42 ] 42
r 1 2 [ 34 42 ] 42 [ 33 42 ] 42
r 1 2 [ 34 42 ] 42 [ 33 42 ] 42
r 1 2 [ 34 42 ] 42 [ 33 42 ] 42
x78
r 1 2 [ 34 42 ] 42 [ 33 42 ] 42
r 1 2 [ 34 42 ] 42 [ 33 42 ] 42
r 1 2 [ 34 42 ] 42 [ 33 42 ] 42 [ 33 42 ] 42
r 1 2 [ 34 42 ] 42 [ 33 42 ] 42
r 1 2 [ 34 42 ] 42 [ 33 42 ] 42
x74
r 1 2 [ 34 42 ] 42 [ 33 42 ] 42
r 1 2 [ 34 42 ] 42 [ 33 42 ] 42
r 1 2 [ 34 42 ] 42 [ 33 42 ] 42
r 1 2 [ 34 42 ] 42 [ 33 42 ] 42
x78
r 1 2 [ 34 42 ] 42 [ 33 42 ] 42
r 1 2 [ 34 42 ] 42 [ 33 42 ] 42
r 1 2 [ 34 42 ] 42 [ 33 42 ] 42 [ 33 42 ] 42
r 1 2 [ 34 42 ] 42 [ 33 42 ] 42
r 1 2 [ 34 42 ] 42 [ 33 42 ] 42
x74
r 1 2 [ 34 42 ] 42 [ 33 42 ] 42
r 1 2 [ 34 42 ] 42 [ 33 42 ] 42
r 1 2 [ 34 42 ] 42 [ 33 42 ] 42
r 1 2 [ 34 42 ] 42 [ 33 42 ] 42
x78
r 1 2 [ 34 42 ] 42 [ 33 42 ] 42
r 1 2 [ 34 42 ] 42 [ 33 42 ] 42
r 1 2 [ 34 42 ] 42 [ 33 42 ] 42 [ 33 42 ] 42
r 1 2 [ 34 42 ] 42 [ 33 42 ] 42
r 1 2 [ 34 42 ] 42 [ 33 42 ] 42
x74
r 1 2 [ 34 42 ] 42 [ 33 42 ] 42
r 1 2 [ 34 42 ] 42 [ 33 42 ] 42
r 1 2 [ 34 42 ] 42 [ 33 42 ] 42
r 1 2 [ 34 42 ] 42 [ 33 42 ] 42
x78
r 1 2 [ 34 42 ] 42 [ 33 42 ] 42
r 1 2 [ 34 42 ] 42 [ 33 42 ] 42
r 1 2 [ 34 42 ] 42 [ 33 42 ] 42 [ 33 42 ] 42
r 1 2 [ 34 42 ] 42 [ 33 42 ] 42
r 1 2 [ 34 42 ] 42 [ 33 42 ] 42
x74
r 1 2 [ 34 42 ] 42 [ 33 42 ] 42
r 1 2 [ 34 42 ] 42 [ 33 42 ] 42
r 1 2 [ 34 42 ] 42 [ 33 42 ] 42
r 1 2 [ 34 42 ] 42 [ 33 42 ] 42
x78
r 1 2 [ 34 42 ] 42 [ 33 42 ] 42
r 1 2 [ 34 42 ] 42 [ 33 42 ] 42
r 1 2 [ 34 42 ] 42 [ 33 42 ] 42 [ 33 42 ] 42
r 1 2 [ 34 42 ] 42 [ 33 42 ] 42
r 1 2 [ 34 42 ] 42 [ 33 42 ] 42
x74
r 1 2 [ 34 42 ] 42 [ 33 42 ] 42
r 1 2 [ 34 42 ] 42 [ 33 42 ] 42
r 1 2 [ 34 42 ] 42 [ 33 42 ] 42
r 1 2 [ 34 42 ] 42 [ 33 42 ] 42
x78
r 1 2 [ 34 42 ] 42 [ 33 42 ] 42
r 1 2 [ 34 42 ] 42 [ 33 42 ] 42
r 1 2 [ 34 42 ] 42 [ 33 42 ] 42 [ 33 42 ] 42
r 1 2 [ 34 42 ] 42 [ 33 42 ] 42
r 1 2 [ 34 42 ] 42 [ 33 42 ] 42
x74
r 1 2 [ 34 42 ] 42 [ 33 42 ] 42
r 1 2 [ 34 42 ] 42 [ 33 42 ] 42
r 1 2 [ 34 42 ] 42 [ 33 42 ] 42
r 1 2 [ 34 42 ] 42 [ 33 42 ] 42
x78
r 1 2 [ 34 42 ] 42 [ 33 42 ] 42
r 1 2 [ 34 42 ] 42 [ 33 42 ] 42
r 1 2 [ 34 42 ] 42 [ 33 42 ] 42 [ 33 42 ] 42
r 1 2 [ 34 42 ] 42 [ 33 42 ] 42
r 1 2 [ 34 42 ] 42 [ 33 42 ] 42
x74
r 1 2 [ 34 42 ] 42 [ 33 42 ] 42
r 1 2 [ 34 42 ] 42 [ 33 42 ] 42
r 1 2 [ 34 42 ] 42 [ 33 42 ] 42
r 1 2 [ 34 42 ] 42 [ 33 42 ] 42
x78
r 1 2 [ 34 42 ] 42 [ 33 42 ] 42
r 1 2 [ 34 42 ] 42 [ 33 42 ] 42
r 1 2 [ 34 42 ] 42 [ 33 42 ] 42 [ 33 42 ] 42
r 1 2 [ 34 42 ] 42 [ 33 42 ] 42
r 1 2 [ 34 42 ] 42 [ 33 42 ] 42
x74
r 1 2 [ 34 42 ] 42 [ 33 42 ] 42
r 1 2 [ 34 42 ] 42 [ 33 42 ] 42
r 1 2 [ 34 42 ] 42 [ 33 42 ] 42
r 1 2 [ 34 42 ] 42 [ 33 42 ] 42
x78
r 1 2 [ 34 42 ] 42 [ 33 42 ] 42
r 1 2 [ 34 42 ] 42 [ 33 42 ] 42
r 1 2 [ 34 42 ] 42 [ 33 42 ] 42 [ 33 42 ] 42
r 1 2 [ 34 42 ] 42 [ 33 42 ] 42
r 1 2 [ 34 42 ] 42 [ 33 42 ] 42
x74
r 1 2 [ 34 42 ] 42 [ 33 42 ] 42
r 1 2 [ 34 42 ] 42 [ 33 42 ] 42
r 1 2 [ 34 42 ] 42 [ 33 42 ] 42
r 1 2 [ 34 42 ] 42 [ 33 42 ] 42
x78
r 1 2 [ 34 42 ] 42 [ 33 42 ] 42
r 1 2 [ 34 42 ] 42 [ 33 42 ] 42
r 1 2 [ 34 42 ] 42 [ 33 42 ] 42 [ 33 42 ] 42
r 1 2 [ 34 42 ] 42 [ 33 42 ] 42
r 1 2 [ 34 42 ] 42 [ 33 42 ] 42
x74
r 1 2 [ 34 42 ] 42 [ 33 42 ] 42
r 1 2 [ 34 42 ] 42 [ 33 42 ] 42
r 1 2 [ 34 42 ] 42 [ 33 42 ] 42
r 1 2 [ 34 42 ] 42 [ 33 42 ] 42
x78
r 1 2 [ 34 42 ] 42 [ 33 42 ] 42
r 1 2 [ 34 42 ] 42 [ 33 42 ] 42
r 1 2 [ 34 42 ] 42 [ 33 42 ] 42 [ 33 42 ] 42
r 1 2 [ 34 42 ] 42 [ 33 42 ] 42
r 1 2 [ 34 42 ] 42 [ 33 42 ] 42
x74
r 1 2 [ 34 42 ] 42 [ 33 42 ] 42
r 1 2 [ 34 42 ] 42 [ 33 42 ] 42
r 1 2 [ 34 42 ] 42 [ 33 42 ] 42
r 1 2 [ 34 42 ] 42 [ 33 42 ] 42
x78
r 1 2 [ 34 42 ] 42 [ 33 42 ] 42
r 1 2 [ 34 42 ] 42 [ 33 42 ] 42
r 1 2 [ 34 42 ] 42 [ 33 42 ] 42 [ 33 42 ] 42
r 1 2 [ 34 42 ] 42 [ 33 42 ] 42
r 1 2 [ 34 42 ] 42 [ 33 42 ] 42
x74
r 1 2 [ 34 42 ] 42 [ 33 42 ] 42
r 1 2 [ 34 42 ] 42 [ 33 42 ] 42
r 1 2 [ 34 42 ] 42 [ 33 42 ] 42
r 1 2 [ 34 42 ] 42 [ 33 42 ] 42
x78
r 1 2 [ 34 42 ] 42 [ 33 42 ] 42
r 1 2 [ 34 42 ] 42 [ 33 42 ] 42
r 1 2 [ 34 42 ] 42 [ 33 42 ] 42 [ 33 42 ] 42
r 1 2 [ 34 42 ] 42 [ 33 42 ] 42
r 1 2 [ 34 42 ] 42 [ 33 42 ] 42
x74
r 1 2 [ 34 42 ] 42 [ 33 42 ] 42
r 1 2 [ 34 42 ] 42 [ 33 42 ] 42
r 1 2 [ 34 42 ] 42 [ 33 42 ] 42
r 1 2 [ 34 42 ] 42 [ 33 42 ] 42
x78
r 1 2 [ 34 42 ] 42 [ 33 42 ] 42
r 1 2 [ 34 42 ] 42 [ 33 42 ] 42
r 1 2 [ 34 42 ] 42 [ 33 42 ] 42 [ 33 42 ] 42
r 1 2 [ 34 42 ] 42 [ 33 42 ] 42
r 1 2 [ 34 42 ] 42 [ 33 42 ] 42
x74
r 1 2 [ 34 42 ] 42 [ 33 42 ] 42
r 1 2 [ 34 42 ] 42 [ 33 42 ] 42
r 1 2 [ 34 42 ] 42 [ 33 42 ] 42
r 1 2 [ 34 42 ] 42 [ 33 42 ] 42
x78
r 1 2 [ 34 42 ] 42 [ 33 42 ] 42
r 1 2 [ 34 42 ] 42 [ 33 42 ] 42
r 1 2 [ 34 42 ] 42 [ 33 42 ] 42 [ 33 42 ] 42
r 1 2 [ 34 42 ] 42 [ 33 42 ] 42
r 1 2 [ 34 42 ] 42 [ 33 42 ] 42
x74
r 1 2 [ 34 42 ] 42 [ 33 42 ] 42
r 1 2 [ 34 42 ] 42 [ 33 42 ] 42
r 1 2 [ 34 42 ] 42 [ 33 42 ] 42
r 1 2 [ 34 42 ] 42 [ 33 42 ] 42
x78
r 1 2 [ 34 42 ] 42 [ 33 42 ] 42
r 1 2 [ 34 42 ] 42 [ 33 42 ] 42
r 1 2 [ 34 42 ] 42 [ 33 42 ] 42 [ 33 42 ] 42
r 1 2 [ 34 42 ] 42 [ 33 42 ] 42
r 1 2 [ 34 42 ] 42 [ 33 42 ] 42
x74
r 1 2 [ 34 42 ] 42 [ 33 42 ] 42
r 1 2 [ 34 42 ] 42 [ 33 42 ] 42
r 1 2 [ 34 42 ] 42 [ 33 42 ] 42
r 1 2 [ 34 42 ] 42 [ 33 42 ] 42
x78
r 1 2 [ 34 42 ] 42 [ 33 42 ] 42
r 1 2 [ 34 42 ] 42 [ 33 42 ] 42
r 1 2 [ 34 42 ] 42 [ 33 42 ] 42 [ 33 42 ] 42
r 1 2 [ 34 42 ] 42 [ 33 42 ] 42
r 1 2 [ 34 42 ] 42 [ 33 42 ] 42
x74
r 1 2 [ 34 42 ] 42 [ 33 42 ] 42
r 1 2 [ 34 42 ] 42 [ 33 42 ] 42
r 1 2 [ 34 42 ] 42 [ 33 42 ] 42
r 1 2 [ 34 42 ] 42 [ 33 42 ] 42
x78
r 1 2 [ 34 42 ] 42 [ 33 42 ] 42
r 1 2 [ 34 42 ] 42 [ 33 42 ] 42
r 1 2 [ 34 42 ] 42 [ 33 42 ] 42 [ 33 42 ] 42
r 1 2 [ 34 42 ] 42 [ 33 42 ] 42
r 1 2 [ 34 42 ] 42 [ 33 42 ] 42
x74
r 1 2 [ 34 42 ] 42 [ 33 42 ] 42
r 1 2 [ 34 42 ] 42 [ 33 42 ] 42
r 1 2 [ 34 42 ] 42 [ 33 42 ] 42
r 1 2 [ 34 42 ] 42 [ 33 42 ] 42
x78
r 1 2 [ 34 42 ] 42 [ 33 42 ] 42
r 1 2 [ 34 42 ] 42 [ 33 42 ] 42
r 1 2 [ 34 42 ] 42 [ 33 42 ] 42 [ 33 42 ] 42
r 1 2 [ 34 42 ] 42 [ 33 42 ] 42
r 1 2 [ 34 42 ] 42 [ 33 42 ] 42
x74
r 1 2 [ 34 42 ] 42 [ 33 42 ] 42
r 1 2 [ 34 42 ] 42 [ 33 42 ] 42
r 1 2 [ 34 42 ] 42 [ 33 42 ] 42
r 1 2 [ 34 42 ] 42 [ 33 42 ] 42
x78
r 1 2 [ 34 42 ] 42 [ 33 42 ] 42
r 1 2 [ 34 42 ] 42 [ 33 42 ] 42
r 1 2 [ 34 42 ] 42 [ 33 42 ] 42 [ 33 42 ] 42
r 1 2 [ 34 42 ] 42 [ 33 42 ] 42
r 1 2 [ 34 42 ] 42 [ 33 42 ] 42
x74
r 1 2 [ 34 42 ] 42 [ 33 42 ] 42
r 1 2 [ 34 42 ] 42 [ 33 42 ] 42
r 1 2 [ 34 42 ] 42 [ 33 42 ] 42
r 1 2 [ 34 42 ] 42 [ 33 42 ] 42
x78
r 1 2 [ 34 42 ] 42 [ 33 42 ] 42
r 1 2 [ 34 42 ] 42 [ 33 42 ] 42
r 1 2 [ 34 42 ] 42 [ 33 42 ] 42 [ 33 42 ] 42
r 1 2 [ 34 42 ] 42 [ 33 42 ] 42
r 1 2 [ 34 42 ] 42 [ 33 42 ] 42
x74
r 1 2 [ 34 42 ] 42 [ 33 42 ] 42
r 1 2 [ 34 42 ] 42 [ 33 42 ] 42
r 1 2 [ 34 42 ] 42 [ 33 42 ] 42
r 1 2 [ 34 42 ] 42 [ 33 42 ] 42
x78
r 1 2 [ 34 42 ] 42 [ 33 42 ] 42
r 1 2 [ 34 42 ] 42 [ 33 42 ] 42
r 1 2 [ 34 42 ] 42 [ 33 42 ] 42 [ 33 42 ] 42
r 1 2 [ 34 42 ] 42 [ 33 42 ] 42
r 1 2 [ 34 42 ] 42 [ 33 42 ] 42
x74
r 1 2 [ 34 42 ] 42 [ 33 42 ] 42
r 1 2 [ 34 42 ] 42 [ 33 42 ] 42
r 1 2 [ 34 42 ] 42 [ 33 42 ] 42
r 1 2 [ 34 42 ] 42 [ 33 42 ] 42
x78
r 1 2 [ 34 42 ] 42 [ 33 42 ] 42
r 1 2 [ 34 42 ] 42 [ 33 42 ] 42
r 1 2 [ 34 42 ] 42 [ 33 42 ] 42 [ 33 42 ] 42
r 1 2 [ 34 42 ] 42 [ 33 42 ] 42
r 1 2 [ 34 42 ] 42 [ 33 42 ] 42
x74
r 1 2 [ 34 42 ] 42 [ 33 42 ] 42
r 1 2 [ 34 42 ] 42 [ 33 42 ] 42
r 1 2 [ 34 42 ] 42 [ 33 42 ] 42
r 1 2 [ 34 42 ] 42 [ 33 42 ] 42
x78
r 1 2 [ 34 42 ] 42 [ 33 42 ] 42
r 1 2 [ 34 42 ] 42 [ 33 42 ] 42
r 1 2 [ 34 42 ] 42 [ 33 42 ] 42 [ 33 42 ] 42
r 1 2 [ 34 42 ] 42 [ 33 42 ] 42
r 1 2 [ 34 42 ] 42 [ 33 42 ] 42
x74
r 1 2 [ 34 42 ] 42 [ 33 42 ] 42
r 1 2 [ 34 42 ] 42 [ 33 42 ] 42
r 1 2 [ 34 42 ] 42 [ 33 42 ] 42
r 1 2 [ 34 42 ] 42 [ 33 42 ] 42
x78
r 1 2 [ 34 42 ] 42 [ 33 42 ] 42
r 1 2 [ 34 42 ] 42 [ 33 42 ] 42
r 1 2 [ 34 42 ] 42 [ 33 42 ] 42 [ 33 42 ] 42
r 1 2 [ 34 42 ] 42 [ 33 42 ] 42
r 1 2 [ 34 42 ] 42 [ 33 42 ] 42
x74
r 1 2 [ 34 42 ] 42 [ 33 42 ] 42
r 1 2 [ 34 42 ] 42 [ 33 42 ] 42
r 1 2 [ 34 42 ] 42 [ 33 42 ] 42
r 1 2 [ 34 42 ] 42 [ 33 42 ] 42
x78
r 1 2 [ 34 42 ] 42 [ 33 42 ] 42
r 1 2 [ 34 42 ] 42 [ 33 42 ] 42
r 1 2 [ 34 42 ] 42 [ 33 42 ] 42 [ 33 42 ] 42
r 1 2 [ 34 42 ] 42 [ 33 42 ] 42
r 1 2 [ 34 42 ] 42 [ 33 42 ] 42
x74
r 1 2 [ 34 42 ] 42 [ 33 42 ] 42
r 1 2 [ 34 42 ] 42 [ 33 42 ] 42
r 1 2 [ 34 42 ] 42 [ 33 42 ] 42
r 1 2 [ 34 42 ] 42 [ 33 42 ] 42
x78
r 1 2 [ 34 42 ] 42 [ 33 42 ] 42
r 1 2 [ 34 42 ] 42 [ 33 42 ] 42
r 1 2 [ 34 42 ] 42 [ 33 42 ] 42 [ 33 42 ] 42
r 1 2 [ 34 42 ] 42 [ 33 42 ] 42
r 1 2 [ 34 42 ] 42 [ 33 42 ] 42
x74
r 1 2 [ 34 42 ] 42 [ 33 42 ] 42
r 1 2 [ 34 42 ] 42 [ 33 42 ] 42
r 1 2 [ 34 42 ] 42 [ 33 42 ] 42
r 1 2 [ 34 42 ] 42 [ 33 42 ] 42
x78
r 1 2 [ 34 42 ] 42 [ 33 42 ] 42
r 1 2 [ 34 42 ] 42 [ 33 42 ] 42
r 1 2 [ 34 42 ] 42 [ 33 42 ] 42 [ 33 42 ] 42
r 1 2 [ 34 42 ] 42 [ 33 42 ] 42
r 1 2 [ 34 42 ] 42 [ 33 42 ] 42
x74
r 1 2 [ 34 42 ] 42 [ 33 42 ] 42
r 1 2 [ 34 42 ] 42 [ 33 42 ] 42
r 1 2 [ 34 42 ] 42 [ 33 42 ] 42
r 1 2 [ 34 42 ] 42 [ 33 42 ] 42
x78
r 1 2 [ 34 42 ] 42 [ 33 42 ] 42
r 1 2 [ 34 42 ] 42 [ 33 42 ] 42
r 1 2 [ 34 42 ] 42 [ 33 42 ] 42 [ 33 42 ] 42
r 1 2 [ 34 42 ] 42 [ 33 42 ] 42
r 1 2 [ 34 42 ] 42 [ 33 42 ] 42
x74
r 1 2 [ 34 42 ] 42 [ 33 42 ] 42
r 1 2 [ 34 42 ] 42 [ 33 42 ] 42
r 1 2 [ 34 42 ] 42 [ 33 42 ] 42
r 1 2 [ 34 42 ] 42 [ 33 42 ] 42
x78
r 1 2 [ 34 42 ] 42 [ 33 42 ] 42
r 1 2 [ 34 42 ] 42 [ 33 42 ] 42
r 1 2 [ 34 42 ] 42 [ 33 42 ] 42 [ 33 42 ] 42
r 1 2 [ 34 42 ] 42 [ 33 42 ] 42
r 1 2 [ 34 42 ] 42 [ 33 42 ] 42
x74
r 1 2 [ 34 42 ] 42 [ 33 42 ] 42
r 1 2 [ 34 42 ] 42 [ 33 42 ] 42
r 1 2 [ 34 42 ] 42 [ 33 42 ] 42
r 1 2 [ 34 42 ] 42 [ 33 42 ] 42
x78
r 1 2 [ 34 42 ] 42 [ 33 42 ] 42
r 1 2 [ 34 42 ] 42 [ 33 42 ] 42
r 1 2 [ 34 42 ] 42 [ 33 42 ] 42 [ 33 42 ] 42
r 1 2 [ 34 42 ] 42 [ 33 42 ] 42
r 1 2 [ 34 42 ] 42 [ 33 42 ] 42
x74
r 1 2 [ 34 42 ] 42 [ 33 42 ] 42
r 1 2 [ 34 42 ] 42 [ 33 42 ] 42
r 1 2 [ 34 42 ] 42 [ 33 42 ] 42
r 1 2 [ 34 42 ] 42 [ 33 42 ] 42
x78
r 1 2 [ 34 42 ] 42 [ 33 42 ] 42
r 1 2 [ 34 42 ] 42 [ 33 42 ] 42
r 1 2 [ 34 42 ] 42 [ 33 42 ] 42 [ 33 42 ] 42
r 1 2 [ 34 42 ] 42 [ 33 42 ] 42
r 1 2 [ 34 42 ] 42 [ 33 42 ] 42
x74
r 1 2 [ 34 42 ] 42 [ 33 42 ] 42
r 1 2 [ 34 42 ] 42 [ 33 42 ] 42
r 1 2 [ 34 42 ] 42 [ 33 42 ] 42
r 1 2 [ 34 42 ] 42 [ 33 42 ] 42
x78
r 1 2 [ 34 42 ] 42 [ 33 42 ] 42
r 1 2 [ 34 42 ] 42 [ 33 42 ] 42
r 1 2 [ 34 42 ] 42 [ 33 42 ] 42 [ 33 42 ] 42
r 1 2 [ 34 42 ] 42 [ 33 42 ] 42
r 1 2 [ 34 42 ] 42 [ 33 42 ] 42
x74
r 1 2 [ 34 42 ] 42 [ 33 42 ] 42
r 1 2 [ 34 42 ] 42 [ 33 42 ] 42
r 1 2 [ 34 42 ] 42 [ 33 42 ] 42
r 1 2 [ 34 42 ] 42 [ 33 42 ] 42
x78
r 1 2 [ 34 42 ] 42 [ 33 42 ] 42
r 1 2 [ 34 42 ] 42 [ 33 42 ] 42
r 1 2 [ 34 42 ] 42 [ 33 42 ] 42 [ 33 42 ] 42
r 1 2 [ 34 42 ] 42 [ 33 42 ] 42
r 1 2 [ 34 42 ] 42 [ 33 42 ] 42
x74
r 1 2 [ 34 42 ] 42 [ 33 42 ] 42
r 1 2 [ 34 42 ] 42 [ 33 42 ] 42
r 1 2 [ 34 42 ] 42 [ 33 42 ] 42
r 1 2 [ 34 42 ] 42 [ 33 42 ] 42
x78
r 1 2 [ 34 42 ] 42 [ 33 42 ] 42
r 1 2 [ 34 42 ] 42 [ 33 42 ] 42
r 1 2 [ 34 42 ] 42 [ 33 42 ] 42 [ 33 42 ] 42
r 1 2 [ 34 42 ] 42 [ 33 42 ] 42
r 1 2 [ 34 42 ] 42 [ 33 42 ] 42
x74
r 1 2 [ 34 42 ] 42 [ 33 42 ] 42
r 1 2 [ 34 42 ] 42 [ 33 42 ] 42
r 1 2 [ 34 42 ] 42 [ 33 42 ] 42
r 1 2 [ 34 42 ] 42 [ 33 42 ] 42
x78
r 1 2 [ 34 42 ] 42 [ 33 42 ] 42
r 1 2 [ 34 42 ] 42 [ 33 42 ] 42
r 1 2 [ 34 42 ] 42 [ 33 42 ] 42 [ 33 42 ] 42
r 1 2 [ 34 42 ] 42 [ 33 42 ] 42
r 1 2 [ 34 42 ] 42 [ 33 42 ] 42
x74
r 1 2 [ 34 42 ] 42 [ 33 42 ] 42
r 1 2 [ 34 42 ] 42 [ 33 42 ] 42
r 1 2 [ 34 42 ] 42 [ 33 42 ] 42
r 1 2 [ 34 42 ] 42 [ 33 42 ] 42
x78
r 1 2 [ 34 42 ] 42 [ 33 42 ] 42
r 1 2 [ 34 42 ] 42 [ 33 42 ] 42
r 1 2 [ 34 42 ] 42 [ 33 42 ] 42 [ 33 42 ] 42
r 1 2 [ 34 42 ] 42 [ 33 42 ] 42
r 1 2 [ 34 42 ] 42 [ 33 42 ] 42
x74
r 1 2 [ 34 42 ] 42 [ 33 42 ] 42
r 1 2 [ 34 42 ] 42 [ 33 42 ] 42
r 1 2 [ 34 42 ] 42 [ 33 42 ] 42
r 1 2 [ 34 42 ] 42 [ 33 42 ] 42
x78
r 1 2 [ 34 42 ] 42 [ 33 42 ] 42
r 1 2 [ 34 42 ] 42 [ 33 42 ] 42
r 1 2 [ 34 42 ] 42 [ 33 42 ] 42 [ 33 42 ] 42
r 1 2 [ 34 42 ] 42 [ 33 42 ] 42
r 1 2 [ 34 42 ] 42 [ 33 42 ] 42
x74
r 1 2 [ 34 42 ] 42 [ 33 42 ] 42
r 1 2 [ 34 42 ] 42 [ 33 42 ] 42
r 1 2 [ 34 42 ] 42 [ 33 42 ] 42
r 1 2 [ 34 42 ] 42 [ 33 42 ] 42
x78
r 1 2 [ 34 42 ] 42 [ 33 42 ] 42
r 1 2 [ 34 42 ] 42 [ 33 42 ] 42
r 1 2 [ 34 42 ] 42 [ 33 42 ] 42 [ 33 42 ] 42
r 1 2 [ 34 42 ] 42 [ 33 42 ] 42
r 1 2 [ 34 42 ] 42 [ 33 42 ] 42
x74
r 1 2 [ 34 42 ] 42 [ 33 42 ] 42
r 1 2 [ 34 42 ] 42 [ 33 42 ] 42
r 1 2 [ 34 42 ] 42 [ 33 42 ] 42
r 1 2 [ 34 42 ] 42 [ 33 42 ] 42
x78
r 1 2 [ 34 42 ] 42 [ 33 42 ] 42
r 1 2 [ 34 42 ] 42 [ 33 42 ] 42
r 1 2 [ 34 42 ] 42 [ 33 42 ] 42 [ 33 42 ] 42
r 1 2 [ 34 42 ] 42 [ 33 42 ] 42
r 1 2 [ 34 42 ] 42 [ 33 42 ] 42
x74
r 1 2 [ 34 42 ] 42 [ 33 42 ] 42
r 1 2 [ 34 42 ] 42 [ 33 42 ] 42
r 1 2 [ 34 42 ] 42 [ 33 42 ] 42
r 1 2 [ 34 42 ] 42 [ 33 42 ] 42
x78
r 1 2 [ 34 42 ] 42 [ 33 42 ] 42
r 1 2 [ 34 42 ] 42 [ 33 42 ] 42
r 1 2 [ 34 42 ] 42 [ 33 42 ] 42 [ 33 42 ] 42
r 1 2 [ 34 42 ] 42 [ 33 42 ] 42
r 1 2 [ 34 42 ] 42 [ 33 42 ] 42
x74
r 1 2 [ 34 42 ] 42 [ 33 42 ] 42
r 1 2 [ 34 42 ] 42 [ 33 42 ] 42
r 1 2 [ 34 42 ] 42 [ 33 42 ] 42
r 1 2 [ 34 42 ] 42 [ 33 42 ] 42
x78
r 1 2 [ 34 42 ] 42 [ 33 42 ] 42
r 1 2 [ 34 42 ] 42 [ 33 42 ] 42
r 1 2 [ 34 42 ] 42 [ 33 42 ] 42 [ 33 42 ] 42
r 1 2 [ 34 42 ] 42 [ 33 42 ] 42
r 1 2 [ 34 42 ] 42 [ 33 42 ] 42
x74
r 1 2 [ 34 42 ] 42 [ 33 42 ] 42
r 1 2 [ 34 42 ] 42 [ 33 42 ] 42
r 1 2 [ 34 42 ] 42 [ 33 42 ] 42
r 1 2 [ 34 42 ] 42 [ 33 42 ] 42
x78
r 1 2 [ 34 42 ] 42 [ 33 42 ] 42
r 1 2 [ 34 42 ] 42 [ 33 42 ] 42
r 1 2 [ 34 42 ] 42 [ 33 42 ] 42 [ 33 42 ] 42
r 1 2 [ 34 42 ] 42 [ 33 42 ] 42
r 1 2 [ 34 42 ] 42 [ 33 42 ] 42
x74
r 1 2 [ 34 42 ] 42 [ 33 42 ] 42
r 1 2 [ 34 42 ] 42 [ 33 42 ] 42
r 1 2 [ 34 42 ] 42 [ 33 42 ] 42
r 1 2 [ 34 42 ] 42 [ 33 42 ] 42
x78
r 1 2 [ 34 42 ] 42 [ 33 42 ] 42
r 1 2 [ 34 42 ] 42 [ 33 42 ] 42
r 1 2 [ 34 42 ] 42 [ 33 42 ] 42 [ 33 42 ] 42
r 1 2 [ 34 42 ] 42 [ 33 42 ] 42
r 1 2 [ 34 42 ] 42 [ 33 42 ] 42
x74
r 1 2 [ 34 42 ] 42 [ 33 42 ] 42
r 1 2 [ 34 42 ] 42 [ 33 42 ] 42
r 1 2 [ 34 42 ] 42 [ 33 42 ] 42
r 1 2 [ 34 42 ] 42 [ 33 42 ] 42
x78
r 1 2 [ 34 42 ] 42 [ 33 42 ] 42
r 1 2 [ 34 42 ] 42 [ 33 42 ] 42
r 1 2 [ 34 42 ] 42 [ 33 42 ] 42 [ 33 42 ] 42
r 1 2 [ 34 42 ] 42 [ 33 42 ] 42
r 1 2 [ 34 42 ] 42 [ 33 42 ] 42
x74
r 1 2 [ 34 42 ] 42 [ 33 42 ] 42
r 1 2 [ 34 42 ] 42 [ 33 42 ] 42
r 1 2 [ 34 42 ] 42 [ 33 42 ] 42
r 1 2 [ 34 42 ] 42 [ 33 42 ] 42
x78
r 1 2 [ 34 42 ] 42 [ 33 42 ] 42
r 1 2 [ 34 42 ] 42 [ 33 42 ] 42
r 1 2 [ 34 42 ] 42 [ 33 42 ] 42 [ 33 42 ] 42
r 1 2 [ 34 42 ] 42 [ 33 42 ] 42
r 1 2 [ 34 42 ] 42 [ 33 42 ] 42
x74
r 1 2 [ 34 42 ] 42 [ 33 42 ] 42
r 1 2 [ 34 42 ] 42 [ 33 42 ] 42
r 1 2 [ 34 42 ] 42 [ 33 42 ] 42
r 1 2 [ 34 42 ] 42 [ 33 42 ] 42
x78
r 1 2 [ 34 42 ] 42 [ 33 42 ] 42
r 1 2 [ 34 42 ] 42 [ 33 42 ] 42
r 1 2 [ 34 42 ] 42 [ 33 42 ] 42 [ 33 42 ] 42
r 1 2 [ 34 42 ] 42 [ 33 42 ] 42
r 1 2 [ 34 42 ] 42 [ 33 42 ] 42
x74
r 1 2 [ 34 42 ] 42 [ 33 42 ] 42
r 1 2 [ 34 42 ] 42 [ 33 42 ] 42
r 1 2 [ 34 42 ] 42 [ 33 42 ] 42
r 1 2 [ 34 42 ] 42 [ 33 42 ] 42
x78
r 1 2 [ 34 42 ] 42 [ 33 42 ] 42
r 1 2 [ 34 42 ] 42 [ 33 42 ] 42
r 1 2 [ 34 42 ] 42 [ 33 42 ] 42 [ 33 42 ] 42
r 1 2 [ 34 42 ] 42 [ 33 42 ] 42
r 1 2 [ 34 42 ] 42 [ 33 42 ] 42
x74
r 1 2 [ 34 42 ] 42 [ 33 42 ] 42
r 1 2 [ 34 42 ] 42 [ 33 42 ] 42
r 1 2 [ 34 42 ] 42 [ 33 42 ] 42
r 1 2 [ 34 42 ] 42 [ 33 42 ] 42
x78
r 1 2 [ 34 42 ] 42 [ 33 42 ] 42
r 1 2 [ 34 42 ] 42 [ 33 42 ] 42
r 1 2 [ 34 42 ] 42 [ 33 42 ] 42 [ 33 42 ] 42
r 1 2 [ 34 42 ] 42 [ 33 42 ] 42
r 1 2 [ 34 42 ] 42 [ 33 42 ] 42
x74
r 1 2 [ 34 42 ] 42 [ 33 42 ] 42
r 1 2 [ 34 42 ] 42 [ 33 42 ] 42
r 1 2 [ 34 42 ] 42 [ 33 42 ] 42
r 1 2 [ 34 42 ] 42 [ 33 42 ] 42
x78
r 1 2 [ 34 42 ] 42 [ 33 42 ] 42
r 1 2 [ 34 42 ] 42 [ 33 42 ] 42
r 1 2 [ 34 42 ] 42 [ 33 42 ] 42 [ 33 42 ] 42
r 1 2 [ 34 42 ] 42 [ 33 42 ] 42
r 1 2 [ 34 42 ] 42 [ 33 42 ] 42
x74
r 1 2 [ 34 42 ] 42 [ 33 42 ] 42
r 1 2 [ 34 42 ] 42 [ 33 42 ] 42
r 1 2 [ 34 42 ] 42 [ 33 42 ] 42
r 1 2 [ 34 42 ] 42 [ 33 42 ] 42
x78
r 1 2 [ 34 42 ] 42 [ 33 42 ] 42
r 1 2 [ 34 42 ] 42 [ 33 42 ] 42
r 1 2 [ 34 42 ] 42 [ 33 42 ] 42 [ 33 42 ] 42
r 1 2 [ 34 42 ] 42 [ 33 42 ] 42
r 1 2 [ 34 42 ] 42 [ 33 42 ] 42
x74
r 1 2 [ 34 42 ] 42 [ 33 42 ] 42
r 1 2 [ 34 42 ] 42 [ 33 42 ] 42
r 1 2 [ 34 42 ] 42 [ 33 42 ] 42
r 1 2 [ 34 42 ] 42 [ 33 42 ] 42
x78
r 1 2 [ 34 42 ] 42 [ 33 42 ] 42
r 1 2 [ 34 42 ] 42 [ 33 42 ] 42
r 1 2 [ 34 42 ] 42 [ 33 42 ] 42 [ 33 42 ] 42
r 1 2 [ 34 42 ] 42 [ 33 42 ] 42
r 1 2 [ 34 42 ] 42 [ 33 42 ] 42
x74
r 1 2 [ 34 42 ] 42 [ 33 42 ] 42
r 1 2 [ 34 42 ] 42 [ 33 42 ] 42
r 1 2 [ 34 42 ] 42 [ 33 42 ] 42
r 1 2 [ 34 42 ] 42 [ 33 42 ] 42
x78
r 1 2 [ 34 42 ] 42 [ 33 42 ] 42
r 1 2 [ 34 42 ] 42 [ 33 42 ] 42
r 1 2 [ 34 42 ] 42 [ 33 42 ] 42 [ 33 42 ] 42
r 1 2 [ 34 42 ] 42 [ 33 42 ] 42
r 1 2 [ 34 42 ] 42 [ 33 42 ] 42
x74
r 1 2 [ 34 42 ] 42 [ 33 42 ] 42
r 1 2 [ 34 42 ] 42 [ 33 42 ] 42
r 1 2 [ 34 42 ] 42 [ 33 42 ] 42
r 1 2 [ 34 42 ] 42 [ 33 42 ] 42
x78
r 1 2 [ 34 42 ] 42 [ 33 42 ] 42
r 1 2 [ 34 42 ] 42 [ 33 42 ] 42
r 1 2 [ 34 42 ] 42 [ 33 42 ] 42 [ 33 42 ] 42
r 1 2 [ 34 42 ] 42 [ 33 42 ] 42
r 1 2 [ 34 42 ] 42 [ 33 42 ] 42
x74
r 1 2 [ 34 42 ] 42 [ 33 42 ] 42
r 1 2 [ 34 42 ] 42 [ 33 42 ] 42
r 1 2 [ 34 42 ] 42 [ 33 42 ] 42
r 1 2 [ 34 42 ] 42 [ 33 42 ] 42
x78
r 1 2 [ 34 42 ] 42 [ 33 42 ] 42
r 1 2 [ 34 42 ] 42 [ 33 42 ] 42
r 1 2 [ 34 42 ] 42 [ 33 42 ] 42 [ 33 42 ] 42
r 1 2 [ 34 42 ] 42 [ 33 42 ] 42
r 1 2 [ 34 42 ] 42 [ 33 42 ] 42
x74
r 1 2 [ 34 42 ] 42 [ 33 42 ] 42
r 1 2 [ 34 42 ] 42 [ 33 42 ] 42
r 1 2 [ 34 42 ] 42 [ 33 42 ] 42
r 1 2 [ 34 42 ] 42 [ 33 42 ] 42
x78
r 1 2 [ 34 42 ] 42 [ 33 42 ] 42
r 1 2 [ 34 42 ] 42 [ 33 42 ] 42
r 1 2 [ 34 42 ] 42 [ 33 42 ] 42 [ 33 42 ] 42
r 1 2 [ 34 42 ] 42 [ 33 42 ] 42
r 1 2 [ 34 42 ] 42 [ 33 42 ] 42
x74
r 1 2 [ 34 42 ] 42 [ 33 42 ] 42
r 1 2 [ 34 42 ] 42 [ 33 42 ] 42
r 1 2 [ 34 42 ] 42 [ 33 42 ] 42
r 1 2 [ 34 42 ] 42 [ 33 42 ] 42
x78
r 1 2 [ 34 42 ] 42 [ 33 42 ] 42
r 1 2 [ 34 42 ] 42 [ 33 42 ] 42
r 1 2 [ 34 42 ] 42 [ 33 42 ] 42 [ 33 42 ] 42
r 1 2 [ 34 42 ] 42 [ 33 42 ] 42
r 1 2 [ 34 42 ] 42 [ 33 42 ] 42
x74
r 1 2 [ 34 42 ] 42 [ 33 42 ] 42
r 1 2 [ 34 42 ] 42 [ 33 42 ] 42
r 1 2 [ 34 42 ] 42 [ 33 42 ] 42
r 1 2 [ 34 42 ] 42 [ 33 42 ] 42
x78
r 1 2 [ 34 42 ] 42 [ 33 42 ] 42
r 1 2 [ 34 42 ] 42 [ 33 42 ] 42
r 1 2 [ 34 42 ] 42 [ 33 42 ] 42 [ 33 42 ] 42
r 1 2 [ 34 42 ] 42 [ 33 42 ] 42
r 1 2 [ 34 42 ] 42 [ 33 42 ] 42
x74
r 1 2 [ 34 42 ] 42 [ 33 42 ] 42
r 1 2 [ 34 42 ] 42 [ 33 42 ] 42
r 1 2 [ 34 42 ] 42 [ 33 42 ] 42
r 1 2 [ 34 42 ] 42 [ 33 42 ] 42
x78
r 1 2 [ 34 42 ] 42 [ 33 42 ] 42
r 1 2 [ 34 42 ] 42 [ 33 42 ] 42
r 1 2 [ 34 42 ] 42 [ 33 42 ] 42 [ 33 42 ] 42
r 1 2 [ 34 42 ] 42 [ 33 42 ] 42
r 1 2 [ 34 42 ] 42 [ 33 42 ] 42
x74
r 1 2 [ 34 42 ] 42 [ 33 42 ] 42
r 1 2 [ 34 42 ] 42 [ 33 42 ] 42
r 1 2 [ 34 42 ] 42 [ 33 42 ] 42
r 1 2 [ 34 42 ] 42 [ 33 42 ] 42
x78
r 1 2 [ 34 42 ] 42 [ 33 42 ] 42
r 1 2 [ 34 42 ] 42 [ 33 42 ] 42
r 1 2 [ 34 42 ] 42 [ 33 42 ] 42 [ 33 42 ] 42
r 1 2 [ 34 42 ] 42 [ 33 42 ] 42
r 1 2 [ 34 42 ] 42 [ 33 42 ] 42
x74
r 1 2 [ 34 42 ] 42 [ 33 42 ] 42
r 1 2 [ 34 42 ] 42 [ 33 42 ] 42
r 1 2 [ 34 42 ] 42 [ 33 42 ] 42
r 1 2 [ 34 42 ] 42 [ 33 42 ] 42
x78
r 1 2 [ 34 42 ] 42 [ 33 42 ] 42
r 1 2 [ 34 42 ] 42 [ 33 42 ] 42
r 1 2 [ 34 42 ] 42 [ 33 42 ] 42 [ 33 42 ] 42
r 1 2 [ 34 42 ] 42 [ 33 42 ] 42
r 1 2 [ 34 42 ] 42 [ 33 42 ] 42
x74
r 1 2 [ 34 42 ] 42 [ 33 42 ] 42
r 1 2 [ 34 42 ] 42 [ 33 42 ] 42
r 1 2 [ 34 42 ] 42 [ 33 42 ] 42
r 1 2 [ 34 42 ] 42 [ 33 42 ] 42
x78
r 1 2 [ 34 42 ] 42 [ 33 42 ] 42
r 1 2 [ 34 42 ] 42 [ 33 42 ] 42
r 1 2 [ 34 42 ] 42 [ 33 42 ] 42 [ 33 42 ] 42
r 1 2 [ 34 42 ] 42 [ 33 42 ] 42
r 1 2 [ 34 42 ] 42 [ 33 42 ] 42
x74
r 1 2 [ 34 42 ] 42 [ 33 42 ] 42
r 1 2 [ 34 42 ] 42 [ 33 42 ] 42
r 1 2 [ 34 42 ] 42 [ 33 42 ] 42
r 1 2 [ 34 42 ] 42 [ 33 42 ] 42
x78
r 1 2 [ 34 42 ] 42 [ 33 42 ] 42
r 1 2 [ 34 42 ] 42 [ 33 42 ] 42
r 1 2 [ 34 42 ] 42 [ 33 42 ] 42 [ 33 42 ] 42
r 1 2 [ 34 42 ] 42 [ 33 42 ] 42
r 1 2 [ 34 42 ] 42 [ 33 42 ] 42
x74
r 1 2 [ 34 42 ] 42 [ 33 42 ] 42
r 1 2 [ 34 42 ] 42 [ 33 42 ] 42
r 1 2 [ 34 42 ] 42 [ 33 42 ] 42
r 1 2 [ 34 42 ] 42 [ 33 42 ] 42
x78
r 1 2 [ 34 42 ] 42 [ 33 42 ] 42
r 1 2 [ 34 42 ] 42 [ 33 42 ] 42
r 1 2 [ 34 42 ] 42 [ 33 42 ] 42 [ 33 42 ] 42
r 1 2 [ 34 42 ] 42 [ 33 42 ] 42
r 1 2 [ 34 42 ] 42 [ 33 42 ] 42
x74
r 1 2 [ 34 42 ] 42 [ 33 42 ] 42
r 1 2 [ 34 42 ] 42 [ 33 42 ] 42
r 1 2 [ 34 42 ] 42 [ 33 42 ] 42
r 1 2 [ 34 42 ] 42 [ 33 42 ] 42
x78
r 1 2 [ 34 42 ] 42 [ 33 42 ] 42
r 1 2 [ 34 42 ] 42 [ 33 42 ] 42
r 1 2 [ 34 42 ] 42 [ 33 42 ] 42 [ 33 42 ] 42
r 1 2 [ 34 42 ] 42 [ 33 42 ] 42
r 1 2 [ 34 42 ] 42 [ 33 42 ] 42
x74
r 1 2 [ 34 42 ] 42 [ 33 42 ] 42
r 1 2 [ 34 42 ] 42 [ 33 42 ] 42
r 1 2 [ 34 42 ] 42 [ 33 42 ] 42
r 1 2 [ 34 42 ] 42 [ 33 42 ] 42
x78
r 1 2 [ 34 42 ] 42 [ 33 42 ] 42
r 1 2 [ 34 42 ] 42 [ 33 42 ] 42
r 1 2 [ 34 42 ] 42 [ 33 42 ] 42 [ 33 42 ] 42
r 1 2 [ 34 42 ] 42 [ 33 42 ] 42
r 1 2 [ 34 42 ] 42 [ 33 42 ] 42
x74
r 1 2 [ 34 42 ] 42 [ 33 42 ] 42
r 1 2 [ 34 42 ] 42 [ 33 42 ] 42
r 1 2 [ 34 42 ] 42 [ 33 42 ] 42
r 1 2 [ 34 42 ] 42 [ 33 42 ] 42
x78
r 1 2 [ 34 42 ] 42 [ 33 42 ] 42
r 1 2 [ 34 42 ] 42 [ 33 42 ] 42
r 1 2 [ 34 42 ] 42 [ 33 42 ] 42 [ 33 42 ] 42
r 1 2 [ 34 42 ] 42 [ 33 42 ] 42
r 1 2 [ 34 42 ] 42 [ 33 42 ] 42
x74
r 1 2 [ 34 42 ] 42 [ 33 42 ] 42
r 1 2 [ 34 42 ] 42 [ 33 42 ] 42
r 1 2 [ 34 42 ] 42 [ 33 42 ] 42
r 1 2 [ 34 42 ] 42 [ 33 42 ] 42
x78
r 1 2 [ 34 42 ] 42 [ 33 42 ] 42
r 1 2 [ 34 42 ] 42 [ 33 42 ] 42
r 1 2 [ 34 42 ] 42 [ 33 42 ] 42 [ 33 42 ] 42
r 1 2 [ 34 42 ] 42 [ 33 42 ] 42
r 1 2 [ 34 42 ] 42 [ 33 42 ] 42
x74
r 1 2 [ 34 42 ] 42 [ 33 42 ] 42
r 1 2 [ 34 42 ] 42 [ 33 42 ] 42
r 1 2 [ 34 42 ] 42 [ 33 42 ] 42
r 1 2 [ 34 42 ] 42 [ 33 42 ] 42
x78
r 1 2 [ 34 42 ] 42 [ 33 42 ] 42
r 1 2 [ 34 42 ] 42 [ 33 42 ] 42
r 1 2 [ 34 42 ] 42 [ 33 42 ] 42 [ 33 42 ] 42
r 1 2 [ 34 42 ] 42 [ 33 42 ] 42
r 1 2 [ 34 42 ] 42 [ 33 42 ] 42
x74
r 1 2 [ 34 42 ] 42 [ 33 42 ] 42
r 1 2 [ 34 42 ] 42 [ 33 42 ] 42
r 1 2 [ 34 42 ] 42 [ 33 42 ] 42
r 1 2 [ 34 42 ] 42 [ 33 42 ] 42
x78
r 1 2 [ 34 42 ] 42 [ 33 42 ] 42
r 1 2 [ 34 42 ] 42 [ 33 42 ] 42
r 1 2 [ 34 42 ] 42 [ 33 42 ] 42 [ 33 42 ] 42
r 1 2 [ 34 42 ] 42 [ 33 42 ] 42
r 1 2 [ 34 42 ] 42 [ 33 42 ] 42
x74
r 1 2 [ 34 42 ] 42 [ 33 42 ] 42
r 1 2 [ 34 42 ] 42 [ 33 42 ] 42
r 1 2 [ 34 42 ] 42 [ 33 42 ] 42
r 1 2 [ 34 42 ] 42 [ 33 42 ] 42
x78
r 1 2 [ 34 42 ] 42 [ 33 42 ] 42
r 1 2 [ 34 42 ] 42 [ 33 42 ] 42
r 1 2 [ 34 42 ] 42 [ 33 42 ] 42 [ 33 42 ] 42
r 1 2 [ 34 42 ] 42 [ 33 42 ] 42
r 1 2 [ 34 42 ] 42 [ 33 42 ] 42
x74
r 1 2 [ 34 42 ] 42 [ 33 42 ] 42
r 1 2 [ 34 42 ] 42 [ 33 42 ] 42
r 1 2 [ 34 42 ] 42 [ 33 42 ] 42
r 1 2 [ 34 42 ] 42 [ 33 42 ] 42
x78
r 1 2 [ 34 42 ] 42 [ 33 42 ] 42
r 1 2 [ 34 42 ] 42 [ 33 42 ] 42
r 1 2 [ 34 42 ] 42 [ 33 42 ] 42 [ 33 42 ] 42
r 1 2 [ 34 42 ] 42 [ 33 42 ] 42
r 1 2 [ 34 42 ] 42 [ 33 42 ] 42
x74
r 1 2 [ 34 42 ] 42 [ 33 42 ] 42
r 1 2 [ 34 42 ] 42 [ 33 42 ] 42
r 1 2 [ 34 42 ] 42 [ 33 42 ] 42
r 1 2 [ 34 42 ] 42 [ 33 42 ] 42
x78
r 1 2 [ 34 42 ] 42 [ 33 42 ] 42
r 1 2 [ 34 42 ] 42 [ 33 42 ] 42
r 1 2 [ 34 42 ] 42 [ 33 42 ] 42 [ 33 42 ] 42
r 1 2 [ 34 42 ] 42 [ 33 42 ] 42
r 1 2 [ 34 42 ] 42 [ 33 42 ] 42
x74
r 1 2 [ 34 42 ] 42 [ 33 42 ] 42
r 1 2 [ 34 42 ] 42 [ 33 42 ] 42
r 1 2 [ 34 42 ] 42 [ 33 42 ] 42
r 1 2 [ 34 42 ] 42 [ 33 42 ] 42
x78
r 1 2 [ 34 42 ] 42 [ 33 42 ] 42
r 1 2 [ 34 42 ] 42 [ 33 42 ] 42
r 1 2 [ 34 42 ] 42 [ 33 42 ] 42 [ 33 42 ] 42
r 1 2 [ 34 42 ] 42 [ 33 42 ] 42
r 1 2 [ 34 42 ] 42 [ 33 42 ] 42
x74
r 1 2 [ 34 42 ] 42 [ 33 42 ] 42
r 1 2 [ 34 42 ] 42 [ 33 42 ] 42
r 1 2 [ 34 42 ] 42 [ 33 42 ] 42
r 1 2 [ 34 42 ] 42 [ 33 42 ] 42
x78
r 1 2 [ 34 42 ] 42 [ 33 42 ] 42
r 1 2 [ 34 42 ] 42 [ 33 42 ] 42
r 1 2 [ 34 42 ] 42 [ 33 42 ] 42 [ 33 42 ] 42
r 1 2 [ 34 42 ] 42 [ 33 42 ] 42
r 1 2 [ 34 42 ] 42 [ 33 42 ] 42
x74
r 1 2 [ 34 42 ] 42 [ 33 42 ] 42
r 1 2 [ 34 42 ] 42 [ 33 42 ] 42
r 1 2 [ 34 42 ] 42 [ 33 42 ] 42
r 1 2 [ 34 42 ] 42 [ 33 42 ] 42
x78
r 1 2 [ 34 42 ] 42 [ 33 42 ] 42
r 1 2 [ 34 42 ] 42 [ 33 42 ] 42
r 1 2 [ 34 42 ] 42 [ 33 42 ] 42 [ 33 42 ] 42
r 1 2 [ 34 42 ] 42 [ 33 42 ] 42
r 1 2 [ 34 42 ] 42 [ 33 42 ] 42
x74
r 1 2 [ 34 42 ] 42 [ 33 42 ] 42
r 1 2 [ 34 42 ] 42 [ 33 42 ] 42
r 1 2 [ 34 42 ] 42 [ 33 42 ] 42
r 1 2 [ 34 42 ] 42 [ 33 42 ] 42
x78
r 1 2 [ 34 42 ] 42 [ 33 42 ] 42
r 1 2 [ 34 42 ] 42 [ 33 42 ] 42
r 1 2 [ 34 42 ] 42 [ 33 42 ] 42 [ 33 42 ] 42
r 1 2 [ 34 42 ] 42 [ 33 42 ] 42
r 1 2 [ 34 42 ] 42 [ 33 42 ] 42
x74
r 1 2 [ 34 42 ] 42 [ 33 42 ] 42
r 1 2 [ 34 42 ] 42 [ 33 42 ] 42
r 1 2 [ 34 42 ] 42 [ 33 42 ] 42
r 1 2 [ 34 42 ] 42 [ 33 42 ] 42
x78
r 1 2 [ 34 42 ] 42 [ 33 42 ] 42
r 1 2 [ 34 42 ] 42 [ 33 42 ] 42
r 1 2 [ 34 42 ] 42 [ 33 42 ] 42 [ 33 42 ] 42
r 1 2 [ 34 42 ] 42 [ 33 42 ] 42
r 1 2 [ 34 42 ] 42 [ 33 42 ] 42
x74
r 1 2 [ 34 42 ] 42 [ 33 42 ] 42
r 1 2 [ 34 42 ] 42 [ 33 42 ] 42
r 1 2 [ 34 42 ] 42 [ 33 42 ] 42
r 1 2 [ 34 42 ] 42 [ 33 42 ] 42
x78
r 1 2 [ 34 42 ] 42 [ 33 42 ] 42
r 1 2 [ 34 42 ] 42 [ 33 42 ] 42
r 1 2 [ 34 42 ] 42 [ 33 42 ] 42 [ 33 42 ] 42
r 1 2 [ 34 42 ] 42 [ 33 42 ] 42
r 1 2 [ 34 42 ] 42 [ 33 42 ] 42
x74
r 1 2 [ 34 42 ] 42 [ 33 42 ] 42
r 1 2 [ 34 42 ] 42 [ 33 42 ] 42
r 1 2 [ 34 42 ] 42 [ 33 42 ] 42
r 1 2 [ 34 42 ] 42 [ 33 42 ] 42
x78
r 1 2 [ 34 42 ] 42 [ 33 42 ] 42
r 1 2 [ 34 42 ] 42 [ 33 42 ] 42
r 1 2 [ 34 42 ] 42 [ 33 42 ] 42 [ 33 42 ] 42
r 1 2 [ 34 42 ] 42 [ 33 42 ] 42
r 1 2 [ 34 42 ] 42 [ 33 42 ] 42
x74
r 1 2 [ 34 42 ] 42 [ 33 42 ] 42
r 1 2 [ 34 42 ] 42 [ 33 42 ] 42
r 1 2 [ 34 42 ] 42 [ 33 42 ] 42
r 1 2 [ 34 42 ] 42 [ 33 42 ] 42
x78
r 1 2 [ 34 42 ] 42 [ 33 42 ] 42
r 1 2 [ 34 42 ] 42 [ 33 42 ] 42
r 1 2 [ 34 42 ] 42 [ 33 42 ] 42 [ 33 42 ] 42
r 1 2 [ 34 42 ] 42 [ 33 42 ] 42
r 1 2 [ 34 42 ] 42 [ 33 42 ] 42
x74
r 1 2 [ 34 42 ] 42 [ 33 42 ] 42
r 1 2 [ 34 42 ] 42 [ 33 42 ] 42
r 1 2 [ 34 42 ] 42 [ 33 42 ] 42
r 1 2 [ 34 42 ] 42 [ 33 42 ] 42
x78
r 1 2 [ 34 42 ] 42 [ 33 42 ] 42
r 1 2 [ 34 42 ] 42 [ 33 42 ] 42
r 1 2 [ 34 42 ] 42 [ 33 42 ] 42 [ 33 42 ] 42
r 1 2 [ 34 42 ] 42 [ 33 42 ] 42
r 1 2 [ 34 42 ] 42 [ 33 42 ] 42
x74
r 1 2 [ 34 42 ] 42 [ 33 42 ] 42
r 1 2 [ 34 42 ] 42 [ 33 42 ] 42
r 1 2 [ 34 42 ] 42 [ 33 42 ] 42
r 1 2 [ 34 42 ] 42 [ 33 42 ] 42
x78
r 1 2 [ 34 42 ] 42 [ 33 42 ] 42
r 1 2 [ 34 42 ] 42 [ 33 42 ] 42
r 1 2 [ 34 42 ] 42 [ 33 42 ] 42 [ 33 42 ] 42
r 1 2 [ 34 42 ] 42 [ 33 42 ] 42
r 1 2 [ 34 42 ] 42 [ 33 42 ] 42
x74
r 1 2 [ 34 42 ] 42 [ 33 42 ] 42
r 1 2 [ 34 42 ] 42 [ 33 42 ] 42
r 1 2 [ 34 42 ] 42 [ 33 42 ] 42
r 1 2 [ 34 42 ] 42 [ 33 42 ] 42
x78
r 1 2 [ 34 42 ] 42 [ 33 42 ] 42
r 1 2 [ 34 42 ] 42 [ 33 42 ] 42
r 1 2 [ 34 42 ] 42 [ 33 42 ] 42 [ 33 42 ] 42
r 1 2 [ 34 42 ] 42 [ 33 42 ] 42
r 1 2 [ 34 42 ] 42 [ 33 42 ] 42
x74
r 1 2 [ 34 42 ] 42 [ 33 42 ] 42
r 1 2 [ 34 42 ] 42 [ 33 42 ] 42
r 1 2 [ 34 42 ] 42 [ 33 42 ] 42
r 1 2 [ 34 42 ] 42 [ 33 42 ] 42
x78
r 1 2 [ 34 42 ] 42 [ 33 42 ] 42
r 1 2 [ 34 42 ] 42 [ 33 42 ] 42
r 1 2 [ 34 42 ] 42 [ 33 42 ] 42 [ 33 42 ] 42
r 1 2 [ 34 42 ] 42 [ 33 42 ] 42
r 1 2 [ 34 42 ] 42 [ 33 42 ] 42
x74
r 1 2 [ 34 42 ] 42 [ 33 42 ] 42
r 1 2 [ 34 42 ] 42 [ 33 42 ] 42
r 1 2 [ 34 42 ] 42 [ 33 42 ] 42
r 1 2 [ 34 42 ] 42 [ 33 42 ] 42
x78
r 1 2 [ 34 42 ] 42 [ 33 42 ] 42
r 1 2 [ 34 42 ] 42 [ 33 42 ] 42
r 1 2 [ 34 42 ] 42 [ 33 42 ] 42 [ 33 42 ] 42
r 1 2 [ 34 42 ] 42 [ 33 42 ] 42
r 1 2 [ 34 42 ] 42 [ 33 42 ] 42
x74
r 1 2 [ 34 42 ] 42 [ 33 42 ] 42
r 1 2 [ 34 42 ] 42 [ 33 42 ] 42
r 1 2 [ 34 42 ] 42 [ 33 42 ] 42
r 1 2 [ 34 42 ] 42 [ 33 42 ] 42
x78
r 1 2 [ 34 42 ] 42 [ 33 42 ] 42
r 1 2 [ 34 42 ] 42 [ 33 42 ] 42
r 1 2 [ 34 42 ] 42 [ 33 42 ] 42 [ 33 42 ] 42
r 1 2 [ 34 42 ] 42 [ 33 42 ] 42
r 1 2 [ 34 42 ] 42 [ 33 42 ] 42
x74
r 1 2 [ 34 42 ] 42 [ 33 42 ] 42
r 1 2 [ 34 42 ] 42 [ 33 42 ] 42
r 1 2 [ 34 42 ] 42 [ 33 42 ] 42
r 1 2 [ 34 42 ] 42 [ 33 42 ] 42
x78
r 1 2 [ 34 42 ] 42 [ 33 42 ] 42
r 1 2 [ 34 42 ] 42 [ 33 42 ] 42
r 1 2 [ 34 42 ] 42 [ 33 42 ] 42 [ 33 42 ] 42
r 1 2 [ 34 42 ] 42 [ 33 42 ] 42
r 1 2 [ 34 42 ] 42 [ 33 42 ] 42
x74
r 1 2 [ 34 42 ] 42 [ 33 42 ] 42
r 1 2 [ 34 42 ] 42 [ 33 42 ] 42
r 1 2 [ 34 42 ] 42 [ 33 42 ] 42
r 1 2 [ 34 42 ] 42 [ 33 42 ] 42
x78
r 1 2 [ 34 42 ] 42 [ 33 42 ] 42
r 1 2 [ 34 42 ] 42 [ 33 42 ] 42
r 1 2 [ 34 42 ] 42 [ 33 42 ] 42 [ 33 42 ] 42
r 1 2 [ 34 42 ] 42 [ 33 42 ] 42
r 1 2 [ 34 42 ] 42 [ 33 42 ] 42
x74
r 1 2 [ 34 42 ] 42 [ 33 42 ] 42
r 1 2 [ 34 42 ] 42 [ 33 42 ] 42
r 1 2 [ 34 42 ] 42 [ 33 42 ] 42
r 1 2 [ 34 42 ] 42 [ 33 42 ] 42
x78
r 1 2 [ 34 42 ] 42 [ 33 42 ] 42
r 1 2 [ 34 42 ] 42 [ 33 42 ] 42
r 1 2 [ 34 42 ] 42 [ 33 42 ] 42 [ 33 42 ] 42
r 1 2 [ 34 42 ] 42 [ 33 42 ] 42
r 1 2 [ 34 42 ] 42 [ 33 42 ] 42
x74
r 1 2 [ 34 42 ] 42 [ 33 42 ] 42
r 1 2 [ 34 42 ] 42 [ 33 42 ] 42
r 1 2 [ 34 42 ] 42 [ 33 42 ] 42
r 1 2 [ 34 42 ] 42 [ 33 42 ] 42
x78
r 1 2 [ 34 42 ] 42 [ 33 42 ] 42
r 1 2 [ 34 42 ] 42 [ 33 42 ] 42
r 1 2 [ 34 42 ] 42 [ 33 42 ] 42 [ 33 42 ] 42
r 1 2 [ 34 42 ] 42 [ 33 42 ] 42
r 1 2 [ 34 42 ] 42 [ 33 42 ] 42
x74
r 1 2 [ 34 42 ] 42 [ 33 42 ] 42
r 1 2 [ 34 42 ] 42 [ 33 42 ] 42
r 1 2 [ 34 42 ] 42 [ 33 42 ] 42
r 1 2 [ 34 42 ] 42 [ 33 42 ] 42
x78
r 1 2 [ 34 42 ] 42 [ 33 42 ] 42
r 1 2 [ 34 42 ] 42 [ 33 42 ] 42
r 1 2 [ 34 42 ] 42 [ 33 42 ] 42 [ 33 42 ] 42
r 1 2 [ 34 42 ] 42 [ 33 42 ] 42
r 1 2 [ 34 42 ] 42 [ 33 42 ] 42
x74
r 1 2 [ 34 42 ] 42 [ 33 42 ] 42
r 1 2 [ 34 42 ] 42 [ 33 42 ] 42
r 1 2 [ 34 42 ] 42 [ 33 42 ] 42
r 1 2 [ 34 42 ] 42 [ 33 42 ] 42
x78
r 1 2 [ 34 42 ] 42 [ 33 42 ] 42
r 1 2 [ 34 42 ] 42 [ 33 42 ] 42
r 1 2 [ 34 42 ] 42 [ 33 42 ] 42 [ 33 42 ] 42
r 1 2 [ 34 42 ] 42 [ 33 42 ] 42
r 1 2 [ 34 42 ] 42 [ 33 42 ] 42
x74
r 1 2 [ 34 42 ] 42 [ 33 42 ] 42
r 1 2 [ 34 42 ] 42 [ 33 42 ] 42
r 1 2 [ 34 42 ] 42 [ 33 42 ] 42
r 1 2 [ 34 42 ] 42 [ 33 42 ] 42
x78
r 1 2 [ 34 42 ] 42 [ 33 42 ] 42
r 1 2 [ 34 42 ] 42 [ 33 42 ] 42
r 1 2 [ 34 42 ] 42 [ 33 42 ] 42 [ 33 42 ] 42
r 1 2 [ 34 42 ] 42 [ 33 42 ] 42
r 1 2 [ 34 42 ] 42 [ 33 42 ] 42
x74
r 1 2 [ 34 42 ] 42 [ 33 42 ] 42
r 1 2 [ 34 42 ] 42 [ 33 42 ] 42
r 1 2 [ 34 42 ] 42 [ 33 42 ] 42
r 1 2 [ 34 42 ] 42 [ 33 42 ] 42
x78
r 1 2 [ 34 42 ] 42 [ 33 42 ] 42
r 1 2 [ 34 42 ] 42 [ 33 42 ] 42
r 1 2 [ 34 42 ] 42 [ 33 42 ] 42 [ 33 42 ] 42
r 1 2 [ 34 42 ] 42 [ 33 42 ] 42
r 1 2 [ 34 42 ] 42 [ 33 42 ] 42
x74
r 1 2 [ 34 42 ] 42 [ 33 42 ] 42
r 1 2 [ 34 42 ] 42 [ 33 42 ] 42
r 1 2 [ 34 42 ] 42 [ 33 42 ] 42
r 1 2 [ 34 42 ] 42 [ 33 42 ] 42
x78
r 1 2 [ 34 42 ] 42 [ 33 42 ] 42
r 1 2 [ 34 42 ] 42 [ 33 42 ] 42
r 1 2 [ 34 42 ] 42 [ 33 42 ] 42 [ 33 42 ] 42
r 1 2 [ 34 42 ] 42 [ 33 42 ] 42
r 1 2 [ 34 42 ] 42 [ 33 42 ] 42
x74
r 1 2 [ 34 42 ] 42 [ 33 42 ] 42
r 1 2 [ 34 42 ] 42 [ 33 42 ] 42
r 1 2 [ 34 42 ] 42 [ 33 42 ] 42
r 1 2 [ 34 42 ] 42 [ 33 42 ] 42
x78
r 1 2 [ 34 42 ] 42 [ 33 42 ] 42
r 1 2 [ 34 42 ] 42 [ 33 42 ] 42
r 1 2 [ 34 42 ] 42 [ 33 42 ] 42 [ 33 42 ] 42
r 1 2 [ 34 42 ] 42 [ 33 42 ] 42
r 1 2 [ 34 42 ] 42 [ 33 42 ] 42
x74
r 1 2 [ 34 42 ] 42 [ 33 42 ] 42
r 1 2 [ 34 42 ] 42 [ 33 42 ] 42
r 1 2 [ 34 42 ] 42 [ 33 42 ] 42
r 1 2 [ 34 42 ] 42 [ 33 42 ] 42
x78
r 1 2 [ 34 42 ] 42 [ 33 42 ] 42
r 1 2 [ 34 42 ] 42 [ 33 42 ] 42
r 1 2 [ 34 42 ] 42 [ 33 42 ] 42 [ 33 42 ] 42
r 1 2 [ 34 42 ] 42 [ 33 42 ] 42
r 1 2 [ 34 42 ] 42 [ 33 42 ] 42
x74
r 1 2 [ 34 42 ] 42 [ 33 42 ] 42
r 1 2 [ 34 42 ] 42 [ 33 42 ] 42
r 1 2 [ 34 42 ] 42 [ 33 42 ] 42
r 1 2 [ 34 42 ] 42 [ 33 42 ] 42
x78
r 1 2 [ 34 42 ] 42 [ 33 42 ] 42
r 1 2 [ 34 42 ] 42 [ 33 42 ] 42
r 1 2 [ 34 42 ] 42 [ 33 42 ] 42 [ 33 42 ] 42
r 1 2 [ 34 42 ] 42 [ 33 42 ] 42
r 1 2 [ 34 42 ] 42 [ 33 42 ] 42
x74
r 1 2 [ 34 42 ] 42 [ 33 42 ] 42
r 1 2 [ 34 42 ] 42 [ 33 42 ] 42
r 1 2 [ 34 42 ] 42 [ 33 42 ] 42
r 1 2 [ 34 42 ] 42 [ 33 42 ] 42
x78
r 1 2 [ 34 42 ] 42 [ 33 42 ] 42
r 1 2 [ 34 42 ] 42 [ 33 42 ] 42
r 1 2 [ 34 42 ] 42 [ 33 42 ] 42 [ 33 42 ] 42
r 1 2 [ 34 42 ] 42 [ 33 42 ] 42
r 1 2 [ 34 42 ] 42 [ 33 42 ] 42
x74
r 1 2 [ 34 42 ] 42 [ 33 42 ] 42
r 1 2 [ 34 42 ] 42 [ 33 42 ] 42
r 1 2 [ 34 42 ] 42 [ 33 42 ] 42
r 1 2 [ 34 42 ] 42 [ 33 42 ] 42
x78
r 1 2 [ 34 42 ] 42 [ 33 42 ] 42
r 1 2 [ 34 42 ] 42 [ 33 42 ] 42
r 1 2 [ 34 42 ] 42 [ 33 42 ] 42 [ 33 42 ] 42
r 1 2 [ 34 42 ] 42 [ 33 42 ] 42
r 1 2 [ 34 42 ] 42 [ 33 42 ] 42
x74
r 1 2 [ 34 42 ] 42 [ 33 42 ] 42
r 1 2 [ 34 42 ] 42 [ 33 42 ] 42
r 1 2 [ 34 42 ] 42 [ 33 42 ] 42
r 1 2 [ 34 42 ] 42 [ 33 42 ] 42
x78
r 1 2 [ 34 42 ] 42 [ 33 42 ] 42
r 1 2 [ 34 42 ] 42 [ 33 42 ] 42
r 1 2 [ 34 42 ] 42 [ 33 42 ] 42 [ 33 42 ] 42
r 1 2 [ 34 42 ] 42 [ 33 42 ] 42
r 1 2 [ 34 42 ] 42 [ 33 42 ] 42
x74
r 1 2 [ 34 42 ] 42 [ 33 42 ] 42
r 1 2 [ 34 42 ] 42 [ 33 42 ] 42
r 1 2 [ 34 42 ] 42 [ 33 42 ] 42
r 1 2 [ 34 42 ] 42 [ 33 42 ] 42
x78
r 1 2 [ 34 42 ] 42 [ 33 42 ] 42
r 1 2 [ 34 42 ] 42 [ 33 42 ] 42
r 1 2 [ 34 42 ] 42 [ 33 42 ] 42 [ 33 42 ] 42
r 1 2 [ 34 42 ] 42 [ 33 42 ] 42
r 1 2 [ 34 42 ] 42 [ 33 42 ] 42
x74
r 1 2 [ 34 42 ] 42 [ 33 42 ] 42
r 1 2 [ 34 42 ] 42 [ 33 42 ] 42
r 1 2 [ 34 42 ] 42 [ 33 42 ] 42
r 1 2 [ 34 42 ] 42 [ 33 42 ] 42
x78
r 1 2 [ 34 42 ] 42 [ 33 42 ] 42
r 1 2 [ 34 42 ] 42 [ 33 42 ] 42
r 1 2 [ 34 42 ] 42 [ 33 42 ] 42 [ 33 42 ] 42
r 1 2 [ 34 42 ] 42 [ 33 42 ] 42
r 1 2 [ 34 42 ] 42 [ 33 42 ] 42
x74
r 1 2 [ 34 42 ] 42 [ 33 42 ] 42
r 1 2 [ 34 42 ] 42 [ 33 42 ] 42
r 1 2 [ 34 42 ] 42 [ 33 42 ] 42
r 1 2 [ 34 42 ] 42 [ 33 42 ] 42
x78
r 1 2 [ 34 42 ] 42 [ 33 42 ] 42
r 1 2 [ 34 42 ] 42 [ 33 42 ] 42
r 1 2 [ 34 42 ] 42 [ 33 42 ] 42 [ 33 42 ] 42
r 1 2 [ 34 42 ] 42 [ 33 42 ] 42
r 1 2 [ 34 42 ] 42 [ 33 42 ] 42
x74
r 1 2 [ 34 42 ] 42 [ 33 42 ] 42
r 1 2 [ 34 42 ] 42 [ 33 42 ] 42
r 1 2 [ 34 42 ] 42 [ 33 42 ] 42
r 1 2 [ 34 42 ] 42 [ 33 42 ] 42
x78
r 1 2 [ 34 42 ] 42 [ 33 42 ] 42
r 1 2 [ 34 42 ] 42 [ 33 42 ] 42
r 1 2 [ 34 42 ] 42 [ 33 42 ] 42 [ 33 42 ] 42
r 1 2 [ 34 42 ] 42 [ 33 42 ] 42
r 1 2 [ 34 42 ] 42 [ 33 42 ] 42
x74
r 1 2 [ 34 42 ] 42 [ 33 42 ] 42
r 1 2 [ 34 42 ] 42 [ 33 42 ] 42
r 1 2 [ 34 42 ] 42 [ 33 42 ] 42
r 1 2 [ 34 42 ] 42 [ 33 42 ] 42
x78
r 1 2 [ 34 42 ] 42 [ 33 42 ] 42
r 1 2 [ 34 42 ] 42 [ 33 42 ] 42
r 1 2 [ 34 42 ] 42 [ 33 42 ] 42 [ 33 42 ] 42
r 1 2 [ 34 42 ] 42 [ 33 42 ] 42
r 1 2 [ 34 42 ] 42 [ 33 42 ] 42
x74
r 1 2 [ 34 42 ] 42 [ 33 42 ] 42
r 1 2 [ 34 42 ] 42 [ 33 42 ] 42
r 1 2 [ 34 42 ] 42 [ 33 42 ] 42
r 1 2 [ 34 42 ] 42 [ 33 42 ] 42
x78
r 1 2 [ 34 42 ] 42 [ 33 42 ] 42
r 1 2 [ 34 42 ] 42 [ 33 42 ] 42
r 1 2 [ 34 42 ] 42 [ 33 42 ] 42 [ 33 42 ] 42
r 1 2 [ 34 42 ] 42 [ 33 42 ] 42
r 1 2 [ 34 42 ] 42 [ 33 42 ] 42
x74
r 1 2 [ 34 42 ] 42 [ 33 42 ] 42
r 1 2 [ 34 42 ] 42 [ 33 42 ] 42
r 1 2 [ 34 42 ] 42 [ 33 42 ] 42
r 1 2 [ 34 42 ] 42 [ 33 42 ] 42
x78
r 1 2 [ 34 42 ] 42 [ 33 42 ] 42
r 1 2 [ 34 42 ] 42 [ 33 42 ] 42
r 1 2 [ 34 42 ] 42 [ 33 42 ] 42 [ 33 42 ] 42
r 1 2 [ 34 42 ] 42 [ 33 42 ] 42
r 1 2 [ 34 42 ] 42 [ 33 42 ] 42
x74
r 1 2 [ 34 42 ] 42 [ 33 42 ] 42
r 1 2 [ 34 42 ] 42 [ 33 42 ] 42
r 1 2 [ 34 42 ] 42 [ 33 42 ] 42
r 1 2 [ 34 42 ] 42 [ 33 42 ] 42
x78
r 1 2 [ 34 42 ] 42 [ 33 42 ] 42
r 1 2 [ 34 42 ] 42 [ 33 42 ] 42
r 1 2 [ 34 42 ] 42 [ 33 42 ] 42 [ 33 42 ] 42
r 1 2 [ 34 42 ] 42 [ 33 42 ] 42
r 1 2 [ 34 42 ] 42 [ 33 42 ] 42
x74
r 1 2 [ 34 42 ] 42 [ 33 42 ] 42
r 1 2 [ 34 42 ] 42 [ 33 42 ] 42
r 1 2 [ 34 42 ] 42 [ 33 42 ] 42
r 1 2 [ 34 42 ] 42 [ 33 42 ] 42
x78
r 1 2 [ 34 42 ] 42 [ 33 42 ] 42
r 1 2 [ 34 42 ] 42 [ 33 42 ] 42
r 1 2 [ 34 42 ] 42 [ 33 42 ] 42 [ 33 42 ] 42
r 1 2 [ 34 42 ] 42 [ 33 42 ] 42
r 1 2 [ 34 42 ] 42 [ 33 42 ] 42
x74
r 1 2 [ 34 42 ] 42 [ 33 42 ] 42
r 1 2 [ 34 42 ] 42 [ 33 42 ] 42
r 1 2 [ 34 42 ] 42 [ 33 42 ] 42
r 1 2 [ 34 42 ] 42 [ 33 42 ] 42
x78
r 1 2 [ 34 42 ] 42 [ 33 42 ] 42
r 1 2 [ 34 42 ] 42 [ 33 42 ] 42
r 1 2 [ 34 42 ] 42 [ 33 42 ] 42 [ 33 42 ] 42
r 1 2 [ 34 42 ] 42 [ 33 42 ] 42
r 1 2 [ 34 42 ] 42 [ 33 42 ] 42
x74
r 1 2 [ 34 42 ] 42 [ 33 42 ] 42
r 1 2 [ 34 42 ] 42 [ 33 42 ] 42
r 1 2 [ 34 42 ] 42 [ 33 42 ] 42
r 1 2 [ 34 42 ] 42 [ 33 42 ] 42
x78
r 1 2 [ 34 42 ] 42 [ 33 42 ] 42
r 1 2 [ 34 42 ] 42 [ 33 42 ] 42
r 1 2 [ 34 42 ] 42 [ 33 42 ] 42 [ 33 42 ] 42
r 1 2 [ 34 42 ] 42 [ 33 42 ] 42
r 1 2 [ 34 42 ] 42 [ 33 42 ] 42
x74
r 1 2 [ 34 42 ] 42 [ 33 42 ] 42
r 1 2 [ 34 42 ] 42 [ 33 42 ] 42
r 1 2 [ 34 42 ] 42 [ 33 42 ] 42
r 1 2 [ 34 42 ] 42 [ 33 42 ] 42
x78
r 1 2 [ 34 42 ] 42 [ 33 42 ] 42
r 1 2 [ 34 42 ] 42 [ 33 42 ] 42
r 1 2 [ 34 42 ] 42 [ 33 42 ] 42 [ 33 42 ] 42
r 1 2 [ 34 42 ] 42 [ 33 42 ] 42
r 1 2 [ 34 42 ] 42 [ 33 42 ] 42
x74
r 1 2 [ 34 42 ] 42 [ 33 42 ] 42
r 1 2 [ 34 42 ] 42 [ 33 42 ] 42
r 1 2 [ 34 42 ] 42 [ 33 42 ] 42
r 1 2 [ 34 42 ] 42 [ 33 42 ] 42
x78
r 1 2 [ 34 42 ] 42 [ 33 42 ] 42
r 1 2 [ 34 42 ] 42 [ 33 42 ] 42
r 1 2 [ 34 42 ] 42 [ 33 42 ] 42 [ 33 42 ] 42
r 1 2 [ 34 42 ] 42 [ 33 42 ] 42
r 1 2 [ 34 42 ] 42 [ 33 42 ] 42
x74
r 1 2 [ 34 42 ] 42 [ 33 42 ] 42
r 1 2 [ 34 42 ] 42 [ 33 42 ] 42
r 1 2 [ 34 42 ] 42 [ 33 42 ] 42
r 1 2 [ 34 42 ] 42 [ 33 42 ] 42
x78
r 1 2 [ 34 42 ] 42 [ 33 42 ] 42
r 1 2 [ 34 42 ] 42 [ 33 42 ] 42
r 1 2 [ 34 42 ] 42 [ 33 42 ] 42 [ 33 42 ] 42
r 1 2 [ 34 42 ] 42 [ 33 42 ] 42
r 1 2 [ 34 42 ] 42 [ 33 42 ] 42
x74
r 1 2 [ 34 42 ] 42 [ 33 42 ] 42
r 1 2 [ 34 42 ] 42 [ 33 42 ] 42
r 1 2 [ 34 42 ] 42 [ 33 42 ] 42
r 1 2 [ 34 42 ] 42 [ 33 42 ] 42
x78
r 1 2 [ 34 42 ] 42 [ 33 42 ] 42
r 1 2 [ 34 42 ] 42 [ 33 42 ] 42
r 1 2 [ 34 42 ] 42 [ 33 42 ] 42 [ 33 42 ] 42
r 1 2 [ 34 42 ] 42 [ 33 42 ] 42
r 1 2 [ 34 42 ] 42 [ 33 42 ] 42
x74
r 1 2 [ 34 42 ] 42 [ 33 42 ] 42
r 1 2 [ 34 42 ] 42 [ 33 42 ] 42
r 1 2 [ 34 42 ] 42 [ 33 42 ] 42
r 1 2 [ 34 42 ] 42 [ 33 42 ] 42
x78
r 1 2 [ 34 42 ] 42 [ 33 42 ] 42
r 1 2 [ 34 42 ] 42 [ 33 42 ] 42
r 1 2 [ 34 42 ] 42 [ 33 42 ] 42 [ 33 42 ] 42
r 1 2 [ 34 42 ] 42 [ 33 42 ] 42
r 1 2 [ 34 42 ] 42 [ 33 42 ] 42
x74
r 1 2 [ 34 42 ] 42 [ 33 42 ] 42
r 1 2 [ 34 42 ] 42 [ 33 42 ] 42
r 1 2 [ 34 42 ] 42 [ 33 42 ] 42
r 1 2 [ 34 42 ] 42 [ 33 42 ] 42
x78
r 1 2 [ 34 42 ] 42 [ 33 42 ] 42
r 1 2 [ 34 42 ] 42 [ 33 42 ] 42
r 1 2 [ 34 42 ] 42 [ 33 42 ] 42 [ 33 42 ] 42
r 1 2 [ 34 42 ] 42 [ 33 42 ] 42
r 1 2 [ 34 42 ] 42 [ 33 42 ] 42
x74
r 1 2 [ 34 42 ] 42 [ 33 42 ] 42
r 1 2 [ 34 42 ] 42 [ 33 42 ] 42
r 1 2 [ 34 42 ] 42 [ 33 42 ] 42
r 1 2 [ 34 42 ] 42 [ 33 42 ] 42
x78
r 1 2 [ 34 42 ] 42 [ 33 42 ] 42
r 1 2 [ 34 42 ] 42 [ 33 42 ] 42
r 1 2 [ 34 42 ] 42 [ 33 42 ] 42 [ 33 42 ] 42
r 1 2 [ 34 42 ] 42 [ 33 42 ] 42
r 1 2 [ 34 42 ] 42 [ 33 42 ] 42
x74
r 1 2 [ 34 42 ] 42 [ 33 42 ] 42
r 1 2 [ 34 42 ] 42 [ 33 42 ] 42
r 1 2 [ 34 42 ] 42 [ 33 42 ] 42
r 1 2 [ 34 42 ] 42 [ 33 42 ] 42
x78
r 1 2 [ 34 42 ] 42 [ 33 42 ] 42
r 1 2 [ 34 42 ] 42 [ 33 42 ] 42
r 1 2 [ 34 42 ] 42 [ 33 42 ] 42 [ 33 42 ] 42
r 1 2 [ 34 42 ] 42 [ 33 42 ] 42
r 1 2 [ 34 42 ] 42 [ 33 42 ] 42
x74
r 1 2 [ 34 42 ] 42 [ 33 42 ] 42
r 1 2 [ 34 42 ] 42 [ 33 42 ] 42
r 1 2 [ 34 42 ] 42 [ 33 42 ] 42
r 1 2 [ 34 42 ] 42 [ 33 42 ] 42
x78
r 1 2 [ 34 42 ] 42 [ 33 42 ] 42
r 1 2 [ 34 42 ] 42 [ 33 42 ] 42
r 1 2 [ 34 42 ] 42 [ 33 42 ] 42 [ 33 42 ] 42
r 1 2 [ 34 42 ] 42 [ 33 42 ] 42
r 1 2 [ 34 42 ] 42 [ 33 42 ] 42
x74
r 1 2 [ 34 42 ] 42 [ 33 42 ] 42
r 1 2 [ 34 42 ] 42 [ 33 42 ] 42
r 1 2 [ 34 42 ] 42 [ 33 42 ] 42
r 1 2 [ 34 42 ] 42 [ 33 42 ] 42
x78
r 1 2 [ 34 42 ] 42 [ 33 42 ] 42
r 1 2 [ 34 42 ] 42 [ 33 42 ] 42
r 1 2 [ 34 42 ] 42 [ 33 42 ] 42 [ 33 42 ] 42
r 1 2 [ 34 42 ] 42 [ 33 42 ] 42
r 1 2 [ 34 42 ] 42 [ 33 42 ] 42
x74
r 1 2 [ 34 42 ] 42 [ 33 42 ] 42
r 1 2 [ 34 42 ] 42 [ 33 42 ] 42
r 1 2 [ 34 42 ] 42 [ 33 42 ] 42
r 1 2 [ 34 42 ] 42 [ 33 42 ] 42
x78
r 1 2 [ 34 42 ] 42 [ 33 42 ] 42
r 1 2 [ 34 42 ] 42 [ 33 42 ] 42
r 1 2 [ 34 42 ] 42 [ 33 42 ] 42 [ 33 42 ] 42
r 1 2 [ 34 42 ] 42 [ 33 42 ] 42
r 1 2 [ 34 42 ] 42 [ 33 42 ] 42
x74
r 1 2 [ 34 42 ] 42 [ 33 42 ] 42
r 1 2 [ 34 42 ] 42 [ 33 42 ] 42
r 1 2 [ 34 42 ] 42 [ 33 42 ] 42
r 1 2 [ 34 42 ] 42 [ 33 42 ] 42
x78
r 1 2 [ 34 42 ] 42 [ 33 42 ] 42
r 1 2 [ 34 42 ] 42 [ 33 42 ] 42
r 1 2 [ 34 42 ] 42 [ 33 42 ] 42 [ 33 42 ] 42
r 1 2 [ 34 42 ] 42 [ 33 42 ] 42
r 1 2 [ 34 42 ] 42 [ 33 42 ] 42
x74
r 1 2 [ 34 42 ] 42 [ 33 42 ] 42
r 1 2 [ 34 42 ] 42 [ 33 42 ] 42
r 1 2 [ 34 42 ] 42 [ 33 42 ] 42
r 1 2 [ 34 42 ] 42 [ 33 42 ] 42
x78
r 1 2 [ 34 42 ] 42 [ 33 42 ] 42
r 1 2 [ 34 42 ] 42 [ 33 42 ] 42
r 1 2 [ 34 42 ] 42 [ 33 42 ] 42 [ 33 42 ] 42
r 1 2 [ 34 42 ] 42 [ 33 42 ] 42
r 1 2 [ 34 42 ] 42 [ 33 42 ] 42
x74
r 1 2 [ 34 42 ] 42 [ 33 42 ] 42
r 1 2 [ 34 42 ] 42 [ 33 42 ] 42
r 1 2 [ 34 42 ] 42 [ 33 42 ] 42
r 1 2 [ 34 42 ] 42 [ 33 42 ] 42
x78
r 1 2 [ 34 42 ] 42 [ 33 42 ] 42
r 1 2 [ 34 42 ] 42 [ 33 42 ] 42
r 1 2 [ 34 42 ] 42 [ 33 42 ] 42 [ 33 42 ] 42
r 1 2 [ 34 42 ] 42 [ 33 42 ] 42
r 1 2 [ 34 42 ] 42 [ 33 42 ] 42
x74
r 1 2 [ 34 42 ] 42 [ 33 42 ] 42
r 1 2 [ 34 42 ] 42 [ 33 42 ] 42
r 1 2 [ 34 42 ] 42 [ 33 42 ] 42
r 1 2 [ 34 42 ] 42 [ 33 42 ] 42
x78
r 1 2 [ 34 42 ] 42 [ 33 42 ] 42
r 1 2 [ 34 42 ] 42 [ 33 42 ] 42
r 1 2 [ 34 42 ] 42 [ 33 42 ] 42 [ 33 42 ] 42
r 1 2 [ 34 42 ] 42 [ 33 42 ] 42
r 1 2 [ 34 42 ] 42 [ 33 42 ] 42
x74
r 1 2 [ 34 42 ] 42 [ 33 42 ] 42
r 1 2 [ 34 42 ] 42 [ 33 42 ] 42
r 1 2 [ 34 42 ] 42 [ 33 42 ] 42
r 1 2 [ 34 42 ] 42 [ 33 42 ] 42
x78
r 1 2 [ 34 42 ] 42 [ 33 42 ] 42
r 1 2 [ 34 42 ] 42 [ 33 42 ] 42
r 1 2 [ 34 42 ] 42 [ 33 42 ] 42 [ 33 42 ] 42
r 1 2 [ 34 42 ] 42 [ 33 42 ] 42
r 1 2 [ 34 42 ] 42 [ 33 42 ] 42
x74
r 1 2 [ 34 42 ] 42 [ 33 42 ] 42
r 1 2 [ 34 42 ] 42 [ 33 42 ] 42
r 1 2 [ 34 42 ] 42 [ 33 42 ] 42
r 1 2 [ 34 42 ] 42 [ 33 42 ] 42
x78
r 1 2 [ 34 42 ] 42 [ 33 42 ] 42
r 1 2 [ 34 42 ] 42 [ 33 42 ] 42
r 1 2 [ 34 42 ] 42 [ 33 42 ] 42 [ 33 42 ] 42
r 1 2 [ 34 42 ] 42 [ 33 42 ] 42
r 1 2 [ 34 42 ] 42 [ 33 42 ] 42
x74
r 1 2 [ 34 42 ] 42 [ 33 42 ] 42
r 1 2 [ 34 42 ] 42 [ 33 42 ] 42
r 1 2 [ 34 42 ] 42 [ 33 42 ] 42
r 1 2 [ 34 42 ] 42 [ 33 42 ] 42
x78
r 1 2 [ 34 42 ] 42 [ 33 42 ] 42
r 1 2 [ 34 42 ] 42 [ 33 42 ] 42
r 1 2 [ 34 42 ] 42 [ 33 42 ] 42 [ 33 42 ] 42
r 1 2 [ 34 42 ] 42 [ 33 42 ] 42
r 1 2 [ 34 42 ] 42 [ 33 42 ] 42
x74
r 1 2 [ 34 42 ] 42 [ 33 42 ] 42
r 1 2 [ 34 42 ] 42 [ 33 42 ] 42
r 1 2 [ 34 42 ] 42 [ 33 42 ] 42
r 1 2 [ 34 42 ] 42 [ 33 42 ] 42
x78
r 1 2 [ 34 42 ] 42 [ 33 42 ] 42
r 1 2 [ 34 42 ] 42 [ 33 42 ] 42
r 1 2 [ 34 42 ] 42 [ 33 42 ] 42 [ 33 42 ] 42
r 1 2 [ 34 42 ] 42 [ 33 42 ] 42
r 1 2 [ 34 42 ] 42 [ 33 42 ] 42
x74
r 1 2 [ 34 42 ] 42 [ 33 42 ] 42
r 1 2 [ 34 42 ] 42 [ 33 42 ] 42
r 1 2 [ 34 42 ] 42 [ 33 42 ] 42
r 1 2 [ 34 42 ] 42 [ 33 42 ] 42
x78
r 1 2 [ 34 42 ] 42 [ 33 42 ] 42
r 1 2 [ 34 42 ] 42 [ 33 42 ] 42
r 1 2 [ 34 42 ] 42 [ 33 42 ] 42 [ 33 42 ] 42
r 1 2 [ 34 42 ] 42 [ 33 42 ] 42
r 1 2 [ 34 42 ] 42 [ 33 42 ] 42
x74
r 1 2 [ 34 42 ] 42 [ 33 42 ] 42
r 1 2 [ 34 42 ] 42 [ 33 42 ] 42
r 1 2 [ 34 42 ] 42 [ 33 42 ] 42
r 1 2 [ 34 42 ] 42 [ 33 42 ] 42
x78
r 1 2 [ 34 42 ] 42 [ 33 42 ] 42
r 1 2 [ 34 42 ] 42 [ 33 42 ] 42
r 1 2 [ 34 42 ] 42 [ 33 42 ] 42 [ 33 42 ] 42
r 1 2 [ 34 42 ] 42 [ 33 42 ] 42
r 1 2 [ 34 42 ] 42 [ 33 42 ] 42
x74
r 1 2 [ 34 42 ] 42 [ 33 42 ] 42
r 1 2 [ 34 42 ] 42 [ 33 42 ] 42
r 1 2 [ 34 42 ] 42 [ 33 42 ] 42
r 1 2 [ 34 42 ] 42 [ 33 42 ] 42
x78
r 1 2 [ 34 42 ] 42 [ 33 42 ] 42
r 1 2 [ 34 42 ] 42 [ 33 42 ] 42
r 1 2 [ 34 42 ] 42 [ 33 42 ] 42 [ 33 42 ] 42
r 1 2 [ 34 42 ] 42 [ 33 42 ] 42
r 1 2 [ 34 42 ] 42 [ 33 42 ] 42
x74
r 1 2 [ 34 42 ] 42 [ 33 42 ] 42
r 1 2 [ 34 42 ] 42 [ 33 42 ] 42
r 1 2 [ 34 42 ] 42 [ 33 42 ] 42
r 1 2 [ 34 42 ] 42 [ 33 42 ] 42
x78
r 1 2 [ 34 42 ] 42 [ 33 42 ] 42
r 1 2 [ 34 42 ] 42 [ 33 42 ] 42
r 1 2 [ 34 42 ] 42 [ 33 42 ] 42 [ 33 42 ] 42
r 1 2 [ 34 42 ] 42 [ 33 42 ] 42
r 1 2 [ 34 42 ] 42 [ 33 42 ] 42
x74
r 1 2 [ 34 42 ] 42 [ 33 42 ] 42
r 1 2 [ 34 42 ] 42 [ 33 42 ] 42
r 1 2 [ 34 42 ] 42 [ 33 42 ] 42
r 1 2 [ 34 42 ] 42 [ 33 42 ] 42
x78
r 1 2 [ 34 42 ] 42 [ 33 42 ] 42
r 1 2 [ 34 42 ] 42 [ 33 42 ] 42
r 1 2 [ 34 42 ] 42 [ 33 42 ] 42 [ 33 42 ] 42
r 1 2 [ 34 42 ] 42 [ 33 42 ] 42
r 1 2 [ 34 42 ] 42 [ 33 42 ] 42
x74
r 1 2 [ 34 42 ] 42 [ 33 42 ] 42
r 1 2 [ 34 42 ] 42 [ 33 42 ] 42
r 1 2 [ 34 42 ] 42 [ 33 42 ] 42
r 1 2 [ 34 42 ] 42 [ 33 42 ] 42
x78
r 1 2 [ 34 42 ] 42 [ 33 42 ] 42
r 1 2 [ 34 42 ] 42 [ 33 42 ] 42
r 1 2 [ 34 42 ] 42 [ 33 42 ] 42 [ 33 42 ] 42
r 1 2 [ 34 42 ] 42 [ 33 42 ] 42
r 1 2 [ 34 42 ] 42 [ 33 42 ] 42
x74
r 1 2 [ 34 42 ] 42 [ 33 42 ] 42
r 1 2 [ 34 42 ] 42 [ 33 42 ] 42
r 1 2 [ 34 42 ] 42 [ 33 42 ] 42
r 1 2 [ 34 42 ] 42 [ 33 42 ] 42
x78
r 1 2 [ 34 42 ] 42 [ 33 42 ] 42
r 1 2 [ 34 42 ] 42 [ 33 42 ] 42
r 1 2 [ 34 42 ] 42 [ 33 42 ] 42 [ 33 42 ] 42
r 1 2 [ 34 42 ] 42 [ 33 42 ] 42
r 1 2 [ 34 42 ] 42 [ 33 42 ] 42
x74
r 1 2 [ 34 42 ] 42 [ 33 42 ] 42
r 1 2 [ 34 42 ] 42 [ 33 42 ] 42
r 1 2 [ 34 42 ] 42 [ 33 42 ] 42
r 1 2 [ 34 42 ] 42 [ 33 42 ] 42
x78
r 1 2 [ 34 42 ] 42 [ 33 42 ] 42
r 1 2 [ 34 42 ] 42 [ 33 42 ] 42
r 1 2 [ 34 42 ] 42 [ 33 42 ] 42 [ 33 42 ] 42
r 1 2 [ 34 42 ] 42 [ 33 42 ] 42
r 1 2 [ 34 42 ] 42 [ 33 42 ] 42
x74
r 1 2 [ 34 42 ] 42 [ 33 42 ] 42
r 1 2 [ 34 42 ] 42 [ 33 42 ] 42
r 1 2 [ 34 42 ] 42 [ 33 42 ] 42
r 1 2 [ 34 42 ] 42 [ 33 42 ] 42
x78
r 1 2 [ 34 42 ] 42 [ 33 42 ] 42
r 1 2 [ 34 42 ] 42 [ 33 42 ] 42
r 1 2 [ 34 42 ] 42 [ 33 42 ] 42 [ 33 42 ] 42
r 1 2 [ 34 42 ] 42 [ 33 42 ] 42
r 1 2 [ 34 42 ] 42 [ 33 42 ] 42
x74
r 1 2 [ 34 42 ] 42 [ 33 42 ] 42
r 1 2 [ 34 42 ] 42 [ 33 42 ] 42
r 1 2 [ 34 42 ] 42 [ 33 42 ] 42
r 1 2 [ 34 42 ] 42 [ 33 42 ] 42
x78
r 1 2 [ 34 42 ] 42 [ 33 42 ] 42
r 1 2 [ 34 42 ] 42 [ 33 42 ] 42
r 1 2 [ 34 42 ] 42 [ 33 42 ] 42 [ 33 42 ] 42
r 1 2 [ 34 42 ] 42 [ 33 42 ] 42
r 1 2 [ 34 42 ] 42 [ 33 42 ] 42
x74
r 1 2 [ 34 42 ] 42 [ 33 42 ] 42
r 1 2 [ 34 42 ] 42 [ 33 42 ] 42
r 1 2 [ 34 42 ] 42 [ 33 42 ] 42
r 1 2 [ 34 42 ] 42 [ 33 42 ] 42
x78
r 1 2 [ 34 42 ] 42 [ 33 42 ] 42
r 1 2 [ 34 42 ] 42 [ 33 42 ] 42
r 1 2 [ 34 42 ] 42 [ 33 42 ] 42 [ 33 42 ] 42
r 1 2 [ 34 42 ] 42 [ 33 42 ] 42
r 1 2 [ 34 42 ] 42 [ 33 42 ] 42
x74
r 1 2 [ 34 42 ] 42 [ 33 42 ] 42
r 1 2 [ 34 42 ] 42 [ 33 42 ] 42
r 1 2 [ 34 42 ] 42 [ 33 42 ] 42
r 1 2 [ 34 42 ] 42 [ 33 42 ] 42
x78
r 1 2 [ 34 42 ] 42 [ 33 42 ] 42
r 1 2 [ 34 42 ] 42 [ 33 42 ] 42
r 1 2 [ 34 42 ] 42 [ 33 42 ] 42 [ 33 42 ] 42
r 1 2 [ 34 42 ] 42 [ 33 42 ] 42
r 1 2 [ 34 42 ] 42 [ 33 42 ] 42
x74
r 1 2 [ 34 42 ] 42 [ 33 42 ] 42
r 1 2 [ 34 42 ] 42 [ 33 42 ] 42
r 1 2 [ 34 42 ] 42 [ 33 42 ] 42
r 1 2 [ 34 42 ] 42 [ 33 42 ] 42
x78
r 1 2 [ 34 42 ] 42 [ 33 42 ] 42
r 1 2 [ 34 42 ] 42 [ 33 42 ] 42
r 1 2 [ 34 42 ] 42 [ 33 42 ] 42 [ 33 42 ] 42
r 1 2 [ 34 42 ] 42 [ 33 42 ] 42
r 1 2 [ 34 42 ] 42 [ 33 42 ] 42
x74
r 1 2 [ 34 42 ] 42 [ 33 42 ] 42
r 1 2 [ 34 42 ] 42 [ 33 42 ] 42
r 1 2 [ 34 42 ] 42 [ 33 42 ] 42
r 1 2 [ 34 42 ] 42 [ 33 42 ] 42
x78
r 1 2 [ 34 42 ] 42 [ 33 42 ] 42
r 1 2 [ 34 42 ] 42 [ 33 42 ] 42
r 1 2 [ 34 42 ] 42 [ 33 42 ] 42 [ 33 42 ] 42
r 1 2 [ 34 42 ] 42 [ 33 42 ] 42
r 1 2 [ 34 42 ] 42 [ 33 42 ] 42
x74
r 1 2 [ 34 42 ] 42 [ 33 42 ] 42
r 1 2 [ 34 42 ] 42 [ 33 42 ] 42
r 1 2 [ 34 42 ] 42 [ 33 42 ] 42
r 1 2 [ 34 42 ] 42 [ 33 42 ] 42
x78
r 1 2 [ 34 42 ] 42 [ 33 42 ] 42
r 1 2 [ 34 42 ] 42 [ 33 42 ] 42
r 1 2 [ 34 42 ] 42 [ 33 42 ] 42 [ 33 42 ] 42
r 1 2 [ 34 42 ] 42 [ 33 42 ] 42
r 1 2 [ 34 42 ] 42 [ 33 42 ] 42
x74
r 1 2 [ 34 42 ] 42 [ 33 42 ] 42
r 1 2 [ 34 42 ] 42 [ 33 42 ] 42
r 1 2 [ 34 42 ] 42 [ 33 42 ] 42
r 1 2 [ 34 42 ] 42 [ 33 42 ] 42
x78
r 1 2 [ 34 42 ] 42 [ 33 42 ] 42
r 1 2 [ 34 42 ] 42 [ 33 42 ] 42
r 1 2 [ 34 42 ] 42 [ 33 42 ] 42 [ 33 42 ] 42
r 1 2 [ 34 42 ] 42 [ 33 42 ] 42
r 1 2 [ 34 42 ] 42 [ 33 42 ] 42
x74
r 1 2 [ 34 42 ] 42 [ 33 42 ] 42
r 1 2 [ 34 42 ] 42 [ 33 42 ] 42
r 1 2 [ 34 42 ] 42 [ 33 42 ] 42
r 1 2 [ 34 42 ] 42 [ 33 42 ] 42
x78
r 1 2 [ 34 42 ] 42 [ 33 42 ] 42
r 1 2 [ 34 42 ] 42 [ 33 42 ] 42
r 1 2 [ 34 42 ] 42 [ 33 42 ] 42 [ 33 42 ] 42
r 1 2 [ 34 42 ] 42 [ 33 42 ] 42
r 1 2 [ 34 42 ] 42 [ 33 42 ] 42
x74
r 1 2 [ 34 42 ] 42 [ 33 42 ] 42
r 1 2 [ 34 42 ] 42 [ 33 42 ] 42
r 1 2 [ 34 42 ] 42 [ 33 42 ] 42
r 1 2 [ 34 42 ] 42 [ 33 42 ] 42
x78
r 1 2 [ 34 42 ] 42 [ 33 42 ] 42
r 1 2 [ 34 42 ] 42 [ 33 42 ] 42
r 1 2 [ 34 42 ] 42 [ 33 42 ] 42 [ 33 42 ] 42
r 1 2 [ 34 42 ] 42 [ 33 42 ] 42
r 1 2 [ 34 42 ] 42 [ 33 42 ] 42
x74
r 1 2 [ 34 42 ] 42 [ 33 42 ] 42
r 1 2 [ 34 42 ] 42 [ 33 42 ] 42
r 1 2 [ 34 42 ] 42 [ 33 42 ] 42
r 1 2 [ 34 42 ] 42 [ 33 42 ] 42
x78
r 1 2 [ 34 42 ] 42 [ 33 42 ] 42
r 1 2 [ 34 42 ] 42 [ 33 42 ] 42
r 1 2 [ 34 42 ] 42 [ 33 42 ] 42 [ 33 42 ] 42
r 1 2 [ 34 42 ] 42 [ 33 42 ] 42
r 1 2 [ 34 42 ] 42 [ 33 42 ] 42
x74
r 1 2 [ 34 42 ] 42 [ 33 42 ] 42
r 1 2 [ 34 42 ] 42 [ 33 42 ] 42
r 1 2 [ 34 42 ] 42 [ 33 42 ] 42
r 1 2 [ 34 42 ] 42 [ 33 42 ] 42
x78
r 1 2 [ 34 42 ] 42 [ 33 42 ] 42
r 1 2 [ 34 42 ] 42 [ 33 42 ] 42
r 1 2 [ 34 42 ] 42 [ 33 42 ] 42 [ 33 42 ] 42
r 1 2 [ 34 42 ] 42 [ 33 42 ] 42
r 1 2 [ 34 42 ] 42 [ 33 42 ] 42
x74
r 1 2 [ 34 42 ] 42 [ 33 42 ] 42
r 1 2 [ 34 42 ] 42 [ 33 42 ] 42
r 1 2 [ 34 42 ] 42 [ 33 42 ] 42
r 1 2 [ 34 42 ] 42 [ 33 42 ] 42
x78
r 1 2 [ 34 42 ] 42 [ 33 42 ] 42
r 1 2 [ 34 42 ] 42 [ 33 42 ] 42
r 1 2 [ 34 42 ] 42 [ 33 42 ] 42 [ 33 42 ] 42
r 1 2 [ 34 42 ] 42 [ 33 42 ] 42
r 1 2 [ 34 42 ] 42 [ 33 42 ] 42
x74
r 1 2 [ 34 42 ] 42 [ 33 42 ] 42
r 1 2 [ 34 42 ] 42 [ 33 42 ] 42
r 1 2 [ 34 42 ] 42 [ 33 42 ] 42
r 1 2 [ 34 42 ] 42 [ 33 42 ] 42
x78
r 1 2 [ 34 42 ] 42 [ 33 42 ] 42
r 1 2 [ 34 42 ] 42 [ 33 42 ] 42
r 1 2 [ 34 42 ] 42 [ 33 42 ] 42 [ 33 42 ] 42
r 1 2 [ 34 42 ] 42 [ 33 42 ] 42
r 1 2 [ 34 42 ] 42 [ 33 42 ] 42
x74
r 1 2 [ 34 42 ] 42 [ 33 42 ] 42
r 1 2 [ 34 42 ] 42 [ 33 42 ] 42
r 1 2 [ 34 42 ] 42 [ 33 42 ] 42
r 1 2 [ 34 42 ] 42 [ 33 42 ] 42
x78
r 1 2 [ 34 42 ] 42 [ 33 42 ] 42
r 1 2 [ 34 42 ] 42 [ 33 42 ] 42
r 1 2 [ 34 42 ] 42 [ 33 42 ] 42 [ 33 42 ] 42
r 1 2 [ 34 42 ] 42 [ 33 42 ] 42
r 1 2 [ 34 42 ] 42 [ 33 42 ] 42
x74
r 1 2 [ 34 42 ] 42 [ 33 42 ] 42
r 1 2 [ 34 42 ] 42 [ 33 42 ] 42
r 1 2 [ 34 42 ] 42 [ 33 42 ] 42
r 1 2 [ 34 42 ] 42 [ 33 42 ] 42
x78
r 1 2 [ 34 42 ] 42 [ 33 42 ] 42
r 1 2 [ 34 42 ] 42 [ 33 42 ] 42
r 1 2 [ 34 42 ] 42 [ 33 42 ] 42 [ 33 42 ] 42
r 1 2 [ 34 42 ] 42 [ 33 42 ] 42
r 1 2 [ 34 42 ] 42 [ 33 42 ] 42
x74
r 1 2 [ 34 42 ] 42 [ 33 42 ] 42
r 1 2 [ 34 42 ] 42 [ 33 42 ] 42
r 1 2 [ 34 42 ] 42 [ 33 42 ] 42
r 1 2 [ 34 42 ] 42 [ 33 42 ] 42
x78
r 1 2 [ 34 42 ] 42 [ 33 42 ] 42
r 1 2 [ 34 42 ] 42 [ 33 42 ] 42
r 1 2 [ 34 42 ] 42 [ 33 42 ] 42 [ 33 42 ] 42
r 1 2 [ 34 42 ] 42 [ 33 42 ] 42
r 1 2 [ 34 42 ] 42 [ 33 42 ] 42
x74
r 1 2 [ 34 42 ] 42 [ 33 42 ] 42
r 1 2 [ 34 42 ] 42 [ 33 42 ] 42
r 1 2 [ 34 42 ] 42 [ 33 42 ] 42
r 1 2 [ 34 42 ] 42 [ 33 42 ] 42
x78
r 1 2 [ 34 42 ] 42 [ 33 42 ] 42
r 1 2 [ 34 42 ] 42 [ 33 42 ] 42
r 1 2 [ 34 42 ] 42 [ 33 42 ] 42 [ 33 42 ] 42
r 1 2 [ 34 42 ] 42 [ 33 42 ] 42
r 1 2 [ 34 42 ] 42 [ 33 42 ] 42
x74
r 1 2 [ 34 42 ] 42 [ 33 42 ] 42
r 1 2 [ 34 42 ] 42 [ 33 42 ] 42
r 1 2 [ 34 42 ] 42 [ 33 42 ] 42
r 1 2 [ 34 42 ] 42 [ 33 42 ] 42
x78
r 1 2 [ 34 42 ] 42 [ 33 42 ] 42
r 1 2 [ 34 42 ] 42 [ 33 42 ] 42
r 1 2 [ 34 42 ] 42 [ 33 42 ] 42 [ 33 42 ] 42
r 1 2 [ 34 42 ] 42 [ 33 42 ] 42
r 1 2 [ 34 42 ] 42 [ 33 42 ] 42
x74
r 1 2 [ 34 42 ] 42 [ 33 42 ] 42
r 1 2 [ 34 42 ] 42 [ 33 42 ] 42
r 1 2 [ 34 42 ] 42 [ 33 42 ] 42
r 1 2 [ 34 42 ] 42 [ 33 42 ] 42
x78
r 1 2 [ 34 42 ] 42 [ 33 42 ] 42
r 1 2 [ 34 42 ] 42 [ 33 42 ] 42
r 1 2 [ 34 42 ] 42 [ 33 42 ] 42 [ 33 42 ] 42
r 1 2 [ 34 42 ] 42 [ 33 42 ] 42
r 1 2 [ 34 42 ] 42 [ 33 42 ] 42
x74
r 1 2 [ 34 42 ] 42 [ 33 42 ] 42
r 1 2 [ 34 42 ] 42 [ 33 42 ] 42
r 1 2 [ 34 42 ] 42 [ 33 42 ] 42
r 1 2 [ 34 42 ] 42 [ 33 42 ] 42
x78
r 1 2 [ 34 42 ] 42 [ 33 42 ] 42
r 1 2 [ 34 42 ] 42 [ 33 42 ] 42
r 1 2 [ 34 42 ] 42 [ 33 42 ] 42 [ 33 42 ] 42
r 1 2 [ 34 42 ] 42 [ 33 42 ] 42
r 1 2 [ 34 42 ] 42 [ 33 42 ] 42
x74
r 1 2 [ 34 42 ] 42 [ 33 42 ] 42
r 1 2 [ 34 42 ] 42 [ 33 42 ] 42
r 1 2 [ 34 42 ] 42 [ 33 42 ] 42
r 1 2 [ 34 42 ] 42 [ 33 42 ] 42
x78
r 1 2 [ 34 42 ] 42 [ 33 42 ] 42
r 1 2 [ 34 42 ] 42 [ 33 42 ] 42
r 1 2 [ 34 42 ] 42 [ 33 42 ] 42 [ 33 42 ] 42
r 1 2 [ 34 42 ] 42 [ 33 42 ] 42
r 1 2 [ 34 42 ] 42 [ 33 42 ] 42
x74
r 1 2 [ 34 42 ] 42 [ 33 42 ] 42
r 1 2 [ 34 42 ] 42 [ 33 42 ] 42
r 1 2 [ 34 42 ] 42 [ 33 42 ] 42
r 1 2 [ 34 42 ] 42 [ 33 42 ] 42
x78
r 1 2 [ 34 42 ] 42 [ 33 42 ] 42
r 1 2 [ 34 42 ] 42 [ 33 42 ] 42
r 1 2 [ 34 42 ] 42 [ 33 42 ] 42 [ 33 42 ] 42
r 1 2 [ 34 42 ] 42 [ 33 42 ] 42
r 1 2 [ 34 42 ] 42 [ 33 42 ] 42
x74
r 1 2 [ 34 42 ] 42 [ 33 42 ] 42
r 1 2 [ 34 42 ] 42 [ 33 42 ] 42
r 1 2 [ 34 42 ] 42 [ 33 42 ] 42
r 1 2 [ 34 42 ] 42 [ 33 42 ] 42
x78
r 1 2 [ 34 42 ] 42 [ 33 42 ] 42
r 1 2 [ 34 42 ] 42 [ 33 42 ] 42
r 1 2 [ 34 42 ] 42 [ 33 42 ] 42 [ 33 42 ] 42
r 1 2 [ 34 42 ] 42 [ 33 42 ] 42
r 1 2 [ 34 42 ] 42 [ 33 42 ] 42
x74
r 1 2 [ 34 42 ] 42 [ 33 42 ] 42
r 1 2 [ 34 42 ] 42 [ 33 42 ] 42
r 1 2 [ 34 42 ] 42 [ 33 42 ] 42
r 1 2 [ 34 42 ] 42 [ 33 42 ] 42
x78
r 1 2 [ 34 42 ] 42 [ 33 42 ] 42
r 1 2 [ 34 42 ] 42 [ 33 42 ] 42
r 1 2 [ 34 42 ] 42 [ 33 42 ] 42 [ 33 42 ] 42
r 1 2 [ 34 42 ] 42 [ 33 42 ] 42
r 1 2 [ 34 42 ] 42 [ 33 42 ] 42
x74
r 1 2 [ 34 42 ] 42 [ 33 42 ] 42
r 1 2 [ 34 42 ] 42 [ 33 42 ] 42
r 1 2 [ 34 42 ] 42 [ 33 42 ] 42
r 1 2 [ 34 42 ] 42 [ 33 42 ] 42
x78
r 1 2 [ 34 42 ] 42 [ 33 42 ] 42
r 1 2 [ 34 42 ] 42 [ 33 42 ] 42
r 1 2 [ 34 42 ] 42 [ 33 42 ] 42 [ 33 42 ] 42
r 1 2 [ 34 42 ] 42 [ 33 42 ] 42
r 1 2 [ 34 42 ] 42 [ 33 42 ] 42
x74
r 1 2 [ 34 42 ] 42 [ 33 42 ] 42
r 1 2 [ 34 42 ] 42 [ 33 42 ] 42
r 1 2 [ 34 42 ] 42 [ 33 42 ] 42
r 1 2 [ 34 42 ] 42 [ 33 42 ] 42
x78
r 1 2 [ 34 42 ] 42 [ 33 42 ] 42
r 1 2 [ 34 42 ] 42 [ 33 42 ] 42
r 1 2 [ 34 42 ] 42 [ 33 42 ] 42 [ 33 42 ] 42
r 1 2 [ 34 42 ] 42 [ 33 42 ] 42
r 1 2 [ 34 42 ] 42 [ 33 42 ] 42
x74
r 1 2 [ 34 42 ] 42 [ 33 42 ] 42
r 1 2 [ 34 42 ] 42 [ 33 42 ] 42
r 1 2 [ 34 42 ] 42 [ 33 42 ] 42
r 1 2 [ 34 42 ] 42 [ 33 42 ] 42
x78
r 1 2 [ 34 42 ] 42 [ 33 42 ] 42
r 1 2 [ 34 42 ] 42 [ 33 42 ] 42
r 1 2 [ 34 42 ] 42 [ 33 42 ] 42 [ 33 42 ] 42
r 1 2 [ 34 42 ] 42 [ 33 42 ] 42
r 1 2 [ 34 42 ] 42 [ 33 42 ] 42
x74
r 1 2 [ 34 42 ] 42 [ 33 42 ] 42
r 1 2 [ 34 42 ] 42 [ 33 42 ] 42
r 1 2 [ 34 42 ] 42 [ 33 42 ] 42
r 1 2 [ 34 42 ] 42 [ 33 42 ] 42
x78
r 1 2 [ 34 42 ] 42 [ 33 42 ] 42
r 1 2 [ 34 42 ] 42 [ 33 42 ] 42
r 1 2 [ 34 42 ] 42 [ 33 42 ] 42 [ 33 42 ] 42
r 1 2 [ 34 42 ] 42 [ 33 42 ] 42
r 1 2 [ 34 42 ] 42 [ 33 42 ] 42
x74
r 1 2 [ 34 42 ] 42 [ 33 42 ] 42
r 1 2 [ 34 42 ] 42 [ 33 42 ] 42
r 1 2 [ 34 42 ] 42 [ 33 42 ] 42
r 1 2 [ 34 42 ] 42 [ 33 42 ] 42
x78
r 1 2 [ 34 42 ] 42 [ 33 42 ] 42
r 1 2 [ 34 42 ] 42 [ 33 42 ] 42
r 1 2 [ 34 42 ] 42 [ 33 42 ] 42 [ 33 42 ] 42
r 1 2 [ 34 42 ] 42 [ 33 42 ] 42
r 1 2 [ 34 42 ] 42 [ 33 42 ] 42
x74
r 1 2 [ 34 42 ] 42 [ 33 42 ] 42
r 1 2 [ 34 42 ] 42 [ 33 42 ] 42
r 1 2 [ 34 42 ] 42 [ 33 42 ] 42
r 1 2 [ 34 42 ] 42 [ 33 42 ] 42
x78
r 1 2 [ 34 42 ] 42 [ 33 42 ] 42
r 1 2 [ 34 42 ] 42 [ 33 42 ] 42
r 1 2 [ 34 42 ] 42 [ 33 42 ] 42 [ 33 42 ] 42
r 1 2 [ 34 42 ] 42 [ 33 42 ] 42
r 1 2 [ 34 42 ] 42 [ 33 42 ] 42
x74
r 1 2 [ 34 42 ] 42 [ 33 42 ] 42
r 1 2 [ 34 42 ] 42 [ 33 42 ] 42
r 1 2 [ 34 42 ] 42 [ 33 42 ] 42
r 1 2 [ 34 42 ] 42 [ 33 42 ] 42
x78
r 1 2 [ 34 42 ] 42 [ 33 42 ] 42
r 1 2 [ 34 42 ] 42 [ 33 42 ] 42
r 1 2 [ 34 42 ] 42 [ 33 42 ] 42 [ 33 42 ] 42
r 1 2 [ 34 42 ] 42 [ 33 42 ] 42
r 1 2 [ 34 42 ] 42 [ 33 42 ] 42
x74
r 1 2 [ 34 42 ] 42 [ 33 42 ] 42
r 1 2 [ 34 42 ] 42 [ 33 42 ] 42
r 1 2 [ 34 42 ] 42 [ 33 42 ] 42
r 1 2 [ 34 42 ] 42 [ 33 42 ] 42
x78
r 1 2 [ 34 42 ] 42 [ 33 42 ] 42
r 1 2 [ 34 42 ] 42 [ 33 42 ] 42
r 1 2 [ 34 42 ] 42 [ 33 42 ] 42 [ 33 42 ] 42
r 1 2 [ 34 42 ] 42 [ 33 42 ] 42
r 1 2 [ 34 42 ] 42 [ 33 42 ] 42
x74
r 1 2 [ 34 42 ] 42 [ 33 42 ] 42
r 1 2 [ 34 42 ] 42 [ 33 42 ] 42
r 1 2 [ 34 42 ] 42 [ 33 42 ] 42
r 1 2 [ 34 42 ] 42 [ 33 42 ] 42
x78
r 1 2 [ 34 42 ] 42 [ 33 42 ] 42
r 1 2 [ 34 42 ] 42 [ 33 42 ] 42
r 1 2 [ 34 42 ] 42 [ 33 42 ] 42 [ 33 42 ] 42
r 1 2 [ 34 42 ] 42 [ 33 42 ] 42
r 1 2 [ 34 42 ] 42 [ 33 42 ] 42
x74
r 1 2 [ 34 42 ] 42 [ 33 42 ] 42
r 1 2 [ 34 42 ] 42 [ 33 42 ] 42
r 1 2 [ 34 42 ] 42 [ 33 42 ] 42
r 1 2 [ 34 42 ] 42 [ 33 42 ] 42
x78
r 1 2 [ 34 42 ] 42 [ 33 42 ] 42
r 1 2 [ 34 42 ] 42 [ 33 42 ] 42
r 1 2 [ 34 42 ] 42 [ 33 42 ] 42 [ 33 42 ] 42
r 1 2 [ 34 42 ] 42 [ 33 42 ] 42
r 1 2 [ 34 42 ] 42 [ 33 42 ] 42
x74
r 1 2 [ 34 42 ] 42 [ 33 42 ] 42
r 1 2 [ 34 42 ] 42 [ 33 42 ] 42
r 1 2 [ 34 42 ] 42 [ 33 42 ] 42
r 1 2 [ 34 42 ] 42 [ 33 42 ] 42
x78
r 1 2 [ 34 42 ] 42 [ 33 42 ] 42
r 1 2 [ 34 42 ] 42 [ 33 42 ] 42
r 1 2 [ 34 42 ] 42 [ 33 42 ] 42 [ 33 42 ] 42
r 1 2 [ 34 42 ] 42 [ 33 42 ] 42
r 1 2 [ 34 42 ] 42 [ 33 42 ] 42
x74
r 1 2 [ 34 42 ] 42 [ 33 42 ] 42
r 1 2 [ 34 42 ] 42 [ 33 42 ] 42
r 1 2 [ 34 42 ] 42 [ 33 42 ] 42
r 1 2 [ 34 42 ] 42 [ 33 42 ] 42
x78
r 1 2 [ 34 42 ] 42 [ 33 42 ] 42
r 1 2 [ 34 42 ] 42 [ 33 42 ] 42
r 1 2 [ 34 42 ] 42 [ 33 42 ] 42 [ 33 42 ] 42
r 1 2 [ 34 42 ] 42 [ 33 42 ] 42
r 1 2 [ 34 42 ] 42 [ 33 42 ] 42
x74
r 1 2 [ 34 42 ] 42 [ 33 42 ] 42
r 1 2 [ 34 42 ] 42 [ 33 42 ] 42
r 1 2 [ 34 42 ] 42 [ 33 42 ] 42
r 1 2 [ 34 42 ] 42 [ 33 42 ] 42
x78
r 1 2 [ 34 42 ] 42 [ 33 42 ] 42
r 1 2 [ 34 42 ] 42 [ 33 42 ] 42
r 1 2 [ 34 42 ] 42 [ 33 42 ] 42 [ 33 42 ] 42
r 1 2 [ 34 42 ] 42 [ 33 42 ] 42
r 1 2 [ 34 42 ] 42 [ 33 42 ] 42
x74
r 1 2 [ 34 42 ] 42 [ 33 42 ] 42
r 1 2 [ 34 42 ] 42 [ 33 42 ] 42
r 1 2 [ 34 42 ] 42 [ 33 42 ] 42
r 1 2 [ 34 42 ] 42 [ 33 42 ] 42
x78
r 1 2 [ 34 42 ] 42 [ 33 42 ] 42
r 1 2 [ 34 42 ] 42 [ 33 42 ] 42
r 1 2 [ 34 42 ] 42 [ 33 42 ] 42 [ 33 42 ] 42
r 1 2 [ 34 42 ] 42 [ 33 42 ] 42
r 1 2 [ 34 42 ] 42 [ 33 42 ] 42
x74
r 1 2 [ 34 42 ] 42 [ 33 42 ] 42
r 1 2 [ 34 42 ] 42 [ 33 42 ] 42
r 1 2 [ 34 42 ] 42 [ 33 42 ] 42
r 1 2 [ 34 42 ] 42 [ 33 42 ] 42
x78
r 1 2 [ 34 42 ] 42 [ 33 42 ] 42
r 1 2 [ 34 42 ] 42 [ 33 42 ] 42
r 1 2 [ 34 42 ] 42 [ 33 42 ] 42 [ 33 42 ] 42
r 1 2 [ 34 42 ] 42 [ 33 42 ] 42
r 1 2 [ 34 42 ] 42 [ 33 42 ] 42
x74
r 1 2 [ 34 42 ] 42 [ 33 42 ] 42
r 1 2 [ 34 42 ] 42 [ 33 42 ] 42
r 1 2 [ 34 42 ] 42 [ 33 42 ] 42
r 1 2 [ 34 42 ] 42 [ 33 42 ] 42
x78
r 1 2 [ 34 42 ] 42 [ 33 42 ] 42
r 1 2 [ 34 42 ] 42 [ 33 42 ] 42
r 1 2 [ 34 42 ] 42 [ 33 42 ] 42 [ 33 42 ] 42
r 1 2 [ 34 42 ] 42 [ 33 42 ] 42
r 1 2 [ 34 42 ] 42 [ 33 42 ] 42
x74
r 1 2 [ 34 42 ] 42 [ 33 42 ] 42
r 1 2 [ 34 42 ] 42 [ 33 42 ] 42
r 1 2 [ 34 42 ] 42 [ 33 42 ] 42
r 1 2 [ 34 42 ] 42 [ 33 42 ] 42
x78
r 1 2 [ 34 42 ] 42 [ 33 42 ] 42
r 1 2 [ 34 42 ] 42 [ 33 42 ] 42
r 1 2 [ 34 42 ] 42 [ 33 42 ] 42 [ 33 42 ] 42
r 1 2 [ 34 42 ] 42 [ 33 42 ] 42
r 1 2 [ 34 42 ] 42 [ 33 42 ] 42
x74
r 1 2 [ 34 42 ] 42 [ 33 42 ] 42
r 1 2 [ 34 42 ] 42 [ 33 42 ] 42
r 1 2 [ 34 42 ] 42 [ 33 42 ] 42
r 1 2 [ 34 42 ] 42 [ 33 42 ] 42
x78
r 1 2 [ 34 42 ] 42 [ 33 42 ] 42
r 1 2 [ 34 42 ] 42 [ 33 42 ] 42
r 1 2 [ 34 42 ] 42 [ 33 42 ] 42 [ 33 42 ] 42
r 1 2 [ 34 42 ] 42 [ 33 42 ] 42
r 1 2 [ 34 42 ] 42 [ 33 42 ] 42
x74
r 1 2 [ 34 42 ] 42 [ 33 42 ] 42
r 1 2 [ 34 42 ] 42 [ 33 42 ] 42
r 1 2 [ 34 42 ] 42 [ 33 42 ] 42
r 1 2 [ 34 42 ] 42 [ 33 42 ] 42
x78
r 1 2 [ 34 42 ] 42 [ 33 42 ] 42
r 1 2 [ 34 42 ] 42 [ 33 42 ] 42
r 1 2 [ 34 42 ] 42 [ 33 42 ] 42 [ 33 42 ] 42
r 1 2 [ 34 42 ] 42 [ 33 42 ] 42
r 1 2 [ 34 42 ] 42 [ 33 42 ] 42
x74
r 1 2 [ 34 42 ] 42 [ 33 42 ] 42
r 1 2 [ 34 42 ] 42 [ 33 42 ] 42
r 1 2 [ 34 42 ] 42 [ 33 42 ] 42
r 1 2 [ 34 42 ] 42 [ 33 42 ] 42
x78
r 1 2 [ 34 42 ] 42 [ 33 42 ] 42
r 1 2 [ 34 42 ] 42 [ 33 42 ] 42
r 1 2 [ 34 42 ] 42 [ 33 42 ] 42 [ 33 42 ] 42
r 1 2 [ 34 42 ] 42 [ 33 42 ] 42
r 1 2 [ 34 42 ] 42 [ 33 42 ] 42
x74
r 1 2 [ 34 42 ] 42 [ 33 42 ] 42
r 1 2 [ 34 42 ] 42 [ 33 42 ] 42
r 1 2 [ 34 42 ] 42 [ 33 42 ] 42
r 1 2 [ 34 42 ] 42 [ 33 42 ] 42
x78
r 1 2 [ 34 42 ] 42 [ 33 42 ] 42
r 1 2 [ 34 42 ] 42 [ 33 42 ] 42
r 1 2 [ 34 42 ] 42 [ 33 42 ] 42 [ 33 42 ] 42
r 1 2 [ 34 42 ] 42 [ 33 42 ] 42
r 1 2 [ 34 42 ] 42 [ 33 42 ] 42
x74
r 1 2 [ 34 42 ] 42 [ 33 42 ] 42
r 1 2 [ 34 42 ] 42 [ 33 42 ] 42
r 1 2 [ 34 42 ] 42 [ 33 42 ] 42
r 1 2 [ 34 42 ] 42 [ 33 42 ] 42
x78
r 1 2 [ 34 42 ] 42 [ 33 42 ] 42
r 1 2 [ 34 42 ] 42 [ 33 42 ] 42
r 1 2 [ 34 42 ] 42 [ 33 42 ] 42 [ 33 42 ] 42
r 1 2 [ 34 42 ] 42 [ 33 42 ] 42
