t 60
r 1 1 60 r 3 4 62 r 1 4 60 r 3 4 57 r 1 4 s r 7 8 57 r 1 8 58
r 3 4 57 r 1 4 55 r 3 4 57 r 1 4 58 r 3 2 57 r 1 2 s
r 1 1 58 r 3 4 55 r 1 4 60 r 3 2 57 r 1 2 s
r 1 1 53 r 3 4 50 r 1 4 55 r 3 2 48 r 1 2 s
xX
r 2 1 55 r 1 2 55 62 60 r 3 8 58 r 1 8 58
r 1 2 57 55 57 58 r 3 2 57 r 1 2 s
r 1 1 52 57 57 r 1 2 56 59
r 9 2 64
r 1 6 62 64 62 r 1 2 61 62 55 57 r 1 1 58
r 1 2 s r 1 6 57 58 57 r 1 2 53 62 r 3 2 60 r 1 2 s
r 1 2 s r 1 6 53 55 53 r 1 2 48 58 r 6 8 57 r 1 8 55 57 r 1 1 55
r 1 2 53 r 7 2 s
c
r 1 1 72 r 3 4 74 r 1 4 72 r 3 4 69 r 1 4 s r 7 8 69 r 1 8 70
r 3 4 69 r 1 4 67 r 3 4 69 r 1 4 70 r 3 2 69 r 1 2 s
r 1 1 70 r 3 4 67 r 1 4 72 r 3 2 69 r 1 2 s
r 1 1 65 r 3 4 62 r 1 4 67 r 3 2 60 r 1 2 s
xX
r 2 1 67 r 1 2 67 74 72 r 3 8 70 r 1 8 70
r 1 2 69 67 69 70 r 3 2 69 r 1 2 s
r 1 1 64 69 69 r 1 2 68 71
r 9 2 76
r 1 6 74 76 74 r 1 2 73 74 67 69 r 1 1 70
r 1 2 s r 1 6 69 70 69 r 1 2 65 74 r 3 2 72 r 1 2 s
r 1 2 s r 1 6 65 67 65 r 1 2 60 70 r 6 8 69 r 1 8 67 69 r 1 1 67
r 1 2 65 r 7 2 s
c
r 1 2 [ 60 65 69 72 ] s [ 60 65 69 72 ] s [ 60 65 69 72 ] s [ 60 65 69 72 ] s
r 1 2 [ 60 65 69 72 ] s [ 60 65 69 72 ] s [ 60 65 69 72 ] s [ 60 65 69 72 ] s
r 1 2 [ 65 70 74 ] s [ 64 70 72 76 ] s [ 65 69 72 77 ] s [ 60 65 69 ] s
r 1 2 [ 65 69 72 ] s [ 65 67 71 ] s [ 64 67 72 ] s [ 64 67 72 ] s
xX
r 1 2 [ 55 62 67 ] s [ 55 58 62 ] s [ 55 62 67 ] s [ 62 67 71 ] s
r 1 2 [ 62 69 ] s [ 62 65 ] s [ 62 65 69 ] s [ 65 69 74 ] s
r 1 2 [ 64 69 72 ] s [ 60 64 69 ] s [ 62 64 ] s [ 62 64 71 ] s
r 1 2 [ 61 64 69 ] s [ 57 61 ] s [ 57 61 64 ] s [ 61 64 69 ] s
r 1 2 [ 55 53 ] s [ 55 53 58 ] s [ 55 53 62 ] s [ 58 62 65 ] s
r 1 2 [ 57 60 65 ] s s s s r 1 6 [ 77 81 ] 82 81 r 1 2 [ 72 77 ] [ 82 86 	]
r 1 2 [ 81 84 ] s s s s s [ 58 60 ] s
c
r 1 2 53 s 48 s 53 s 48 s
r 1 2 53 s 48 s 53 s 48 s
r 1 2 55 s 48 s 53 s 52 s
r 1 2 50 s 55 s 48 s 60 s
xX
r 1 2 46 s 50 s 46 s 43 s
r 1 2 41 s 45 s 41 s 38 s
r 1 2 40 s 48 s 47 s 40 s
r 1 2 45 s 52 s 49 s 45 s
r 1 2 46 s 50 s 46 s 43 s
r 9 2 48
r 1 2 s s s s s [ 48 52 ] s