t 108
xPrincipal
xI1
r 4 1 s
r 4 1 s
r 4 1 s
r 4 1 s
r 4 1 s
r 4 1 s
r 4 1 s
r 4 1 s
r 4 1 s
xE1a
r 1 2 60 59 r 1 1 60 r 1 2 s 59 60 r 3 8 58 r 1 8 58
r 1 2 56 55 r 3 2 56 r 1 2 55 56 r 1 4 s r 1 8 55 r 1 8 55
r 1 2 53 52 r 5 4 53 r 1 4 s r 1 2 51 49 48
r 1 2 49 48 r 3 2 46 r 1 2 s s s
r 1 2 61 r 1 1 61 r 1 2 61 r 1 4 60 58 r 1 1 56 r 1 2 s
r 1 2 58 r 1 1 58 r 1 2 58 r 1 4 56 55 r 1 1 53 r 1 2 s
r 1 2 56 51 48 51 56 58 r 1 2 60 r 1 4 s 61
r 1 1 63 r 1 3 61 60 58 r 3 2 60 r 1 2 s
xE1b
r 1 2 60 59 r 1 1 60 r 1 2 s 59 60 r 3 8 58 r 1 8 58
r 1 2 56 55 r 3 2 56 r 1 2 55 56 r 1 4 s r 1 8 55 r 1 8 55
r 1 2 53 52 r 5 4 53 r 1 4 s r 1 2 51 49 48
r 1 2 49 48 r 3 2 46 r 1 2 s s s
r 1 2 61 r 1 1 61 r 1 2 61 r 1 4 60 58 r 1 1 56 r 1 2 s
r 1 2 58 r 1 1 58 r 1 2 58 r 1 4 56 55 r 1 1 53 r 1 2 s
r 1 2 54 49 46 49 54 56 58 60
r 2 3 61 r 1 3 61 r 1 3 60 59 60 r 3 2 65 r 1 2 s
xE1c
r 1 2 60 59 r 3 2 60 r 1 2 55 r 1 4 51 s r 3 8 53 r 1 8 56
r 1 2 55 54 r 3 2 55 r 1 2 51 48 r 1 4 50 s
r 1 2 51 53 r 3 2 54 r 1 2 55 56 55
r 3 4 63 r 1 4 62 r 3 2 60 s
r 1 2 61 60 r 3 2 61 r 1 2 60 63 r 3 8 61 r 1 8 61
r 3 4 60 r 1 4 59 r 2 1 60 r 1 2 48 s
r 1 2 61 60 r 1 1 61 r 1 2 61 60 r 3 4 63 r 1 4 61
r 1 1 60 r 3 4 s r 1 4 48 r 1 1 53 r 3 4 s r 1 4 56	
r 1 1 55 r 3 4 s r 1 4 60 r 1 1 56 r 3 4 s r 1 4 60
r 3 2 64 r 1 2 s r 6 1 60
xC1a
r 1 1 60 r 3 4 62 r 1 4 60 r 3 4 57 r 1 4 s r 7 8 57 r 1 8 58
r 3 4 57 r 1 4 55 r 3 4 57 r 1 4 58 r 3 2 57 r 1 2 s
r 1 1 58 r 3 4 55 r 1 4 60 r 3 2 57 r 1 2 s
r 1 1 53 r 3 4 50 r 1 4 55 r 3 2 48 r 1 2 s
xX1a
r 2 1 55 r 1 2 55 62 60 r 3 8 58 r 1 8 58
r 1 2 57 55 57 58 r 3 2 57 r 1 2 s
r 1 1 52 57 57 r 1 2 56 59
r 9 2 64
r 1 6 62 64 62 r 1 2 61 62 55 57 r 1 1 58
r 1 2 s r 1 6 57 58 57 r 1 2 53 62 r 3 2 60 r 1 2 s
r 1 2 s r 1 6 53 55 53 r 1 2 48 58 r 6 8 57 r 1 8 55 57 r 1 1 55
r 3 2 53 r 5 2 s
xC1b
r 16 1 s
xX1b
r 2 1 55 r 1 2 55 62 60 r 3 8 58 r 1 8 58
r 1 2 57 55 57 58 r 3 2 57 r 1 2 s
r 1 1 52 57 57 r 1 2 56 59
r 9 2 64
r 1 6 62 64 62 r 1 2 61 62 55 57 r 1 1 58
r 1 2 s r 1 6 57 58 57 r 1 2 53 62 r 3 2 60 r 1 2 s
r 1 2 s r 1 6 53 55 53 r 1 2 48 58 57 s 55 s
r 1 2 53 r 7 2 s
r 28 1 s
xE2a
c
xSecundario
xI1
r 4 1 s
r 4 1 s
r 4 1 s
r 4 1 s
r 4 1 s
r 4 1 s
r 4 1 s
r 4 1 s
r 4 1 s
xE1a
r 1 2 72 71 r 1 1 72 r 1 2 s 71 72 r 3 8 70 r 1 8 70
r 1 2 68 67 r 3 2 68 r 1 2 67 68 r 1 4 s r 1 8 67 r 1 8 67
r 1 2 65 64 r 5 4 65 r 1 4 s r 1 2 63 61 60
r 1 2 61 60 r 3 2 58 r 1 2 s s s
r 1 2 73 r 1 1 73 r 1 2 73 r 1 4 72 70 r 1 1 68 r 1 2 s
r 1 2 70 r 1 1 70 r 1 2 70 r 1 4 68 67 r 1 1 65 r 1 2 s
r 1 2 68 63 60 63 68 70 r 1 2 72 r 1 4 s 73
r 1 1 75 r 1 3 73 72 70 r 3 2 72 r 1 2 s
xE1b
r 1 2 72 71 r 1 1 72 r 1 2 s 71 72 r 3 8 70 r 1 8 70
r 1 2 68 67 r 3 2 68 r 1 2 67 68 r 1 4 s r 1 8 67 r 1 8 67
r 1 2 65 64 r 5 4 65 r 1 4 s r 1 2 63 61 60
r 1 2 61 60 r 3 2 58 r 1 2 s s s
r 1 2 73 r 1 1 73 r 1 2 73 r 1 4 72 70 r 1 1 68 r 1 2 s
r 1 2 70 r 1 1 70 r 1 2 70 r 1 4 68 67 r 1 1 65 r 1 2 s
r 1 2 66 61 58 61 66 68 70 72
r 2 3 73 r 1 3 73 r 1 3 72 71 72 r 3 2 77 r 1 2 s
xE1c
r 1 2 72 71 r 3 2 72 r 1 2 67 r 1 4 63 s r 3 8 65 r 1 8 68
r 1 2 67 66 r 3 2 67 r 1 2 63 60 r 1 4 62 s
r 1 2 63 65 r 3 2 66 r 1 2 67 68 67
r 3 4 75 r 1 4 74 r 3 2 72 s
r 1 2 73 72 r 3 2 73 r 1 2 72 75 73
r 3 4 72 r 1 4 71 r 2 1 72 r 1 2 60 s
r 1 2 73 72 r 1 1 73 r 1 2 73 72 r 3 4 75 r 1 4 73
r 1 1 72 r 3 4 s r 1 4 60 r 1 1 65 r 3 4 s r 1 4 68	
r 1 1 67 r 3 4 s r 1 4 72 r 1 1 68 r 3 4 s r 1 4 72
r 3 2 76 r 1 2 s r 6 1 72
xC1a
r 1 1 72 r 3 4 74 r 1 4 72 r 3 4 69 r 1 4 s r 7 8 69 r 1 8 70
r 3 4 69 r 1 4 67 r 3 4 69 r 1 4 70 r 3 2 69 r 1 2 s
r 1 1 70 r 3 4 67 r 1 4 72 r 3 2 69 r 1 2 s
r 1 1 65 r 3 4 62 r 1 4 67 r 3 2 60 r 1 2 s
xX1a
r 2 1 67 r 1 2 67 74 72 r 3 8 70 r 1 8 70
r 1 2 69 67 69 70 r 3 2 69 r 1 2 s
r 1 1 64 69 69 r 1 2 68 71
r 9 2 76
r 1 6 74 76 74 r 1 2 73 74 67 69 r 1 1 70
r 1 2 s r 1 6 69 70 69 r 1 2 65 74 r 3 2 72 r 1 2 s
r 1 2 s r 1 6 65 67 65 r 1 2 60 70 r 6 8 69 r 1 8 67 69 r 1 1 67
r 3 2 65 r 5 2 s
xC1b
r 16 1 s
xX1b
r 2 1 67 r 1 2 67 74 72 r 3 8 70 r 1 8 70
r 1 2 69 67 69 70 r 3 2 69 r 1 2 s
r 1 1 64 69 69 r 1 2 68 71
r 9 2 76
r 1 6 74 76 74 r 1 2 73 74 67 69 r 1 1 70
r 1 2 s r 1 6 69 70 69 r 1 2 65 74 r 3 2 72 r 1 2 s
r 1 2 s r 1 6 65 67 65 r 1 2 60 70 r 6 8 69 r 1 8 67 69 r 1 1 67
r 3 2 65 r 5 2 s
c
xDerecha
xI1
r 3 1 s r 1 7 72 74 76 77 79 80 82
r 1 2 [ 84 72 ] [ 83 71 ] r 3 2 [ 84 72 ] r 3 8 [ 83 71 ] r 1 8 85 r 1 2 [ 84 72 ] r 3 8 [ 82 70 ] r 1 8 82
r 1 2 [ 80 68 ] [ 79 67 ] r 3 2 [ 80 68 ] r 3 8 [ 79 67 ] r 1 8 82 r 1 2 [ 80 68 ] r 3 8 [ 79 67 ] r 1 8 79
r 1 2 [ 77 65 ] [ 76 64 ] r 3 2 [ 77 65 ] r 3 8 [ 75 63 ] r 1 8 75 r 1 2 [ 73 61 ] r 3 8 [ 72 60 ] r 1 8 75
r 1 2 [ 73 61 ] [ 72 60 ] r 3 2 70 r 1 6 70 72 73 75 76 79 80 82 84
r 1 2 [ 85 79 76 ] r 1 1 [ 85 79 76 ] r 1 2 [ 85 79 76 ] r 1 4 [ 84 80 75 ] 82 r 1 2 80 [ 87 75 ] [ 92 80 ]
r 1 2 [ 76 73 82 ] r 1 1 [ 76 73 82 ] r 1 2 [ 76 73 82 ] r 1 4 [ 72 77 80 ] 79 r 1 2 77 [ 72 84 ] [ 77 89 ]
r 1 2 [ 66 73 78 ] r 1 6 73 72 73 r 1 2 70 r 1 6 73 72 73 r 1 2 79 r 1 6 80 79 80 82 80 82 84 82 84
r 1 2 85 s r 1 3 [ 84 76 72 ] [ 83 76 71 ] [ 84 76 72 ] r 1 2 [ 89 77 ] s s s
xE1a
r 1 2 s r 1 4 [ 48 53 56 60 ] [ 48 53 56 60 ] r 1 2 [ 48 53 56 60 ] [ 48 53 56 60 ] [ 48 53 56 60 ] s s s
r 1 2 s r 1 4 [ 48 53 56 60 ] [ 48 53 56 60 ] r 1 2 [ 48 53 56 60 ] [ 48 53 56 60 ] [ 48 53 56 60 ] s s s
r 1 2 s r 1 4 [ 53 57 63 65 ] [ 53 57 63 65 ] r 1 2 [ 53 57 63 65 ] [ 53 57 63 65 ] [ 53 57 63 65 ] s s s
r 1 2 s r 1 4 [ 53 58 61 65 ] [ 53 58 61 65 ] r 1 2 [ 53 58 61 65 ] [ 53 58 61 65 ] [ 53 58 61 65 ] r 1 6 70 72 73 75 77 79 80 82 84
r 1 2 [ 85 79 76 ] r 1 1 [ 85 79 76 ] r 1 2 [ 85 79 76 ] r 1 4 [ 84 80 75 ] 82 r 1 2 80 [ 87 75 ] [ 92 80 ]
r 1 2 [ 76 73 82 ] r 1 1 [ 76 73 82 ] r 1 2 [ 76 73 82 ] r 1 4 [ 72 77 80 ] 79 r 1 2 77 [ 72 84 ] [ 77 89 ]
r 1 2 80 r 1 6 75 74 75 r 1 2 72 r 1 6 75 74 75 r 1 2 80 r 1 6 82 80 82 84 82 84 85 84 85
r 1 2 87 s [ 70 73 75 79 ] s [ 68 72 75 80 ] s [ 67 70 72 76 ] s
xE1b
r 1 2 [ 65 68 72 77 ] r 1 4 [ 48 53 56 60 ] [ 48 53 56 60 ] r 1 2 [ 48 53 56 60 ] [ 48 53 56 60 ] [ 48 53 56 60 ] s s s
r 1 2 s r 1 4 [ 48 53 56 60 ] [ 48 53 56 60 ] r 1 2 [ 48 53 56 60 ] [ 48 53 56 60 ] [ 48 53 56 60 ] s s s
r 1 2 s r 1 4 [ 53 57 63 65 ] [ 53 57 63 65 ] r 1 2 [ 53 57 63 65 ] [ 53 57 63 65 ] [ 53 57 63 65 ] s s s
r 1 2 s r 1 4 [ 53 58 61 65 ] [ 53 58 61 65 ] r 1 2 [ 53 58 61 65 ] [ 53 58 61 65 ] [ 53 58 61 65 ] r 1 6 70 72 73 75 77 79 80 82 84
r 1 2 [ 79 82 85 ] r 1 1 [ 79 82 85 ] r 1 2 [ 79 82 85 ] r 1 4 [ 84 80 ] [ 82 79 ] r 1 2 [ 80 77 ] [ 72 84 ] [ 77 89 ]
r 1 2 [ 76 79 82 ] r 1 1 [ 76 79 82 ] r 1 2 [ 76 79 82 ] r 1 4 [ 80 77 ] [ 79 75 ] r 1 2 [ 77 73 ] [ 68 80 ] [ 73 85 ]
r 1 2 78 r 1 6 73 72 73 r 1 2 70 r 1 6 73 72 73 r 1 2 78 r 1 6 80 78 80 82 80 82 84 82 84
r 1 2 85 s [ 76 79 82 84 ] s [ 77 80 84 89 ] s 65 s
xE1c
r 1 2 [ 72 75 79 84 ] [ 71 83 ] r 3 2 [ 72 84 ] r 1 2 [ 67 79 ] [ 63 72 75 ] [ 65 77 ]
r 1 2 [ 67 72 75 79 ] [ 66 78 ] r 3 2 [ 67 79 ] r 1 2 [ 63 75 ] [ 60 65 72 ] [ 62 74 ]
r 1 2 [ 63 65 72 75 ] [ 65 77 ] r 3 2 [ 66 78 ] r 1 2 [ 67 79 ] [ 68 71 77 80 ] [ 67 79 ]
r 1 2 [ 75 79 84 87 ] [ 74 86 ] r 3 2 [ 72 84 ] r 1 6 71 72 73 75 77 79 81 83 84
r 1 2 [ 77 82 85 ] r 1 4 [ 58 61 65 ] [ 58 61 65 ] r 1 2 [ 58 61 65 ] [ 58 61 65 ] [ 58 61 65 ] s s s
r 1 2 s r 1 4 [ 58 60 67 ] [ 58 60 67 ] r 1 2 [ 58 60 67 ] [ 58 60 67 ] [ 58 60 67 ] r 1 6 71 72 74 76 77 79 81 83 84
r 1 2 [ 77 82 85 ] r 1 4 [ 58 61 65 ] [ 58 61 65 ] r 1 2 [ 58 61 65 ] [ 58 61 65 ] [ 58 61 65 ] s s s
r 1 6 60 59 60 64 63 64 67 66 67 72 71 72 65 64 65 68 67 68 72 71 72 77 76 77
r 1 6 72 71 72 76 75 76 79 78 79 84 83 84 77 76 77 80 79 80 84 83 84 89 88 89
r 1 2 84 r 1 4 s [ 60 72 ] r 1 2 [ 60 72 ] r 1 4 s [ 60 72 ] r 1 2 [ 60 72 ] r 1 4 s [ 60 72 ] r 1 2 [ 60 72 ] r 1 4 s [ 60 72 ]
r 1 2 [ 60 72 ] r 1 4 s [ 60 72 ] r 1 2 [ 60 72 ] r 1 4 s [ 60 72 ] r 1 2 [ 60 72 ] r 1 4 s [ 60 72 ] r 1 2 [ 60 72 ] r 1 4 s [ 60 72 ]
xC1a
r 1 2 [ 60 65 69 72 ] s [ 60 65 69 72 ] s [ 60 65 69 72 ] s [ 60 65 69 72 ] s
r 1 2 [ 60 65 69 72 ] s [ 60 65 69 72 ] s [ 60 65 69 72 ] s [ 60 65 69 72 ] s
r 1 2 [ 65 70 74 ] s [ 64 70 72 76 ] s [ 65 69 72 77 ] s [ 60 65 69 ] s
r 1 2 [ 65 69 72 ] s [ 65 67 71 ] s [ 64 67 72 ] s [ 64 67 72 ] s
xX1a
r 1 2 [ 55 62 67 ] s [ 55 58 62 ] s [ 55 62 67 ] s [ 62 67 71 ] s
r 1 2 [ 62 69 ] s [ 62 65 ] s [ 62 65 69 ] s [ 65 69 74 ] s
r 1 2 [ 64 69 72 ] s [ 60 64 69 ] s [ 62 64 ] s [ 62 64 71 ] s
r 1 2 [ 61 64 69 ] s [ 57 61 ] s [ 57 61 64 ] s [ 61 64 69 ] s
r 1 2 [ 55 53 ] s [ 55 53 58 ] s [ 55 53 62 ] s [ 58 62 65 ] s
r 1 2 [ 57 60 65 ] s s s s r 1 6 [ 77 81 ] 82 81 r 1 2 [ 72 77 ] [ 82 86 	]
r 1 2 [ 81 84 ] s s s s s [ 58 60 ] s
r 1 2 [ 57 65 ] r 1 4 60 62 64 65 67 69 70 72 74 76 77 79 81 82
xC1b
r 1 4 [ 72 77 81 84 ] s s s [ 72 77 81 84 ] s s s [ 72 77 81 84 ] s s s [ 72 77 81 84 ] s s s
r 1 4 [ 72 77 81 84 ] s s s [ 72 77 81 84 ] s s s [ 72 77 81 84 ] s s s [ 72 77 81 84 ] s s s
r 1 4 [ 77 82 86 ] s s s [ 76 82 84 88 ] s s s [ 77 82 84 89 ] s s s [ 72 77 81 ] s s s
r 1 4 [ 72 77 81 84 ] s s s [ 71 77 79 83 ] s s s [ 72 76 79 84 ] s s s [ 72 76 79 84 ] s s s
xX1b
r 1 4 [ 55 62 67 ] s s s [ 55 58 62 ] s s s [ 55 62 67 ] s s s [ 62 67 70 ] s s s
r 1 4 [ 62 69 ] s s s [ 62 65 ] s s s [ 62 65 69 ] s s s [ 65 69 74 ] s s s
r 1 4 [ 64 69 72 ] s s s [ 60 64 69 ] s s s [ 62 64 ] s s s [ 62 64 71 ] s s s
r 1 4 [ 61 64 69 ] s s s [ 57 61 ] s s s [ 57 61 64 ] s s s [ 61 64 69 ] s s s
r 1 4 [ 55 53 ] s s s [ 55 53 58 ] s s s [ 55 53 62 ] s s s [ 58 62 65 ] s s s
r 1 4 [ 57 60 65 ] s r 2 1 s r 1 6 [ 77 81 ] 82 81 r 1 4 [ 72 77 ] s [ 82 86 ] s
r 1 4 [ 81 84 ] s r 5 2 s r 1 4 [ 67 70 72 76 ] s s s
xI2
r 1 2 [ 84 72 ] [ 83 71 ] r 3 2 [ 84 72 ] r 3 8 [ 83 71 ] r 1 8 85 r 1 2 [ 84 72 ] r 3 8 [ 82 70 ] r 1 8 82
r 1 2 [ 80 68 ] [ 79 67 ] r 3 2 [ 80 68 ] r 3 8 [ 79 67 ] r 1 8 82 r 1 2 [ 80 68 ] r 3 8 [ 79 67 ] r 1 8 79
r 1 2 [ 77 65 ] [ 76 64 ] r 3 2 [ 77 65 ] r 3 8 [ 75 63 ] r 1 8 75 r 1 2 [ 73 61 ] r 3 8 [ 72 60 ] r 1 8 75
r 1 2 [ 73 61 ] [ 72 60 ] r 3 2 70 r 1 6 70 72 73 75 76 79 80 82 84
r 1 2 [ 85 79 76 ] r 1 1 [ 85 79 76 ] r 1 2 [ 85 79 76 ] r 1 4 [ 84 80 75 ] 82 r 1 2 80 [ 87 75 ] [ 92 80 ]
r 1 2 [ 76 73 82 ] r 1 1 [ 76 73 82 ] r 1 2 [ 76 73 82 ] r 1 4 [ 72 77 80 ] 79 r 1 2 77 [ 72 84 ] [ 77 89 ]
r 1 2 [ 66 73 78 ] r 1 6 73 72 73 r 1 2 70 r 1 6 73 72 73 r 1 2 79 r 1 6 80 79 80 82 80 82 84 82 84
r 1 2 85 s r 1 3 [ 84 76 72 ] [ 83 76 71 ] [ 84 76 72 ] r 1 2 [ 89 77 ] s s s
c
xIzquierda
xI1
r 4 1 s
r 1 2 [ 53 41 ] r 1 4 [ 48 53 56 60 ] [ 48 53 56 60 ] r 1 2 [ 48 53 56 60 ] [ 48 53 56 60 ] [ 48 53 56 60 ] s [ 48 36 ] s
r 1 2 [ 53 41 ] r 1 4 [ 48 53 56 60 ] [ 48 53 56 60 ] r 1 2 [ 48 53 56 60 ] [ 48 53 56 60 ] [ 48 53 56 60 ] s [ 48 36 ] s
r 1 2 [ 53 41 ] r 1 4 [ 51 53 57 ] [ 51 53 57 ] r 1 2 [ 51 53 57 ] [ 51 53 57 ] [ 51 53 57 ] s [ 41 29 ] s
r 1 2 [ 46 34 ] r 1 4 [ 49 53 58 ] [ 49 53 58 ] r 1 2 [ 49 53 58 ] [ 49 53 58 ] [ 49 53 58 ] s s s
r 1 2 [ 51 39 ] r 1 1 [ 51 39 ] r 1 2 [ 51 39 ] [ 56 44 ] s [ 51 39 ] [ 56 44 ]
r 1 2 [ 48 36 ] r 1 1 [ 48 36 ] r 1 2 [ 48 36 ] [ 53 41 ] s [ 48 36 ] [ 53 41 ]
r 1 2 [ 58 46 ] 56 54 56 58 61 66 68
r 1 2 70 s r 1 3 [ 48 52 58 ] [ 48 52 58 ] [ 48 52 58 ] r 1 2 [ 53 56 ] s [ 48 36 ] s
xE1a
r 1 2 41 s s s s s [ 48 36 ] s
r 1 2 41 s s s s s [ 48 36 ] s
r 1 2 41 s s s s s 41 s
r 1 2 [ 46 34 ] s r 3 1 s
r 1 2 [ 51 39 ] r 1 1 [ 51 39 ] r 1 2 [ 51 39 ] [ 56 44 ] s [ 51 39 ] [ 56 44 ]
r 1 2 [ 48 36 ] r 1 1 [ 48 36 ] r 1 2 [ 48 36 ] [ 53 41 ] s [ 48 36 ] [ 53 41 ]
r 1 2 [ 60 68 ] [ 58 63 ] [ 56 60 ] [ 58 63 ] [ 60 68 ] [ 63 70 ] [ 68 72 ] [ 70 73 ]
r 1 2 [ 72 75 ] s [ 51 63 ] s [ 44 56 ] s [ 48 60 ] s
xE1b
r 1 2 [ 41 53 ] s s s s s [ 48 36 ] s
r 1 2 41 s s s s s [ 48 36 ] s
r 1 2 41 s s s s s 41 s
r 1 2 [ 46 34 ] s r 3 1 s
r 1 2 [ 52 40 ] r 1 1 [ 52 40 ] r 1 2 [ 52 40 ] r 1 2 [ 53 41 ] s 48 53
r 1 2 [ 48 36 ] r 1 1 [ 48 36 ] r 1 2 [ 48 36 ] r 1 2 [ 49 37 ] s 44 49
r 1 2 [ 66 58 ] [ 61 56 ] [ 46 54 ] [ 61 56 ] [ 66 58 ] [ 68 61 ] [ 70 66 ] [ 72 68 ]
r 1 2 [ 70 73 ] s [ 48 60 ] s [ 41 53 ] s [ 41 53 ] s
xE1c
r 1 2 [ 48 36 ] r 1 4 [ 55 60 63 ] [ 55 60 63 ] r 1 2 [ 55 60 63 ] [ 55 60 63 ] [ 55 60 63 ] s [ 43 31 ] s
r 1 2 [ 48 36 ] r 1 4 [ 55 60 63 ] [ 55 60 63 ] r 1 2 [ 55 60 63 ] [ 55 60 63 ] [ 55 60 63 ] s [ 44 32 ] s
r 1 2 [ 43 31 ] r 1 4 [ 48 51 55 ] [ 48 51 55 ] r 1 2 [ 48 51 55 ] [ 48 51 55 ] [ 48 51 55 ] s [ 43 31 ] s
r 1 2 [ 48 36 ] r 1 4 [ 48 51 55 60 ] [ 48 51 55 60 ] r 1 2 [ 48 51 55 60 ] [ 48 51 55 60 ] [ 48 51 55 60 ] s s s
r 3 1 [ 42 30 ] r 1 1 [ 43 31 ]
r 5 2 [ 48 36 ] r 3 2 s
r 3 1 [ 42 30 ] r 1 1 [ 43 31 ]
r 1 2 [ 48 36 ] [ 48 52 55 ] s [ 48 52 55 ] [ 48 53 56 ] [ 48 53 56 ] s [ 48 53 56 ]
r 1 2 [ 48 52 55 ] [ 48 52 55 ] s [ 48 52 55 60 ] [ 48 53 56 60 ] [ 48 53 56 60 ] s [ 48 53 56 60 ]
r 1 2 [ 48 52 55 60 ] r 3 2 s r 2 1 [ 55 58 64 ]
r 2 1 [ 53 57 ] [ 48 55 ]
xC1a
r 1 2 53 s 48 s 53 s 48 s
r 1 2 53 s 48 s 53 s 48 s
r 1 2 55 s 48 s 53 s 52 s
r 1 2 50 s 55 s 48 s 60 s
xX1a
r 1 2 46 s 50 s 46 s 43 s
r 1 2 41 s 45 s 41 s 38 s
r 1 2 40 s 48 s 47 s 40 s
r 1 2 45 s 52 s 49 s 45 s
r 1 2 46 s 50 s 46 s 43 s
r 9 2 48
r 1 2 s s s s s [ 48 52 ] s
r 1 2 [ 53 41 ] r 1 4 45 46 48 50 52 53 55 57 58 60 62 64 65 s
xC1b
r 1 4 [ 53 41 ] s s s [ 48 36 ] s s s [ 53 41 ] s s s [ 48 36 ] s s s
r 1 4 [ 53 41 ] s s s [ 48 36 ] s s s [ 53 41 ] s s s [ 48 36 ] s s s
r 1 4 [ 55 43 ] s s s [ 48 36 ] s s s [ 53 41 ] s s s [ 52 40 ] s s s
r 1 4 [ 50 38 ] s s s [ 55 43 ] s s s [ 48 36 ] s s s [ 60 48 ] s s s
xX1b
r 1 4 46 s s s 50 s s s 48 s s s 43 s s s
r 1 4 41 s s s 45 s s s 41 s s s 38 s s s
r 1 4 40 s s s 48 s s s 47 s s s 40 s s s
r 1 4 45 s s s 52 s s s 49 s s s 45 s s s
r 1 4 46 s s s 50 s s s 46 s s s 43 s s s
r 1 4 [ 48 36 ] s s s [ 53 41 ] s s s [ 57 45 ] s s s [ 60 48 ] s s s
r 1 4 [ 48 36 ] s r 5 2 s r 1 4 [ 60 48 ] s s s
xI1
r 1 2 [ 53 41 ] r 1 4 [ 48 53 56 60 ] [ 48 53 56 60 ] r 1 2 [ 48 53 56 60 ] [ 48 53 56 60 ] [ 48 53 56 60 ] s [ 48 36 ] s
r 1 2 [ 53 41 ] r 1 4 [ 48 53 56 60 ] [ 48 53 56 60 ] r 1 2 [ 48 53 56 60 ] [ 48 53 56 60 ] [ 48 53 56 60 ] s [ 48 36 ] s
r 1 2 [ 53 41 ] r 1 4 [ 51 53 57 ] [ 51 53 57 ] r 1 2 [ 51 53 57 ] [ 51 53 57 ] [ 51 53 57 ] s [ 41 29 ] s
r 1 2 [ 46 34 ] r 1 4 [ 49 53 58 ] [ 49 53 58 ] r 1 2 [ 49 53 58 ] [ 49 53 58 ] [ 49 53 58 ] s s s
r 1 2 [ 51 39 ] r 1 1 [ 51 39 ] r 1 2 [ 51 39 ] [ 56 44 ] s [ 51 39 ] [ 56 44 ]
r 1 2 [ 48 36 ] r 1 1 [ 48 36 ] r 1 2 [ 48 36 ] [ 53 41 ] s [ 48 36 ] [ 53 41 ]
r 1 2 [ 58 46 ] 56 54 56 58 61 66 68
r 1 2 70 s r 1 3 [ 48 52 58 ] [ 48 52 58 ] [ 48 52 58 ] r 1 2 [ 53 56 ] s [ 48 36 ] s
