t 110
c
o 40
r 4 1 s
r 1 2 67 s 69 s 71 s 72 s
r 1 2 74 s 76 s 78 s 79 s
r 1 2 79 s 78 s 76 s 74 s
r 1 2 72 s 71 s 69 s 67 s
r 1 2 67 s 69 s 71 s 72 s
r 1 2 74 s 76 s 78 s 79 s
r 1 2 79 s 78 s 76 s 74 s
r 1 2 72 s 71 s 69 s 67 s
r 1 2 55 s 57 s 59 s 60 s
r 1 2 62 s 64 s 66 s 67 s
r 1 2 67 s 66 s 64 s 62 s
r 1 2 60 s 59 s 57 s 55 s
r 1 2 55 s 57 s 59 s 60 s
r 1 2 62 s 64 s 66 s 67 s
r 1 2 67 s 66 s 64 s 62 s
r 1 2 60 s 59 s 57 s 55 s
c
C 9
r 1 1 34 33 33 33
r 1 1 34 33 33 33
r 1 1 34 33 33 33
r 1 1 34 33 33 33
r 1 1 34 33 33 33
r 1 1 34 33 33 33
r 1 1 34 33 33 33
r 1 1 34 33 33 33
r 1 1 34 33 33 33
r 1 1 34 33 33 33
r 1 1 34 33 33 33
r 1 1 34 33 33 33
r 1 1 34 33 33 33
r 1 1 34 33 33 33
r 1 1 34 33 33 33
r 1 1 34 33 33 33
r 1 1 34 33 33 33
