xIzquierda
n Piano1
r 1 1 62 62 62 62
r 1 1 62 62 62 62
r 1 1 62 62 62 62
r 1 1 62 62 62 62
x4
r 1 1 62 62 62 62
r 1 1 62 62 62 62
r 1 1 62 62 62 62
r 1 1 62 62 62 62
x8
r 1 1 [ 58 62 ] [ 58 62 ] [ 58 62 ] [ 58 62 ]
r 1 1 [ 58 62 ] [ 58 62 ] [ 58 62 ] [ 58 62 ]
r 1 1 [ 57 62 ] [ 57 62 ] [ 57 62 ] [ 57 62 ]
r 1 1 [ 57 62 ] [ 57 62 ] [ 57 62 ] [ 57 62 ]
x12
r 1 1 [ 60 64 ] [ 60 64 ] [ 60 64 ] [ 60 64 ]
r 1 1 [ 60 64 ] [ 60 64 ] [ 60 64 ] [ 60 64 ]
r 1 1 [ 58 62 ] [ 58 62 ] [ 58 62 ] [ 58 62 ]
r 1 1 [ 57 64 ] [ 57 64 ] [ 57 64 ] [ 57 64 ]
x16
r 1 1 62 62 62 62
r 1 1 62 62 62 62
r 1 1 62 62 62 62
r 1 1 62 62 62 62
x20
r 1 1 62 62 62 62
r 1 1 62 62 62 62
r 1 1 [ 60 64 ] [ 60 64 ] [ 60 64 ] [ 60 64 ]
r 1 1 [ 60 64 ] [ 60 64 ] [ 60 64 ] [ 60 64 ]
x24
r 1 1 [ 58 62 ] [ 58 62 ] [ 58 62 ] [ 58 62 ]
r 1 1 [ 58 62 ] [ 58 62 ] [ 58 62 ] [ 58 62 ]
r 1 1 [ 57 62 ] [ 57 62 ] [ 57 62 ] [ 57 62 ]
r 1 1 [ 57 62 ] [ 57 62 ] [ 57 62 ] [ 57 62 ]
x28
r 1 1 [ 55 58 62 ] [ 55 58 62 ] [ 55 58 62 ] [ 55 58 62 ]
r 1 1 [ 53 58 62 ] [ 53 58 62 ] [ 53 58 62 ] [ 53 58 62 ]
r 1 1 [ 52 58 62 ] [ 52 58 62 ] [ 52 58 62 ] [ 52 58 62 ]
r 1 1 [ 45 57 61 ] [ 45 57 61 ] [ 45 57 61 ] [ 45 57 61 ]
x32
r 1 1 50 s 62 62
r 1 1 62 62 62 62
r 1 1 62 62 62 62
r 1 1 62 62 62 62
x36
r 1 1 62 62 62 62
r 1 1 60 60 60 60
r 1 1 59 59 59 59
r 1 1 59 59 59 59
x40
r 1 1 62 62 62 62
r 1 1 [ 57 64 ] [ 57 64 ] [ 57 64 ] [ 57 64 ]
r 1 1 [ 50 57 62 ] [ 50 62 ] [ 50 62 ] [ 50 62 ]
r 1 1 [ 50 62 ] [ 50 62 ] [ 50 62 ] [ 50 62 ]
x44
r 1 1 50 50 50 50
r 1 1 50 50 50 50
r 1 1 50 50 50 50
r 1 1 50 50 50 50
x48
r 1 1 [ 43 52 58 ] 43 43 43
r 1 1 43 43 43 43
r 1 1 [ 45 52 ] 45 45 45
r 1 1 [ 45 52 ] 45 45 45
x52
r 1 1 [ 38 50 ] 38 38 38
r 1 1 38 38 38 38
r 1 1 38 62 62 62
r 1 1 62 62 62 62
x56
r 1 1 62 62 62 62
r 1 1 62 62 62 62
r 1 1 62 62 62 62
r 1 1 62 62 62 62
x60
r 1 1 [ 55 62 ] [ 55 62 ] [ 55 62 ] [ 55 62 ]
r 1 1 [ 57 64 ] [ 57 64 ] [ 57 64 ] [ 57 64 ]
r 4 1 s
r 8 1 50
xDerecha
c
n Piano2
r 1 6 s 69 74 r 7 2 77
r 2 1 s [ 70 74 79 ]
r 1 4 67 70 r 7 2 76
r 3 1 s r 1 2 74 76
x4
r 1 4 69 74 r 7 2 77
r 2 1 s [ 70 74 79 ]
r 1 4 67 70 r 7 2 76
r 3 1 s r 1 2 70 72
x8
r 4 1 [ 65 74 ]
r 2 1 s [ 64 76 ]
r 4 1 [ 65 77 ]
r 2 1 s [ 67 79 ]
x12
r 4 1 [ 69 81 ]
r 2 1 s [ 69 81 ]
r 1 6 67 70 74 r 7 2 79
r 4 1 [ 67 73 ]
x16
r 1 6 s 69 74 r 7 2 77
r 2 1 s r 1 4 70 74 r 3 2 79
r 1 4 67 70 r 7 2 76
r 3 1 s r 1 2 74 76
x20
r 1 4 69 74 r 7 2 77
r 2 1 s r 1 4 70 74 r 3 2 79
r 1 4 s 69 r 7 2 76
r 4 1 s
x24
r 1 4 s 67 r 7 2 74
r 2 1 s r 1 1 76 77
r 1 4 s 69 r 7 2 74
r 2 1 s [ 65 69 ]
x28
r 1 4 s 64 r 7 2 72
r 2 1 s r 1 4 s 65 r 3 2 70
r 1 4 s 64 r 7 2 69
r 4 1 s
x32
r 1 1 [ 57 62 65 ] 62 s s
r 4 1 s
r 4 1 s
r 4 1 s
x36
r 4 1 [ 65 69 77 ]
r 4 1 [ 65 69 72 76 ]
r 4 1 [ 65 69 74 ]
r 4 1 s
x40
r 4 1 [ 67 70 72 74 ]
r 4 1 73
r 4 1 [ 65 74 ]
r 4 1 s
x44
r 4 1 [ 55 62 65 ]
r 2 1 s 67
r 4 1 [ 55 57 64 ]
r 4 1 s
x48
r 4 1 62
r 4 1 s
r 4 1 [ 57 62 ]
r 4 1 [ 57 61 ]
x52
r 4 1 [ 57 62 65 ]
r 4 1 s
r 1 8 s 69 74 r 29 8 77
r 2 1 s r 1 6 70 74 r 10 6 79
x56
r 1 6 67 70 r 22 6 76
r 3 1 s r 1 2 74 76
r 1 6 69 74 r 22 6 77
r 2 1 s r 1 6 70 74 r 10 6 79
x60
r 4 1 [ 67 70 ]
r 4 1 [ 69 73 ]
r 4 1 s
r 8 1 [ 57 62 65 ]
xViolin
c
n Violin
o 40
r 128 1 s
x32
r 4 1 s
r 2 1 s r 1 2 57 57 r 1 6 62 65 69 r 1 4 74 77
r 4 1 81
r 1 8 79 81 r 15 4 79
x36
r 5 2 s r 3 2 79
r 2 1 76 r 1 1 77 79
r 3 2 77 r 1 4 76 74 r 4 1 69
r 1 2 62 64 r 1 6 65 67 69 r 1 4 70 72
x40
r 7 2 74 r 1 4 76 74
r 4 1 73
r 7 2 s r 5 2 74
r 1 2 76 r 1 6 77 79 81 82 84 86 r 1 2 88
x44
r 3 1 89 r 1 2 91 89
r 7 2 88 r 1 2 87
r 7 2 88 r 1 4 89 88
r 3 1 86 r 1 1 81
x48
r 4 1 84
r 3 4 s r 1 2 74 r 3 4 76 r 3 4 82 r 1 2 69 r 3 4 70
r 4 1 77
r 1 4 76 74 r 5 2 76 r 1 2 77 76
x52
r 4 1 74
r 4 1 s
r 6 1 74
r 2 1 79
x56
r 7 1 76
r 1 2 74 76
r 6 1 77
r 2 1 79
x60
r 8 1 76
r 4 1 s
r 8 1 74