t 75
c
C 1
xTenor
o 68
x1a
r 3 1 57 r 1 1 53
r 2 1 60 r 3 1 60
r 1 1 60 60 57
r 2 1 62 r 4 1 60
r 1 1 s 57
r 1 1 57 57 r 3 2 62 r 1 2 60
x1b7
r 2 1 58 r 4 1 57
r 2 1 s
r 3 1 s r 1 1 58
r 1 1 55 55 r 2 1 62
r 1 1 60 57 r 2 1 60
r 1 2 58 57 r 1 1 53 55 55
x2a13
r 2 1 53 60
r 3 1 65 r 1 1 64
r 1 1 62 60 58 60
r 1 1 60 57 55 55
r 1 1 57 62 60 55
x2b18
r 1 1 57 57 r 2 1 59
r 1 1 60 r 2 1 67 r 1 1 60
r 1 1 67 65 64 62
r 4 1 60
r 1 1 57 r 2 1 62 60
x2c23
r 1 1 53 60 58
r 1 1 57 62 60 55
r 1 1 57 53 55 55
r 2 1 60 60
x2a14
r 3 1 65 r 1 1 64
r 1 1 62 60 58 60
r 1 1 60 57 55 55
r 1 1 57 62 60 55
x2b18
r 1 1 57 57 r 2 1 59
r 1 1 60 r 2 1 67 r 1 1 60
r 1 1 67 65 64 62
r 4 1 60
r 1 1 57 r 2 1 62 60
x2c23
r 1 1 53 60 58
r 1 1 57 62 60 55
r 1 1 57 53 55 55
r 4 1 60
c
C 2
xSoprano
o 48
v 50
x1a
r 3 1 65 r 1 1 65
r 2 1 67 r 3 1 69
r 1 1 69 67 65
r 2 1 70 69
r 1 1 s 69 69 69
r 2 1 72 r 1 1 70 r 2 1 69
x1b7
r 1 1 67 r 2 1 69
r 4 1 s
r 1 1 s 67 65 65
r 3 1 70 r 2 1 69
r 1 1 65 69 r 2 1 67
r 2 1 65 r 1 1 64
x2a13
r 2 1 65 s
r 4 1 s
r 4 1 s
r 1 1 s 65 r 3 1 72
r 1 1 70 69 67
x2b18
r 1 1 65 69 r 2 1 67
r 2 1 67 s
r 4 1 s
r 1 1 s r 2 1 72 r 1 1 65
r 1 1 72 70 r 2 1 69
x2c23
r 1 1 67 65 64 62
r 1 1 60 r 2 1 65 r 1 1 60
r 1 1 62 58 r 2 1 60
r 2 1 60 s
x2a14
r 4 1 s
r 4 1 s
r 1 1 s 65 r 3 1 72
r 1 1 70 69 67
x2b18
r 1 1 65 69 r 2 1 67
r 2 1 67 s
r 4 1 s
r 1 1 s r 2 1 72 r 1 1 65
r 1 1 72 70 r 2 1 69
x2c23
r 1 1 67 65 64 62
r 1 1 60 r 2 1 65 r 1 1 60
r 1 1 62 58 r 2 1 60
r 4 1 60
c
C 3
xAlto
o 48
v 50
x1a
r 3 1 60 r 1 1 62
r 2 1 64 r 3 1 65
r 1 1 65 64 62
r 2 1 65 r 4 1 65
r 2 1 s
r 4 1 s
x1b7
r 1 1 s 62 62 62
r 2 1 65 r 1 1 64 r 2 1 62
r 1 1 60 62 62
r 1 1 58 58 r 2 1 65
r 1 1 65 60 65 64
r 1 1 62 58 r 3 2 60 r 1 2 60
x2a13
r 2 1 60 s
r 2 1 s 65
r 3 1 70 r 1 1 69
r 1 1 67 65 65 64
r 2 1 65 r 1 1 65 60
x2b18
r 1 1 62 62 r 2 1 62
r 2 1 64 64
r 1 1 64 r 2 1 69 r 3 2 67
r 1 2 65 r 1 1 65 s r 2 1 65
r 1 1 58 65 65
x2c23
r 1 1 64 r 2 1 72 r 1 1 65
r 1 1 72 70 69 r 3 2 67
r 1 2 65 r 2 1 65 r 1 1 64
r 2 1 65 s
x2a14
r 2 1 s 65
r 3 1 70 r 1 1 69
r 1 1 67 65 65 64
r 2 1 65 r 1 1 65 60
x2b18
r 1 1 62 62 r 2 1 62
r 2 1 64 64
r 1 1 64 r 2 1 69 r 3 2 67
r 1 2 65 r 1 1 65 s r 2 1 65
r 1 1 58 65 65
x2c23
r 1 1 64 r 2 1 72 r 1 1 65
r 1 1 72 70 69 r 3 2 67
r 1 2 65 r 2 1 65 r 1 1 64
r 4 1 65 s
c
C 4
xBajo
o 48
v 50
x1a
r 3 1 53 r 1 1 50
r 2 1 48 r 3 1 53
r 1 1 53 48 50
r 2 1 46 r 6 1 53
r 4 1 s
x1b7
r 2 1 s 50
r 1 1 50 50 r 3 2 55 r 1 2 53
r 2 1 52 r 1 1 50 s
r 1 1 s 55 50 50
r 2 1 53 r 1 1 53 48
r 1 1 50 50 48 48
x2a13
r 2 1 53 s
r 2 1 53 r 3 1 58
r 1 1 57 55 53
r 1 1 52 53 r 2 1 48
r 1 1 53 53 53 52
x2b18
r 1 1 50 50 r 2 1 55
r 2 1 48 r 1 1 s r 2 1 60
r 1 1 53 60 58
r 2 1 57 r 1 1 53 r 3 2 57
r 1 2 53 r 1 1 55 r 2 1 53
x2c23
r 3 1 s r 2 1 53
r 1 1 46 53 52
r 1 1 50 50 48 48
r 2 1 53 s

x2a14
r 2 1 53 r 3 1 58
r 1 1 57 55 53
r 1 1 52 53 r 2 1 48
r 1 1 53 53 53 52
x2b18
r 1 1 50 50 r 2 1 55
r 2 1 48 r 1 1 s r 2 1 60
r 1 1 53 60 58
r 2 1 57 r 1 1 53 r 3 2 57
r 1 2 53 r 1 1 55 r 2 1 53
x2c23
r 3 1 s r 2 1 53
r 1 1 46 53 52
r 1 1 50 50 48 48
r 4 1 53
c
C 9
r 1 1 34 33 33 33
r 1 1 34 33 33 33
r 1 1 34 33 33 33
r 1 1 34 33 33 33
r 1 1 34 33 33 33
r 1 1 34 33 33 33
r 1 1 34 33 33 33
r 1 1 34 33 33 33
r 1 1 34 33 33 33
r 1 1 34 33 33 33
r 1 1 34 33 33 33
r 1 1 34 33 33 33
r 1 1 34 33 33 33
r 1 1 34 33 33 33
r 1 1 34 33 33 33
r 1 1 34 33 33 33
r 1 1 34 33 33 33
r 1 1 34 33 33 33
r 1 1 34 33 33 33
r 1 1 34 33 33 33
r 1 1 34 33 33 33
r 1 1 34 33 33 33
r 1 1 34 33 33 33
r 1 1 34 33 33 33
r 1 1 34 33 33 33
r 1 1 34 33 33 33
xR1
r 1 1 34 33 33 33
r 1 1 34 33 33 33
r 1 1 34 33 33 33
r 1 1 34 33 33 33
r 1 1 34 33 33 33
r 1 1 34 33 33 33
r 1 1 34 33 33 33
r 1 1 34 33 33 33
r 1 1 34 33 33 33
r 1 1 34 33 33 33
r 1 1 34 33 33 33
r 1 1 34 33 33 33
r 1 1 34 33 33 33
